# NV = 8 NF = 12
v -13.7814 6 9.9474
v -13.3116 6 9.7763
v -9.6772 6 21.2237
v -9.2073 6 21.0527
v -13.7814 -6 9.9473
v -13.3116 -6 9.7763
v -9.6772 -6 21.2237
v -9.2073 -6 21.0526
f 1 3 4 
f 4 2 1 
f 5 6 8 
f 8 7 5 
f 1 2 6 
f 6 5 1 
f 2 4 8 
f 8 6 2 
f 4 3 7 
f 7 8 4 
f 3 1 5 
f 5 7 3 
