# NV = 8 NF = 12
v 10.2046 2.9832 23.5533
v 10.2046 18.9832 23.5533
v -8.7954 2.9832 23.5533
v -8.7954 18.9832 23.5533
v 10.2046 2.9832 22.5533
v 10.2046 18.9832 22.5533
v -8.7954 2.9832 22.5533
v -8.7954 18.9832 22.5533
f 5 7 8 
f 8 6 5 
f 1 2 4 
f 4 3 1 
f 5 6 2 
f 2 1 5 
f 6 8 4 
f 4 2 6 
f 8 7 3 
f 3 4 8 
f 7 5 1 
f 1 3 7 
