# NV = 8 NF = 12
v -8.7954 18.9832 -16.6084
v 10.2046 2.9832 -15.6084
v 10.2046 18.9832 -15.6084
v -8.7954 2.9832 -15.6084
v -8.7954 18.9832 -15.6084
v 10.2046 2.9832 -16.6084
v 10.2046 18.9832 -16.6084
v -8.7954 2.9832 -16.6084
f 6 8 1 
f 1 7 6 
f 2 3 5 
f 5 4 2 
f 6 7 3 
f 3 2 6 
f 7 1 5 
f 5 3 7 
f 1 8 4 
f 4 5 1 
f 8 6 2 
f 2 4 8 
