# NV = 98 NF = 192
v -0.21394 0.183475 0.510087
v -0.310492 0.0900244 0.510087
v -0.21394 0.183475 0.583591
v -0.297879 0.169665 0.582809
v -0.212679 0.169665 0.603487
v -0.292834 0.16414 0.600358
v -0.297879 0.0886461 0.603487
v -0.21394 0.0900244 0.611307
v -0.310492 0.0900244 0.583591
v -0.212679 -0.386422 0.603487
v -0.21394 -0.306785 0.611307
v -0.292834 -0.3809 0.600358
v -0.297879 -0.305404 0.603487
v -0.21394 -0.400234 0.583591
v -0.297879 -0.386422 0.582809
v -0.310492 -0.306785 0.583591
v -0.21394 -0.400234 0.510087
v -0.297879 -0.386422 0.51087
v -0.212679 -0.386422 0.490192
v -0.292834 -0.3809 0.49332
v -0.297879 -0.305404 0.490192
v -0.21394 -0.306785 0.482372
v -0.310492 -0.306785 0.510087
v 0.316463 -0.307244 0.546838
v 0.316463 -0.10838 0.583852
v 0.321508 -0.10838 0.546838
v 0.316463 0.0904869 0.546838
v 0.316463 -0.10838 0.509827
v -0.21436 -0.10838 0.479766
v 0.000884457 -0.10838 0.476637
v 0.000884457 0.0904869 0.479766
v 0.000884457 -0.307244 0.479766
v 0.216129 -0.10838 0.479766
v 0.301331 -0.10838 0.489149
v 0.000884457 0.193602 0.546838
v -0.21436 0.188079 0.546838
v 0.000884457 0.188079 0.583852
v 0.000884457 0.188079 0.509827
v 0.216129 0.188079 0.546838
v 0.000884457 0.171506 0.489149
v 0.301331 0.171506 0.546838
v 0.000884457 -0.10838 0.617042
v -0.21436 -0.10838 0.613913
v 0.000884457 -0.307244 0.613913
v 0.000884457 0.0904869 0.613913
v 0.216129 -0.10838 0.613913
v 0.000884457 0.171506 0.60453
v 0.301331 -0.10838 0.60453
v 0.000884457 -0.404837 0.509827
v -0.21436 -0.404837 0.546838
v 0.000884457 -0.41036 0.546838
v 0.000884457 -0.404837 0.583852
v 0.216129 -0.404837 0.546838
v 0.000884457 -0.388263 0.489149
v 0.000884457 -0.388263 0.60453
v 0.301331 -0.388263 0.546838
v -0.314695 -0.10838 0.509827
v -0.314695 0.0904869 0.546838
v -0.319739 -0.10838 0.546838
v -0.314695 -0.10838 0.583852
v -0.314695 -0.307244 0.546838
v -0.299562 -0.10838 0.489149
v -0.299562 0.171506 0.546838
v -0.299562 -0.10838 0.60453
v -0.299562 -0.388263 0.546838
v 0.215708 0.0900244 0.482372
v 0.214448 0.169665 0.490192
v 0.299648 0.0886461 0.490192
v 0.294603 0.16414 0.49332
v 0.312261 0.0900244 0.510087
v 0.299648 0.169665 0.51087
v 0.215708 0.183475 0.510087
v 0.215708 0.183475 0.583591
v 0.214448 0.169665 0.603487
v 0.299648 0.169665 0.582809
v 0.294603 0.16414 0.600358
v 0.299648 0.0886461 0.603487
v 0.312261 0.0900244 0.583591
v 0.215708 0.0900244 0.611307
v 0.299648 -0.305404 0.603487
v 0.215708 -0.306785 0.611307
v 0.294603 -0.3809 0.600358
v 0.214448 -0.386422 0.603487
v 0.312261 -0.306785 0.583591
v 0.299648 -0.386422 0.582809
v 0.215708 -0.400234 0.583591
v 0.299648 -0.386422 0.51087
v 0.294603 -0.3809 0.49332
v 0.312261 -0.306785 0.510087
v 0.299648 -0.305404 0.490192
v 0.214448 -0.386422 0.490192
v 0.215708 -0.306785 0.482372
v 0.215708 -0.400234 0.510087
v -0.21394 0.0900244 0.482372
v -0.297879 0.0886461 0.490192
v -0.212679 0.169665 0.490192
v -0.292834 0.16414 0.49332
v -0.297879 0.169665 0.51087
f 66 67 68 
f 69 68 67 
f 70 68 71 
f 69 71 68 
f 67 72 69 
f 71 69 72 
f 73 74 75 
f 76 75 74 
f 76 77 75 
f 78 75 77 
f 76 74 77 
f 79 77 74 
f 80 81 82 
f 83 82 81 
f 84 80 85 
f 82 85 80 
f 83 86 82 
f 85 82 86 
f 87 88 89 
f 90 89 88 
f 88 91 90 
f 92 90 91 
f 91 88 93 
f 87 93 88 
f 94 95 96 
f 97 96 95 
f 98 1 97 
f 96 97 1 
f 95 2 97 
f 98 97 2 
f 3 4 5 
f 6 5 4 
f 6 7 5 
f 8 5 7 
f 6 4 7 
f 9 7 4 
f 10 11 12 
f 13 12 11 
f 14 10 15 
f 12 15 10 
f 16 15 13 
f 12 13 15 
f 17 18 19 
f 20 19 18 
f 21 22 20 
f 19 20 22 
f 21 20 23 
f 18 23 20 
f 84 24 25 
f 26 25 24 
f 27 78 26 
f 25 26 78 
f 28 70 26 
f 27 26 70 
f 89 28 24 
f 26 24 28 
f 29 94 30 
f 31 30 94 
f 29 30 22 
f 32 22 30 
f 32 30 92 
f 33 92 30 
f 30 31 33 
f 66 33 31 
f 28 89 34 
f 90 34 89 
f 68 70 34 
f 28 34 70 
f 66 68 33 
f 34 33 68 
f 34 90 33 
f 92 33 90 
f 35 36 37 
f 3 37 36 
f 36 35 1 
f 38 1 35 
f 39 72 35 
f 38 35 72 
f 37 73 35 
f 39 35 73 
f 40 31 96 
f 94 96 31 
f 67 66 40 
f 31 40 66 
f 40 38 67 
f 72 67 38 
f 40 96 38 
f 1 38 96 
f 27 70 41 
f 71 41 70 
f 78 27 75 
f 41 75 27 
f 73 75 39 
f 41 39 75 
f 72 39 71 
f 41 71 39 
f 42 43 44 
f 11 44 43 
f 42 45 43 
f 8 43 45 
f 46 79 42 
f 45 42 79 
f 81 46 44 
f 42 44 46 
f 47 37 5 
f 3 5 37 
f 73 37 74 
f 47 74 37 
f 79 74 45 
f 47 45 74 
f 5 8 47 
f 45 47 8 
f 25 78 48 
f 77 48 78 
f 80 84 48 
f 25 48 84 
f 46 81 48 
f 80 48 81 
f 77 79 48 
f 46 48 79 
f 17 49 50 
f 51 50 49 
f 52 14 51 
f 50 51 14 
f 53 86 51 
f 52 51 86 
f 51 49 53 
f 93 53 49 
f 32 92 54 
f 91 54 92 
f 22 32 19 
f 54 19 32 
f 17 19 49 
f 54 49 19 
f 91 93 54 
f 49 54 93 
f 11 10 44 
f 55 44 10 
f 44 55 81 
f 83 81 55 
f 55 52 83 
f 86 83 52 
f 52 55 14 
f 10 14 55 
f 84 85 24 
f 56 24 85 
f 89 24 87 
f 56 87 24 
f 87 56 93 
f 53 93 56 
f 85 86 56 
f 53 56 86 
f 2 57 58 
f 59 58 57 
f 59 60 58 
f 9 58 60 
f 60 59 16 
f 61 16 59 
f 23 61 57 
f 59 57 61 
f 21 62 22 
f 29 22 62 
f 94 29 95 
f 62 95 29 
f 2 95 57 
f 62 57 95 
f 21 23 62 
f 57 62 23 
f 1 98 36 
f 63 36 98 
f 4 3 63 
f 36 63 3 
f 9 4 58 
f 63 58 4 
f 2 58 98 
f 63 98 58 
f 8 7 43 
f 64 43 7 
f 11 43 13 
f 64 13 43 
f 16 13 60 
f 64 60 13 
f 7 9 64 
f 60 64 9 
f 50 14 65 
f 15 65 14 
f 65 18 50 
f 17 50 18 
f 23 18 61 
f 65 61 18 
f 16 61 15 
f 65 15 61 
