# NV = 160 NF = 316
v 1.02101 -0.791754 -0.062972
v 1.01257 -0.790266 -0.062972
v 1.01257 -0.790266 2.10346
v 1.02844 -0.796039 -0.062972
v 1.02195 -0.792298 2.10335
v 1.03395 -0.802609 -0.062972
v 1.02983 -0.797696 2.10327
v 1.03688 -0.810667 -0.062972
v 1.03505 -0.80564 2.10322
v 1.03688 -0.819239 -0.062972
v 1.03688 -0.814952 2.1032
v 1.03505 -0.824266 2.10322
v 1.03395 -0.827299 -0.062972
v 1.02983 -0.83221 2.10327
v 1.02844 -0.833865 -0.062972
v 1.02195 -0.837607 2.10335
v 1.02101 -0.838152 -0.062972
v 1.00412 -0.838152 -0.062972
v 1.01257 -0.839642 -0.062972
v 0.9967 -0.833865 -0.062972
v 0.991187 -0.827299 -0.062972
v 0.995309 -0.83221 2.10327
v 0.988254 -0.819239 -0.062972
v 0.988254 -0.814952 2.1032
v 0.988254 -0.810667 -0.062972
v 0.991187 -0.802609 -0.062972
v 0.995309 -0.797696 2.10327
v 0.9967 -0.796039 -0.062972
v 1.00318 -0.792298 2.10335
v 1.00412 -0.791754 -0.062972
v 0.996775 -0.776824 2.12336
v 1.01257 -0.773681 2.12336
v 1.04175 -0.844135 2.12336
v 1.01257 -0.856222 2.12336
v 0.974439 -0.830746 2.12336
v 0.971299 -0.814952 2.12336
v 0.980979 -0.783366 2.14117
v 0.995474 -0.773681 2.14117
v 0.996775 -0.776824 2.15898
v 0.990233 -0.792615 2.17407
v 1.00048 -0.785771 2.17407
v 1.01257 -0.773681 2.15898
v 1.00048 -0.802864 2.18417
v 1.00602 -0.799158 2.18417
v 1.01257 -0.783366 2.17407
v 1.01257 -0.814952 2.1877
v 1.01257 -0.797859 2.18417
v 1.02466 -0.785771 2.17407
v 1.01911 -0.799158 2.18417
v 1.0349 -0.792615 2.17407
v 1.02466 -0.802864 2.18417
v 1.02836 -0.808412 2.18417
v 1.02966 -0.814952 2.18417
v 1.02836 -0.821494 2.18417
v 1.0349 -0.837288 2.17407
v 1.02466 -0.827039 2.18417
v 1.02466 -0.844135 2.17407
v 1.01911 -0.830746 2.18417
v 1.00602 -0.830746 2.18417
v 1.00048 -0.827039 2.18417
v 0.971299 -0.814952 2.15898
v 0.967897 -0.814952 2.14117
v 0.974439 -0.830746 2.15898
v 0.971299 -0.832047 2.14117
v 1.01257 -0.856222 2.15898
v 1.04175 -0.844135 2.15898
v 1.05724 -0.814952 2.14117
v 1.05384 -0.797859 2.14117
v 1.04416 -0.783366 2.14117
v 1.02836 -0.776824 2.15898
v 0.980979 -0.84654 2.14117
v 1.00048 -0.785771 2.10826
v 1.00611 -0.791402 2.10356
v 1.00412 -0.791754 2.10359
v 0.983386 -0.785771 2.12336
v 0.974439 -0.799158 2.12336
v 0.971299 -0.797859 2.14117
v 0.974439 -0.799158 2.15898
v 0.983386 -0.785771 2.15898
v 1.04175 -0.785771 2.12336
v 1.0507 -0.79916 2.12336
v 1.04175 -0.802864 2.10826
v 1.05384 -0.814952 2.12336
v 1.04416 -0.814952 2.10826
v 1.0507 -0.830746 2.12336
v 1.04175 -0.827039 2.10826
v 0.996775 -0.853082 2.12336
v 0.983386 -0.844135 2.12336
v 0.990233 -0.837288 2.10826
v 0.995474 -0.856222 2.14117
v 0.996775 -0.853082 2.15898
v 0.983386 -0.844135 2.15898
v 1.01257 -0.859624 2.14117
v 1.02966 -0.856222 2.14117
v 1.02836 -0.853082 2.15898
v 1.02836 -0.853082 2.12336
v 1.04416 -0.84654 2.14117
v 1.05384 -0.832047 2.14117
v 1.0507 -0.830746 2.15898
v 1.01257 -0.770282 2.14117
v 1.02966 -0.773681 2.14117
v 1.02836 -0.776824 2.12336
v 1.04175 -0.802864 2.17407
v 1.0507 -0.79916 2.15898
v 1.04175 -0.785771 2.15898
v 1.04416 -0.814952 2.17407
v 1.05384 -0.814952 2.15898
v 1.04175 -0.827039 2.17407
v 1.00048 -0.844135 2.17407
v 1.01257 -0.84654 2.17407
v 1.01257 -0.832047 2.18417
v 0.990233 -0.837288 2.17407
v 0.983386 -0.827039 2.17407
v 0.996775 -0.821494 2.18417
v 0.995474 -0.814952 2.18417
v 0.996775 -0.808412 2.18417
v 0.983386 -0.802864 2.17407
v 0.980979 -0.814952 2.17407
v 0.99745 -0.795606 2.10365
v 0.990233 -0.792615 2.10826
v 0.9967 -0.796039 2.10369
v 0.991187 -0.802609 2.10376
v 0.991093 -0.802864 2.10371
v 0.983386 -0.802864 2.10826
v 0.980979 -0.814952 2.10826
v 0.990085 -0.80564 2.10322
v 0.988254 -0.810667 2.10379
v 0.988254 -0.819239 2.10379
v 0.990083 -0.824266 2.10322
v 0.983386 -0.827039 2.10826
v 0.991187 -0.827299 2.10376
v 0.993318 -0.829837 2.10351
v 0.9967 -0.833865 2.10369
v 1.00048 -0.836051 2.10349
v 1.00048 -0.844135 2.10826
v 1.00412 -0.838152 2.10359
v 1.01257 -0.839642 2.10346
v 1.01257 -0.84654 2.10826
v 1.00318 -0.837612 2.10335
v 1.01902 -0.838503 2.10357
v 1.02466 -0.844135 2.10827
v 1.02101 -0.838152 2.1036
v 1.02769 -0.8343 2.10365
v 1.0349 -0.837288 2.10826
v 1.02844 -0.833865 2.10369
v 1.03395 -0.827299 2.10376
v 1.03404 -0.827039 2.10372
v 1.03688 -0.819239 2.10379
v 1.03688 -0.817966 2.10362
v 1.03688 -0.810667 2.10379
v 1.0361 -0.808517 2.10355
v 1.03395 -0.802609 2.10376
v 1.03182 -0.800069 2.1035
v 1.0349 -0.792615 2.10826
v 1.02844 -0.796039 2.10369
v 1.02466 -0.793857 2.10349
v 1.02466 -0.785771 2.10827
v 1.02101 -0.791754 2.1036
v 1.01565 -0.790809 2.10351
v 1.01257 -0.783366 2.10826
f 72 73 74 
f 75 76 77 
f 77 78 79 
f 80 81 82 
f 81 83 84 
f 85 86 84 
f 87 88 89 
f 90 91 92 
f 88 87 90 
f 93 94 95 
f 96 94 93 
f 97 98 99 
f 85 98 97 
f 100 101 102 
f 103 104 105 
f 106 107 104 
f 106 108 99 
f 109 110 111 
f 112 92 91 
f 113 114 115 
f 116 117 118 
f 119 120 72 
f 120 119 121 
f 122 123 120 
f 123 124 120 
f 125 126 127 
f 125 124 126 
f 128 129 125 
f 129 130 125 
f 131 132 130 
f 132 89 130 
f 133 134 89 
f 134 135 89 
f 136 137 138 
f 135 139 136 
f 140 141 138 
f 141 140 142 
f 143 144 141 
f 144 143 145 
f 146 147 144 
f 147 86 144 
f 148 149 86 
f 149 84 86 
f 150 151 84 
f 151 82 84 
f 152 153 82 
f 153 154 82 
f 155 156 154 
f 156 157 154 
f 158 159 157 
f 159 160 157 
f 73 72 160 
f 1 2 3 
f 159 158 1 
f 4 1 5 
f 156 155 4 
f 1 158 5 
f 6 4 7 
f 153 152 6 
f 4 155 7 
f 8 6 9 
f 151 150 8 
f 6 152 9 
f 10 8 11 
f 149 148 10 
f 8 150 11 
f 12 13 10 
f 12 147 13 
f 147 146 13 
f 14 15 13 
f 14 145 15 
f 15 143 16 
f 15 145 143 
f 16 142 17 
f 17 140 137 
f 17 142 140 
f 18 19 137 
f 20 18 139 
f 134 133 20 
f 18 136 139 
f 21 20 22 
f 132 131 21 
f 20 133 22 
f 129 128 23 
f 21 131 129 
f 24 25 23 
f 24 127 25 
f 126 26 25 
f 126 123 26 
f 123 122 26 
f 27 28 26 
f 27 121 28 
f 28 119 29 
f 28 121 119 
f 29 74 30 
f 30 73 3 
f 30 74 73 
f 28 30 2 
f 1 4 28 
f 4 26 28 
f 4 6 26 
f 6 8 26 
f 8 25 26 
f 8 23 25 
f 8 21 23 
f 8 20 21 
f 8 18 20 
f 8 19 18 
f 8 17 19 
f 8 10 17 
f 10 13 17 
f 13 15 17 
f 74 29 72 
f 72 31 160 
f 160 32 157 
f 157 102 154 
f 86 85 144 
f 144 33 141 
f 141 96 138 
f 138 34 135 
f 89 88 130 
f 130 35 125 
f 125 36 124 
f 124 76 120 
f 120 76 75 
f 77 37 75 
f 160 31 32 
f 31 38 32 
f 38 39 100 
f 79 117 40 
f 39 41 42 
f 40 116 43 
f 41 44 45 
f 116 46 43 
f 45 44 47 
f 48 47 49 
f 50 49 51 
f 103 51 52 
f 106 52 53 
f 108 53 54 
f 55 54 56 
f 57 56 58 
f 110 58 111 
f 112 59 60 
f 113 60 114 
f 117 116 40 
f 78 117 79 
f 79 37 77 
f 77 61 78 
f 62 63 61 
f 64 92 63 
f 90 65 91 
f 94 66 95 
f 98 107 99 
f 67 104 107 
f 68 105 104 
f 69 70 105 
f 101 70 69 
f 154 102 80 
f 82 154 80 
f 84 82 81 
f 84 83 85 
f 144 85 33 
f 141 33 96 
f 138 96 34 
f 135 34 87 
f 89 135 87 
f 130 88 35 
f 125 35 36 
f 124 36 76 
f 62 61 77 
f 76 62 77 
f 36 62 76 
f 64 63 62 
f 36 64 62 
f 35 64 36 
f 71 92 64 
f 35 71 64 
f 88 71 35 
f 92 71 90 
f 90 71 88 
f 93 65 90 
f 87 93 90 
f 34 93 87 
f 95 65 93 
f 93 34 96 
f 97 66 94 
f 96 97 94 
f 33 97 96 
f 99 66 97 
f 97 33 85 
f 67 107 98 
f 85 67 98 
f 83 67 85 
f 68 104 67 
f 83 68 67 
f 81 68 83 
f 69 105 68 
f 81 69 68 
f 80 69 81 
f 80 101 69 
f 102 101 80 
f 157 32 102 
f 32 38 100 
f 102 32 100 
f 100 39 42 
f 100 42 101 
f 101 42 70 
f 42 41 45 
f 42 45 70 
f 45 47 48 
f 70 45 48 
f 70 48 105 
f 48 49 50 
f 105 48 50 
f 105 50 103 
f 50 51 103 
f 104 103 106 
f 103 52 106 
f 99 107 106 
f 106 53 108 
f 99 108 66 
f 108 54 55 
f 66 108 55 
f 66 55 95 
f 55 56 57 
f 95 55 57 
f 95 57 65 
f 57 58 110 
f 65 57 110 
f 65 110 91 
f 111 59 109 
f 91 110 109 
f 91 109 112 
f 109 59 112 
f 92 112 63 
f 112 60 113 
f 63 112 113 
f 63 113 61 
f 115 118 113 
f 61 113 118 
f 61 118 78 
f 78 118 117 
f 118 115 116 
f 115 46 116 
f 114 46 115 
f 60 46 114 
f 59 46 60 
f 111 46 59 
f 58 46 111 
f 56 46 58 
f 54 46 56 
f 53 46 54 
f 52 46 53 
f 51 46 52 
f 49 46 51 
f 47 46 49 
f 44 46 47 
f 43 46 44 
f 41 43 44 
f 40 43 41 
f 39 40 41 
f 79 40 39 
f 38 79 39 
f 37 79 38 
f 31 37 38 
f 75 37 31 
f 72 75 31 
f 120 75 72 
f 72 29 119 
f 121 27 120 
f 120 27 122 
f 126 124 123 
f 127 24 125 
f 125 24 128 
f 130 129 131 
f 22 89 132 
f 89 22 133 
f 139 135 134 
f 138 135 136 
f 138 137 140 
f 142 16 141 
f 141 16 143 
f 145 14 144 
f 144 14 146 
f 12 86 147 
f 86 12 148 
f 11 84 149 
f 84 11 150 
f 9 82 151 
f 82 9 152 
f 7 154 153 
f 154 7 155 
f 5 157 156 
f 157 5 158 
f 3 160 159 
f 160 3 73 
f 3 159 1 
f 5 156 4 
f 7 153 6 
f 9 151 8 
f 11 149 10 
f 10 148 12 
f 13 146 14 
f 16 17 15 
f 137 19 17 
f 137 136 18 
f 139 134 20 
f 22 132 21 
f 23 21 129 
f 23 128 24 
f 25 127 126 
f 26 122 27 
f 29 30 28 
f 3 2 30 
f 2 1 28 
