# NV = 44 NF = 84
v -0.094656 -0.32612 0.0141812
v -0.146599 -0.469693 -0.0271282
v -0.105439 -0.355929 -0.0271282
v -0.120561 -0.397726 0.0726095
v -0.180502 -0.328772 -0.0271282
v -0.169717 -0.298966 0.0141812
v -0.138048 -0.369394 0.0567334
v -0.221659 -0.442537 -0.0271282
v -0.126222 -0.336706 0.030059
v -0.164058 -0.359987 0.0567334
v -0.195623 -0.37057 0.0726095
v -0.152232 -0.327298 0.030059
v -0.0191293 0.0406048 0.611906
v 0.0108495 0.0421679 0.568347
v 0.00687896 0.0311936 0.611906
v -0.0202144 0.0376082 0.604215
v -0.012543 0.0588112 0.565162
v 0.00579499 0.0282003 0.604215
v -0.0174058 0.0453701 0.618509
v -0.0205826 0.0365867 0.595963
v 0.0162738 0.0571619 0.564076
v 0.00687896 0.0311936 0.58002
v 0.00542464 0.0271777 0.595963
v 0.00860239 0.0359589 0.618509
v -0.0202144 0.0376082 0.58771
v -0.0174058 0.0453701 0.573415
v -0.00973503 0.0665714 0.564076
v 0.0265262 0.0855016 0.564076
v -0.0191293 0.0406048 0.58002
v 0.0108495 0.0421679 0.623577
v -0.0151588 0.0515791 0.623577
v 0.000518016 0.0949128 0.564076
v -0.012543 0.0588112 0.626763
v 0.0129037 0.0884953 0.564076
v 0.0134652 0.0494001 0.626763
v -0.00973503 0.0665714 0.627849
v 0.0162738 0.0571619 0.627849
v 0.0129037 0.0884953 0.627849
v 0.0134652 0.0494001 0.565162
v -0.0151588 0.0515791 0.568347
v 0.00860239 0.0359589 0.573415
v 0.00579499 0.0282003 0.58771
v 0.0265262 0.0855016 0.627849
v 0.000518016 0.0949128 0.627849
f 33 37 36 
f 43 30 24 
f 13 44 16 
f 13 19 44 
f 32 34 27 
f 21 39 17 
f 9 6 12 
f 37 33 35 
f 43 21 28 
f 42 7 22 
f 27 21 17 
f 17 39 12 
f 3 6 1 
f 25 29 10 
f 14 41 7 
f 32 44 38 
f 7 41 22 
f 7 13 10 
f 19 30 31 
f 4 10 11 
f 1 7 4 
f 41 43 22 
f 13 7 15 
f 38 36 43 
f 11 6 5 
f 23 43 18 
f 16 44 20 
f 17 32 27 
f 44 33 36 
f 44 31 33 
f 35 43 37 
f 26 44 40 
f 24 19 15 
f 43 14 39 
f 40 44 17 
f 28 27 34 
f 27 28 21 
f 43 35 30 
f 38 43 28 
f 10 17 12 
f 43 23 42 
f 40 10 26 
f 44 29 25 
f 39 7 9 
f 44 26 29 
f 14 43 41 
f 43 15 18 
f 20 44 25 
f 22 43 42 
f 10 4 7 
f 8 4 11 
f 2 1 4 
f 5 2 8 
f 44 36 38 
f 43 36 37 
f 19 24 30 
f 24 15 43 
f 7 23 18 
f 28 34 38 
f 31 44 19 
f 25 10 20 
f 31 35 33 
f 7 42 23 
f 16 20 10 
f 39 9 12 
f 9 1 6 
f 16 10 13 
f 35 31 30 
f 1 9 7 
f 5 6 3 
f 5 3 2 
f 39 21 43 
f 18 15 7 
f 39 14 7 
f 11 5 8 
f 8 2 4 
f 38 34 32 
f 10 40 17 
f 19 13 15 
f 17 44 32 
f 29 26 10 
f 12 6 10 
f 10 6 11 
f 2 3 1 
