# 3ds Max Wavefront OBJ Exporter v0.97b - (c)2007 guruware
# File Created: 30.12.2014 21:45:05

#
# object Box021
#

v  -21.0000 25.0000 49.9258
v  -1.0000 25.0000 49.9258
v  -21.0000 25.0000 29.8145
v  -1.0000 25.0000 29.8145
v  -21.0000 27.0000 49.9258
v  -1.0000 27.0000 49.9258
v  -21.0000 27.0000 29.8145
v  -1.0000 27.0000 29.8145
# 8 vertices

g Box021
f 1 3 4 
f 4 2 1 
f 5 6 8 
f 8 7 5 
f 1 2 6 
f 6 5 1 
f 2 4 8 
f 8 6 2 
f 4 3 7 
f 7 8 4 
f 3 1 5 
f 5 7 3 
# 12 faces

#
# object chain021
#

v  -22.0000 25.0000 39.8657
v  -22.0000 25.0000 49.9358
v  -21.0000 25.0000 39.8657
v  -21.0000 25.0000 49.9358
v  -22.0000 27.0000 39.8657
v  -22.0000 27.0000 49.9358
v  -21.0000 27.0000 39.8657
v  -21.0000 27.0000 49.9358
# 8 vertices

g chain021
f 9 11 12 
f 12 10 9 
f 13 14 16 
f 16 15 13 
f 9 10 14 
f 14 13 9 
f 10 12 16 
f 16 14 10 
f 12 11 15 
f 15 16 12 
f 11 9 13 
f 13 15 11 
# 12 faces

#
# object Cylinder040
#

v  -22.0000 26.0000 29.7956
v  -22.0000 25.4800 29.7956
v  -21.8221 25.5114 29.7956
v  -21.6657 25.6017 29.7956
v  -21.5497 25.7400 29.7956
v  -21.4879 25.9097 29.7956
v  -21.4879 26.0903 29.7956
v  -21.5497 26.2600 29.7956
v  -21.6657 26.3983 29.7956
v  -21.8221 26.4886 29.7956
v  -22.0000 26.5200 29.7956
v  -22.1778 26.4886 29.7956
v  -22.3342 26.3983 29.7956
v  -22.4503 26.2600 29.7956
v  -22.5121 26.0903 29.7956
v  -22.5121 25.9097 29.7956
v  -22.4503 25.7400 29.7956
v  -22.3342 25.6017 29.7956
v  -22.1778 25.5114 29.7956
v  -22.0000 25.4800 31.8096
v  -21.8221 25.5114 31.8096
v  -21.6657 25.6017 31.8096
v  -21.5497 25.7400 31.8096
v  -21.4879 25.9097 31.8096
v  -21.4879 26.0903 31.8096
v  -21.5497 26.2600 31.8096
v  -21.6657 26.3983 31.8096
v  -21.8221 26.4886 31.8096
v  -22.0000 26.5200 31.8096
v  -22.1778 26.4886 31.8096
v  -22.3342 26.3983 31.8096
v  -22.4503 26.2600 31.8096
v  -22.5121 26.0903 31.8096
v  -22.5121 25.9097 31.8096
v  -22.4503 25.7400 31.8096
v  -22.3342 25.6017 31.8096
v  -22.1778 25.5114 31.8096
v  -22.0000 25.4800 33.8237
v  -21.8221 25.5114 33.8237
v  -21.6657 25.6017 33.8237
v  -21.5497 25.7400 33.8237
v  -21.4879 25.9097 33.8237
v  -21.4879 26.0903 33.8237
v  -21.5497 26.2600 33.8237
v  -21.6657 26.3983 33.8237
v  -21.8221 26.4886 33.8237
v  -22.0000 26.5200 33.8237
v  -22.1778 26.4886 33.8237
v  -22.3342 26.3983 33.8237
v  -22.4503 26.2600 33.8237
v  -22.5121 26.0903 33.8237
v  -22.5121 25.9097 33.8237
v  -22.4503 25.7400 33.8237
v  -22.3342 25.6017 33.8237
v  -22.1778 25.5114 33.8237
v  -22.0000 25.4800 35.8377
v  -21.8221 25.5114 35.8377
v  -21.6657 25.6017 35.8377
v  -21.5497 25.7400 35.8377
v  -21.4879 25.9097 35.8377
v  -21.4879 26.0903 35.8377
v  -21.5497 26.2600 35.8377
v  -21.6657 26.3983 35.8377
v  -21.8221 26.4886 35.8377
v  -22.0000 26.5200 35.8377
v  -22.1778 26.4886 35.8377
v  -22.3342 26.3983 35.8377
v  -22.4503 26.2600 35.8377
v  -22.5121 26.0903 35.8377
v  -22.5121 25.9097 35.8377
v  -22.4503 25.7400 35.8377
v  -22.3342 25.6017 35.8377
v  -22.1778 25.5114 35.8377
v  -22.0000 25.4800 37.8517
v  -21.8221 25.5114 37.8517
v  -21.6658 25.6017 37.8517
v  -21.5497 25.7400 37.8517
v  -21.4879 25.9097 37.8517
v  -21.4879 26.0903 37.8517
v  -21.5497 26.2600 37.8517
v  -21.6658 26.3983 37.8517
v  -21.8221 26.4886 37.8517
v  -22.0000 26.5200 37.8517
v  -22.1779 26.4886 37.8517
v  -22.3342 26.3983 37.8517
v  -22.4503 26.2600 37.8517
v  -22.5121 26.0903 37.8517
v  -22.5121 25.9097 37.8517
v  -22.4503 25.7400 37.8517
v  -22.3342 25.6017 37.8517
v  -22.1779 25.5114 37.8517
v  -22.0000 25.4800 39.8657
v  -21.8221 25.5114 39.8657
v  -21.6658 25.6017 39.8657
v  -21.5497 25.7400 39.8657
v  -21.4879 25.9097 39.8657
v  -21.4879 26.0903 39.8657
v  -21.5497 26.2600 39.8657
v  -21.6658 26.3983 39.8657
v  -21.8221 26.4886 39.8657
v  -22.0000 26.5200 39.8657
v  -22.1779 26.4886 39.8657
v  -22.3342 26.3983 39.8657
v  -22.4503 26.2600 39.8657
v  -22.5121 26.0903 39.8657
v  -22.5121 25.9097 39.8657
v  -22.4503 25.7400 39.8657
v  -22.3342 25.6017 39.8657
v  -22.1779 25.5114 39.8657
v  -22.0000 26.0000 39.8657
# 110 vertices

g Cylinder040
f 17 19 18 
f 17 20 19 
f 17 21 20 
f 17 22 21 
f 17 23 22 
f 17 24 23 
f 17 25 24 
f 17 26 25 
f 17 27 26 
f 17 28 27 
f 17 29 28 
f 17 30 29 
f 17 31 30 
f 17 32 31 
f 17 33 32 
f 17 34 33 
f 17 35 34 
f 17 18 35 
f 18 37 36 
f 18 19 37 
f 19 38 37 
f 19 20 38 
f 20 39 38 
f 20 21 39 
f 21 40 39 
f 21 22 40 
f 22 41 40 
f 22 23 41 
f 23 42 41 
f 23 24 42 
f 24 43 42 
f 24 25 43 
f 25 44 43 
f 25 26 44 
f 26 45 44 
f 26 27 45 
f 27 46 45 
f 27 28 46 
f 28 47 46 
f 28 29 47 
f 29 48 47 
f 29 30 48 
f 30 49 48 
f 30 31 49 
f 31 50 49 
f 31 32 50 
f 32 51 50 
f 32 33 51 
f 33 52 51 
f 33 34 52 
f 34 53 52 
f 34 35 53 
f 35 36 53 
f 35 18 36 
f 36 55 54 
f 36 37 55 
f 37 56 55 
f 37 38 56 
f 38 57 56 
f 38 39 57 
f 39 58 57 
f 39 40 58 
f 40 59 58 
f 40 41 59 
f 41 60 59 
f 41 42 60 
f 42 61 60 
f 42 43 61 
f 43 62 61 
f 43 44 62 
f 44 63 62 
f 44 45 63 
f 45 64 63 
f 45 46 64 
f 46 65 64 
f 46 47 65 
f 47 66 65 
f 47 48 66 
f 48 67 66 
f 48 49 67 
f 49 68 67 
f 49 50 68 
f 50 69 68 
f 50 51 69 
f 51 70 69 
f 51 52 70 
f 52 71 70 
f 52 53 71 
f 53 54 71 
f 53 36 54 
f 54 73 72 
f 54 55 73 
f 55 74 73 
f 55 56 74 
f 56 75 74 
f 56 57 75 
f 57 76 75 
f 57 58 76 
f 58 77 76 
f 58 59 77 
f 59 78 77 
f 59 60 78 
f 60 79 78 
f 60 61 79 
f 61 80 79 
f 61 62 80 
f 62 81 80 
f 62 63 81 
f 63 82 81 
f 63 64 82 
f 64 83 82 
f 64 65 83 
f 65 84 83 
f 65 66 84 
f 66 85 84 
f 66 67 85 
f 67 86 85 
f 67 68 86 
f 68 87 86 
f 68 69 87 
f 69 88 87 
f 69 70 88 
f 70 89 88 
f 70 71 89 
f 71 72 89 
f 71 54 72 
f 72 91 90 
f 72 73 91 
f 73 92 91 
f 73 74 92 
f 74 93 92 
f 74 75 93 
f 75 94 93 
f 75 76 94 
f 76 95 94 
f 76 77 95 
f 77 96 95 
f 77 78 96 
f 78 97 96 
f 78 79 97 
f 79 98 97 
f 79 80 98 
f 80 99 98 
f 80 81 99 
f 81 100 99 
f 81 82 100 
f 82 101 100 
f 82 83 101 
f 83 102 101 
f 83 84 102 
f 84 103 102 
f 84 85 103 
f 85 104 103 
f 85 86 104 
f 86 105 104 
f 86 87 105 
f 87 106 105 
f 87 88 106 
f 88 107 106 
f 88 89 107 
f 89 90 107 
f 89 72 90 
f 90 109 108 
f 90 91 109 
f 91 110 109 
f 91 92 110 
f 92 111 110 
f 92 93 111 
f 93 112 111 
f 93 94 112 
f 94 113 112 
f 94 95 113 
f 95 114 113 
f 95 96 114 
f 96 115 114 
f 96 97 115 
f 97 116 115 
f 97 98 116 
f 98 117 116 
f 98 99 117 
f 99 118 117 
f 99 100 118 
f 100 119 118 
f 100 101 119 
f 101 120 119 
f 101 102 120 
f 102 121 120 
f 102 103 121 
f 103 122 121 
f 103 104 122 
f 104 123 122 
f 104 105 123 
f 105 124 123 
f 105 106 124 
f 106 125 124 
f 106 107 125 
f 107 108 125 
f 107 90 108 
f 126 108 109 
f 126 109 110 
f 126 110 111 
f 126 111 112 
f 126 112 113 
f 126 113 114 
f 126 114 115 
f 126 115 116 
f 126 116 117 
f 126 117 118 
f 126 118 119 
f 126 119 120 
f 126 120 121 
f 126 121 122 
f 126 122 123 
f 126 123 124 
f 126 124 125 
f 126 125 108 
# 216 faces

#
# object Cylinder041
#

v  -22.0000 26.0000 39.8657
v  -22.0000 25.0000 39.8657
v  -21.6580 25.0603 39.8657
v  -21.3572 25.2340 39.8657
v  -21.1340 25.5000 39.8657
v  -21.0152 25.8264 39.8657
v  -21.0152 26.1736 39.8657
v  -21.1340 26.5000 39.8657
v  -21.3572 26.7660 39.8657
v  -21.6580 26.9397 39.8657
v  -22.0000 27.0000 39.8657
v  -22.3420 26.9397 39.8657
v  -22.6428 26.7660 39.8657
v  -22.8660 26.5000 39.8657
v  -22.9848 26.1736 39.8657
v  -22.9848 25.8264 39.8657
v  -22.8660 25.5000 39.8657
v  -22.6428 25.2340 39.8657
v  -22.3420 25.0603 39.8657
v  -22.0000 25.0000 41.8797
v  -21.6580 25.0603 41.8797
v  -21.3572 25.2340 41.8797
v  -21.1340 25.5000 41.8797
v  -21.0152 25.8264 41.8797
v  -21.0152 26.1736 41.8797
v  -21.1340 26.5000 41.8797
v  -21.3572 26.7660 41.8797
v  -21.6580 26.9397 41.8797
v  -22.0000 27.0000 41.8797
v  -22.3420 26.9397 41.8797
v  -22.6428 26.7660 41.8797
v  -22.8660 26.5000 41.8797
v  -22.9848 26.1736 41.8797
v  -22.9848 25.8264 41.8797
v  -22.8660 25.5000 41.8797
v  -22.6428 25.2340 41.8797
v  -22.3420 25.0603 41.8797
v  -22.0000 25.0000 43.8938
v  -21.6580 25.0603 43.8938
v  -21.3572 25.2340 43.8938
v  -21.1340 25.5000 43.8938
v  -21.0152 25.8264 43.8938
v  -21.0152 26.1736 43.8938
v  -21.1340 26.5000 43.8938
v  -21.3572 26.7660 43.8938
v  -21.6580 26.9397 43.8938
v  -22.0000 27.0000 43.8938
v  -22.3420 26.9397 43.8938
v  -22.6428 26.7660 43.8938
v  -22.8660 26.5000 43.8938
v  -22.9848 26.1736 43.8938
v  -22.9848 25.8264 43.8938
v  -22.8660 25.5000 43.8938
v  -22.6428 25.2340 43.8938
v  -22.3420 25.0603 43.8938
v  -22.0000 25.0000 45.9078
v  -21.6580 25.0603 45.9078
v  -21.3572 25.2340 45.9078
v  -21.1340 25.5000 45.9078
v  -21.0152 25.8264 45.9078
v  -21.0152 26.1736 45.9078
v  -21.1340 26.5000 45.9078
v  -21.3572 26.7660 45.9078
v  -21.6580 26.9397 45.9078
v  -22.0000 27.0000 45.9078
v  -22.3420 26.9397 45.9078
v  -22.6428 26.7660 45.9078
v  -22.8660 26.5000 45.9078
v  -22.9848 26.1736 45.9078
v  -22.9848 25.8264 45.9078
v  -22.8660 25.5000 45.9078
v  -22.6428 25.2340 45.9078
v  -22.3420 25.0603 45.9078
v  -22.0000 25.0000 47.9218
v  -21.6580 25.0603 47.9218
v  -21.3572 25.2340 47.9218
v  -21.1340 25.5000 47.9218
v  -21.0152 25.8264 47.9218
v  -21.0152 26.1736 47.9218
v  -21.1340 26.5000 47.9218
v  -21.3572 26.7660 47.9218
v  -21.6580 26.9397 47.9218
v  -22.0000 27.0000 47.9218
v  -22.3420 26.9397 47.9218
v  -22.6428 26.7660 47.9218
v  -22.8660 26.5000 47.9218
v  -22.9848 26.1736 47.9218
v  -22.9848 25.8264 47.9218
v  -22.8660 25.5000 47.9218
v  -22.6428 25.2340 47.9218
v  -22.3420 25.0603 47.9218
v  -22.0000 25.0000 49.9358
v  -21.6580 25.0603 49.9358
v  -21.3572 25.2340 49.9358
v  -21.1340 25.5000 49.9358
v  -21.0152 25.8264 49.9358
v  -21.0152 26.1736 49.9358
v  -21.1340 26.5000 49.9358
v  -21.3572 26.7660 49.9358
v  -21.6580 26.9397 49.9358
v  -22.0000 27.0000 49.9358
v  -22.3420 26.9397 49.9358
v  -22.6428 26.7660 49.9358
v  -22.8660 26.5000 49.9358
v  -22.9848 26.1736 49.9358
v  -22.9848 25.8264 49.9358
v  -22.8660 25.5000 49.9358
v  -22.6428 25.2340 49.9358
v  -22.3420 25.0603 49.9358
v  -22.0000 26.0000 49.9358
# 110 vertices

g Cylinder041
f 127 129 128 
f 127 130 129 
f 127 131 130 
f 127 132 131 
f 127 133 132 
f 127 134 133 
f 127 135 134 
f 127 136 135 
f 127 137 136 
f 127 138 137 
f 127 139 138 
f 127 140 139 
f 127 141 140 
f 127 142 141 
f 127 143 142 
f 127 144 143 
f 127 145 144 
f 127 128 145 
f 128 147 146 
f 128 129 147 
f 129 148 147 
f 129 130 148 
f 130 149 148 
f 130 131 149 
f 131 150 149 
f 131 132 150 
f 132 151 150 
f 132 133 151 
f 133 152 151 
f 133 134 152 
f 134 153 152 
f 134 135 153 
f 135 154 153 
f 135 136 154 
f 136 155 154 
f 136 137 155 
f 137 156 155 
f 137 138 156 
f 138 157 156 
f 138 139 157 
f 139 158 157 
f 139 140 158 
f 140 159 158 
f 140 141 159 
f 141 160 159 
f 141 142 160 
f 142 161 160 
f 142 143 161 
f 143 162 161 
f 143 144 162 
f 144 163 162 
f 144 145 163 
f 145 146 163 
f 145 128 146 
f 146 165 164 
f 146 147 165 
f 147 166 165 
f 147 148 166 
f 148 167 166 
f 148 149 167 
f 149 168 167 
f 149 150 168 
f 150 169 168 
f 150 151 169 
f 151 170 169 
f 151 152 170 
f 152 171 170 
f 152 153 171 
f 153 172 171 
f 153 154 172 
f 154 173 172 
f 154 155 173 
f 155 174 173 
f 155 156 174 
f 156 175 174 
f 156 157 175 
f 157 176 175 
f 157 158 176 
f 158 177 176 
f 158 159 177 
f 159 178 177 
f 159 160 178 
f 160 179 178 
f 160 161 179 
f 161 180 179 
f 161 162 180 
f 162 181 180 
f 162 163 181 
f 163 164 181 
f 163 146 164 
f 164 183 182 
f 164 165 183 
f 165 184 183 
f 165 166 184 
f 166 185 184 
f 166 167 185 
f 167 186 185 
f 167 168 186 
f 168 187 186 
f 168 169 187 
f 169 188 187 
f 169 170 188 
f 170 189 188 
f 170 171 189 
f 171 190 189 
f 171 172 190 
f 172 191 190 
f 172 173 191 
f 173 192 191 
f 173 174 192 
f 174 193 192 
f 174 175 193 
f 175 194 193 
f 175 176 194 
f 176 195 194 
f 176 177 195 
f 177 196 195 
f 177 178 196 
f 178 197 196 
f 178 179 197 
f 179 198 197 
f 179 180 198 
f 180 199 198 
f 180 181 199 
f 181 182 199 
f 181 164 182 
f 182 201 200 
f 182 183 201 
f 183 202 201 
f 183 184 202 
f 184 203 202 
f 184 185 203 
f 185 204 203 
f 185 186 204 
f 186 205 204 
f 186 187 205 
f 187 206 205 
f 187 188 206 
f 188 207 206 
f 188 189 207 
f 189 208 207 
f 189 190 208 
f 190 209 208 
f 190 191 209 
f 191 210 209 
f 191 192 210 
f 192 211 210 
f 192 193 211 
f 193 212 211 
f 193 194 212 
f 194 213 212 
f 194 195 213 
f 195 214 213 
f 195 196 214 
f 196 215 214 
f 196 197 215 
f 197 216 215 
f 197 198 216 
f 198 217 216 
f 198 199 217 
f 199 200 217 
f 199 182 200 
f 200 219 218 
f 200 201 219 
f 201 220 219 
f 201 202 220 
f 202 221 220 
f 202 203 221 
f 203 222 221 
f 203 204 222 
f 204 223 222 
f 204 205 223 
f 205 224 223 
f 205 206 224 
f 206 225 224 
f 206 207 225 
f 207 226 225 
f 207 208 226 
f 208 227 226 
f 208 209 227 
f 209 228 227 
f 209 210 228 
f 210 229 228 
f 210 211 229 
f 211 230 229 
f 211 212 230 
f 212 231 230 
f 212 213 231 
f 213 232 231 
f 213 214 232 
f 214 233 232 
f 214 215 233 
f 215 234 233 
f 215 216 234 
f 216 235 234 
f 216 217 235 
f 217 218 235 
f 217 200 218 
f 236 218 219 
f 236 219 220 
f 236 220 221 
f 236 221 222 
f 236 222 223 
f 236 223 224 
f 236 224 225 
f 236 225 226 
f 236 226 227 
f 236 227 228 
f 236 228 229 
f 236 229 230 
f 236 230 231 
f 236 231 232 
f 236 232 233 
f 236 233 234 
f 236 234 235 
f 236 235 218 
# 216 faces

#
# object Box020
#

v  -23.0000 25.0000 39.8746
v  -23.0000 25.0000 49.9447
v  -21.0000 25.0000 39.8746
v  -21.0000 25.0000 49.9447
v  -23.0000 26.0000 39.8746
v  -23.0000 26.0000 49.9447
v  -21.0000 26.0000 39.8746
v  -21.0000 26.0000 49.9447
# 8 vertices

g Box020
f 237 239 240 
f 240 238 237 
f 241 242 244 
f 244 243 241 
f 237 238 242 
f 242 241 237 
f 238 240 244 
f 244 242 238 
f 240 239 243 
f 243 244 240 
f 239 237 241 
f 241 243 239 
# 12 faces

#
# object chain017
#

v  1.0000 27.0000 39.8705
v  1.0000 27.0000 49.9100
v  -1.0000 27.0000 39.8705
v  -1.0000 27.0000 49.9100
v  1.0000 25.0000 39.8705
v  1.0000 25.0000 49.9100
v  -1.0000 25.0000 39.8705
v  -1.0000 25.0000 49.9100
# 8 vertices

g chain017
f 245 247 248 
f 248 246 245 
f 249 250 252 
f 252 251 249 
f 245 246 250 
f 250 249 245 
f 246 248 252 
f 252 250 246 
f 248 247 251 
f 251 252 248 
f 247 245 249 
f 249 251 247 
# 12 faces

#
# object Cylinder035
#

v  0.0000 25.0000 39.8705
v  0.0000 26.0000 39.8705
v  -0.3420 25.9397 39.8705
v  -0.6428 25.7660 39.8705
v  -0.8660 25.5000 39.8705
v  -0.9848 25.1736 39.8705
v  -0.9848 24.8263 39.8705
v  -0.8660 24.5000 39.8705
v  -0.6428 24.2340 39.8705
v  -0.3420 24.0603 39.8705
v  -0.0000 24.0000 39.8705
v  0.3420 24.0603 39.8705
v  0.6428 24.2340 39.8705
v  0.8660 24.5000 39.8705
v  0.9848 24.8263 39.8705
v  0.9848 25.1736 39.8705
v  0.8660 25.5000 39.8705
v  0.6428 25.7660 39.8705
v  0.3420 25.9397 39.8705
v  0.0000 26.0000 41.8784
v  -0.3420 25.9397 41.8784
v  -0.6428 25.7660 41.8784
v  -0.8660 25.5000 41.8784
v  -0.9848 25.1736 41.8784
v  -0.9848 24.8263 41.8784
v  -0.8660 24.5000 41.8784
v  -0.6428 24.2340 41.8784
v  -0.3420 24.0603 41.8784
v  0.0000 24.0000 41.8784
v  0.3420 24.0603 41.8784
v  0.6428 24.2340 41.8784
v  0.8660 24.5000 41.8784
v  0.9848 24.8263 41.8784
v  0.9848 25.1736 41.8784
v  0.8660 25.5000 41.8784
v  0.6428 25.7660 41.8784
v  0.3420 25.9397 41.8784
v  0.0000 26.0000 43.8863
v  -0.3420 25.9397 43.8863
v  -0.6428 25.7660 43.8863
v  -0.8660 25.5000 43.8863
v  -0.9848 25.1736 43.8863
v  -0.9848 24.8263 43.8863
v  -0.8660 24.5000 43.8863
v  -0.6428 24.2340 43.8863
v  -0.3420 24.0603 43.8863
v  0.0000 24.0000 43.8863
v  0.3420 24.0603 43.8863
v  0.6428 24.2340 43.8863
v  0.8660 24.5000 43.8863
v  0.9848 24.8263 43.8863
v  0.9848 25.1736 43.8863
v  0.8660 25.5000 43.8863
v  0.6428 25.7660 43.8863
v  0.3420 25.9397 43.8863
v  0.0000 26.0000 45.8942
v  -0.3420 25.9397 45.8942
v  -0.6428 25.7660 45.8942
v  -0.8660 25.5000 45.8942
v  -0.9848 25.1736 45.8942
v  -0.9848 24.8263 45.8942
v  -0.8660 24.5000 45.8942
v  -0.6428 24.2340 45.8942
v  -0.3420 24.0603 45.8942
v  0.0000 24.0000 45.8942
v  0.3420 24.0603 45.8942
v  0.6428 24.2340 45.8942
v  0.8660 24.5000 45.8942
v  0.9848 24.8263 45.8942
v  0.9848 25.1736 45.8942
v  0.8660 25.5000 45.8942
v  0.6428 25.7660 45.8942
v  0.3420 25.9397 45.8942
v  0.0000 26.0000 47.9021
v  -0.3420 25.9397 47.9021
v  -0.6428 25.7660 47.9021
v  -0.8660 25.5000 47.9021
v  -0.9848 25.1736 47.9021
v  -0.9848 24.8263 47.9021
v  -0.8660 24.5000 47.9021
v  -0.6428 24.2340 47.9021
v  -0.3420 24.0603 47.9021
v  0.0000 24.0000 47.9021
v  0.3420 24.0603 47.9021
v  0.6428 24.2340 47.9021
v  0.8660 24.5000 47.9021
v  0.9848 24.8263 47.9021
v  0.9848 25.1736 47.9021
v  0.8660 25.5000 47.9021
v  0.6428 25.7660 47.9021
v  0.3420 25.9397 47.9021
v  0.0000 26.0000 49.9100
v  -0.3420 25.9397 49.9100
v  -0.6428 25.7660 49.9100
v  -0.8660 25.5000 49.9100
v  -0.9848 25.1736 49.9100
v  -0.9848 24.8263 49.9100
v  -0.8660 24.5000 49.9100
v  -0.6428 24.2340 49.9100
v  -0.3420 24.0603 49.9100
v  0.0000 24.0000 49.9100
v  0.3420 24.0603 49.9100
v  0.6428 24.2340 49.9100
v  0.8660 24.5000 49.9100
v  0.9848 24.8263 49.9100
v  0.9848 25.1736 49.9100
v  0.8660 25.5000 49.9100
v  0.6428 25.7660 49.9100
v  0.3420 25.9397 49.9100
v  0.0000 25.0000 49.9100
# 110 vertices

g Cylinder035
f 253 255 254 
f 253 256 255 
f 253 257 256 
f 253 258 257 
f 253 259 258 
f 253 260 259 
f 253 261 260 
f 253 262 261 
f 253 263 262 
f 253 264 263 
f 253 265 264 
f 253 266 265 
f 253 267 266 
f 253 268 267 
f 253 269 268 
f 253 270 269 
f 253 271 270 
f 253 254 271 
f 254 273 272 
f 254 255 273 
f 255 274 273 
f 255 256 274 
f 256 275 274 
f 256 257 275 
f 257 276 275 
f 257 258 276 
f 258 277 276 
f 258 259 277 
f 259 278 277 
f 259 260 278 
f 260 279 278 
f 260 261 279 
f 261 280 279 
f 261 262 280 
f 262 281 280 
f 262 263 281 
f 263 282 281 
f 263 264 282 
f 264 283 282 
f 264 265 283 
f 265 284 283 
f 265 266 284 
f 266 285 284 
f 266 267 285 
f 267 286 285 
f 267 268 286 
f 268 287 286 
f 268 269 287 
f 269 288 287 
f 269 270 288 
f 270 289 288 
f 270 271 289 
f 271 272 289 
f 271 254 272 
f 272 291 290 
f 272 273 291 
f 273 292 291 
f 273 274 292 
f 274 293 292 
f 274 275 293 
f 275 294 293 
f 275 276 294 
f 276 295 294 
f 276 277 295 
f 277 296 295 
f 277 278 296 
f 278 297 296 
f 278 279 297 
f 279 298 297 
f 279 280 298 
f 280 299 298 
f 280 281 299 
f 281 300 299 
f 281 282 300 
f 282 301 300 
f 282 283 301 
f 283 302 301 
f 283 284 302 
f 284 303 302 
f 284 285 303 
f 285 304 303 
f 285 286 304 
f 286 305 304 
f 286 287 305 
f 287 306 305 
f 287 288 306 
f 288 307 306 
f 288 289 307 
f 289 290 307 
f 289 272 290 
f 290 309 308 
f 290 291 309 
f 291 310 309 
f 291 292 310 
f 292 311 310 
f 292 293 311 
f 293 312 311 
f 293 294 312 
f 294 313 312 
f 294 295 313 
f 295 314 313 
f 295 296 314 
f 296 315 314 
f 296 297 315 
f 297 316 315 
f 297 298 316 
f 298 317 316 
f 298 299 317 
f 299 318 317 
f 299 300 318 
f 300 319 318 
f 300 301 319 
f 301 320 319 
f 301 302 320 
f 302 321 320 
f 302 303 321 
f 303 322 321 
f 303 304 322 
f 304 323 322 
f 304 305 323 
f 305 324 323 
f 305 306 324 
f 306 325 324 
f 306 307 325 
f 307 308 325 
f 307 290 308 
f 308 327 326 
f 308 309 327 
f 309 328 327 
f 309 310 328 
f 310 329 328 
f 310 311 329 
f 311 330 329 
f 311 312 330 
f 312 331 330 
f 312 313 331 
f 313 332 331 
f 313 314 332 
f 314 333 332 
f 314 315 333 
f 315 334 333 
f 315 316 334 
f 316 335 334 
f 316 317 335 
f 317 336 335 
f 317 318 336 
f 318 337 336 
f 318 319 337 
f 319 338 337 
f 319 320 338 
f 320 339 338 
f 320 321 339 
f 321 340 339 
f 321 322 340 
f 322 341 340 
f 322 323 341 
f 323 342 341 
f 323 324 342 
f 324 343 342 
f 324 325 343 
f 325 326 343 
f 325 308 326 
f 326 345 344 
f 326 327 345 
f 327 346 345 
f 327 328 346 
f 328 347 346 
f 328 329 347 
f 329 348 347 
f 329 330 348 
f 330 349 348 
f 330 331 349 
f 331 350 349 
f 331 332 350 
f 332 351 350 
f 332 333 351 
f 333 352 351 
f 333 334 352 
f 334 353 352 
f 334 335 353 
f 335 354 353 
f 335 336 354 
f 336 355 354 
f 336 337 355 
f 337 356 355 
f 337 338 356 
f 338 357 356 
f 338 339 357 
f 339 358 357 
f 339 340 358 
f 340 359 358 
f 340 341 359 
f 341 360 359 
f 341 342 360 
f 342 361 360 
f 342 343 361 
f 343 344 361 
f 343 326 344 
f 362 344 345 
f 362 345 346 
f 362 346 347 
f 362 347 348 
f 362 348 349 
f 362 349 350 
f 362 350 351 
f 362 351 352 
f 362 352 353 
f 362 353 354 
f 362 354 355 
f 362 355 356 
f 362 356 357 
f 362 357 358 
f 362 358 359 
f 362 359 360 
f 362 360 361 
f 362 361 344 
# 216 faces

#
# object Cylinder036
#

v  -0.0000 25.0000 29.8310
v  -0.0000 25.5200 29.8310
v  -0.1779 25.4886 29.8310
v  -0.3343 25.3983 29.8310
v  -0.4503 25.2600 29.8310
v  -0.5121 25.0903 29.8310
v  -0.5121 24.9097 29.8310
v  -0.4503 24.7400 29.8310
v  -0.3343 24.6017 29.8310
v  -0.1779 24.5114 29.8310
v  -0.0000 24.4800 29.8310
v  0.1778 24.5114 29.8310
v  0.3342 24.6017 29.8310
v  0.4503 24.7400 29.8310
v  0.5121 24.9097 29.8310
v  0.5121 25.0903 29.8310
v  0.4503 25.2600 29.8310
v  0.3342 25.3983 29.8310
v  0.1778 25.4886 29.8310
v  -0.0000 25.5200 31.8724
v  -0.1779 25.4886 31.8724
v  -0.3343 25.3983 31.8724
v  -0.4503 25.2600 31.8724
v  -0.5121 25.0903 31.8724
v  -0.5121 24.9097 31.8724
v  -0.4503 24.7400 31.8724
v  -0.3343 24.6017 31.8724
v  -0.1779 24.5114 31.8724
v  -0.0000 24.4800 31.8724
v  0.1778 24.5114 31.8724
v  0.3342 24.6017 31.8724
v  0.4503 24.7400 31.8724
v  0.5121 24.9097 31.8724
v  0.5121 25.0903 31.8724
v  0.4503 25.2600 31.8724
v  0.3342 25.3983 31.8724
v  0.1778 25.4886 31.8724
v  -0.0000 25.5200 33.9137
v  -0.1779 25.4886 33.9137
v  -0.3343 25.3983 33.9137
v  -0.4503 25.2600 33.9137
v  -0.5121 25.0903 33.9137
v  -0.5121 24.9097 33.9137
v  -0.4503 24.7400 33.9137
v  -0.3343 24.6017 33.9137
v  -0.1779 24.5114 33.9137
v  -0.0000 24.4800 33.9137
v  0.1778 24.5114 33.9137
v  0.3342 24.6017 33.9137
v  0.4503 24.7400 33.9137
v  0.5121 24.9097 33.9137
v  0.5121 25.0903 33.9137
v  0.4503 25.2600 33.9137
v  0.3342 25.3983 33.9137
v  0.1778 25.4886 33.9137
v  -0.0000 25.5200 35.9551
v  -0.1779 25.4886 35.9551
v  -0.3343 25.3983 35.9551
v  -0.4503 25.2600 35.9551
v  -0.5121 25.0903 35.9551
v  -0.5121 24.9097 35.9551
v  -0.4503 24.7400 35.9551
v  -0.3343 24.6017 35.9551
v  -0.1779 24.5114 35.9551
v  -0.0000 24.4800 35.9551
v  0.1778 24.5114 35.9551
v  0.3342 24.6017 35.9551
v  0.4503 24.7400 35.9551
v  0.5121 24.9097 35.9551
v  0.5121 25.0903 35.9551
v  0.4503 25.2600 35.9551
v  0.3342 25.3983 35.9551
v  0.1778 25.4886 35.9551
v  -0.0000 25.5200 37.9965
v  -0.1779 25.4886 37.9965
v  -0.3342 25.3983 37.9965
v  -0.4503 25.2600 37.9965
v  -0.5121 25.0903 37.9965
v  -0.5121 24.9097 37.9965
v  -0.4503 24.7400 37.9965
v  -0.3342 24.6017 37.9965
v  -0.1779 24.5114 37.9965
v  -0.0000 24.4800 37.9965
v  0.1778 24.5114 37.9965
v  0.3342 24.6017 37.9965
v  0.4503 24.7400 37.9965
v  0.5121 24.9097 37.9965
v  0.5121 25.0903 37.9965
v  0.4503 25.2600 37.9965
v  0.3342 25.3983 37.9965
v  0.1779 25.4886 37.9965
v  0.0000 25.5200 40.0378
v  -0.1779 25.4886 40.0378
v  -0.3342 25.3983 40.0378
v  -0.4503 25.2600 40.0378
v  -0.5121 25.0903 40.0378
v  -0.5121 24.9097 40.0378
v  -0.4503 24.7400 40.0378
v  -0.3342 24.6017 40.0378
v  -0.1779 24.5114 40.0378
v  -0.0000 24.4800 40.0378
v  0.1779 24.5114 40.0378
v  0.3342 24.6017 40.0378
v  0.4503 24.7400 40.0378
v  0.5121 24.9097 40.0378
v  0.5121 25.0903 40.0378
v  0.4503 25.2600 40.0378
v  0.3342 25.3983 40.0378
v  0.1779 25.4886 40.0378
v  0.0000 25.0000 40.0378
# 110 vertices

g Cylinder036
f 363 365 364 
f 363 366 365 
f 363 367 366 
f 363 368 367 
f 363 369 368 
f 363 370 369 
f 363 371 370 
f 363 372 371 
f 363 373 372 
f 363 374 373 
f 363 375 374 
f 363 376 375 
f 363 377 376 
f 363 378 377 
f 363 379 378 
f 363 380 379 
f 363 381 380 
f 363 364 381 
f 364 383 382 
f 364 365 383 
f 365 384 383 
f 365 366 384 
f 366 385 384 
f 366 367 385 
f 367 386 385 
f 367 368 386 
f 368 387 386 
f 368 369 387 
f 369 388 387 
f 369 370 388 
f 370 389 388 
f 370 371 389 
f 371 390 389 
f 371 372 390 
f 372 391 390 
f 372 373 391 
f 373 392 391 
f 373 374 392 
f 374 393 392 
f 374 375 393 
f 375 394 393 
f 375 376 394 
f 376 395 394 
f 376 377 395 
f 377 396 395 
f 377 378 396 
f 378 397 396 
f 378 379 397 
f 379 398 397 
f 379 380 398 
f 380 399 398 
f 380 381 399 
f 381 382 399 
f 381 364 382 
f 382 401 400 
f 382 383 401 
f 383 402 401 
f 383 384 402 
f 384 403 402 
f 384 385 403 
f 385 404 403 
f 385 386 404 
f 386 405 404 
f 386 387 405 
f 387 406 405 
f 387 388 406 
f 388 407 406 
f 388 389 407 
f 389 408 407 
f 389 390 408 
f 390 409 408 
f 390 391 409 
f 391 410 409 
f 391 392 410 
f 392 411 410 
f 392 393 411 
f 393 412 411 
f 393 394 412 
f 394 413 412 
f 394 395 413 
f 395 414 413 
f 395 396 414 
f 396 415 414 
f 396 397 415 
f 397 416 415 
f 397 398 416 
f 398 417 416 
f 398 399 417 
f 399 400 417 
f 399 382 400 
f 400 419 418 
f 400 401 419 
f 401 420 419 
f 401 402 420 
f 402 421 420 
f 402 403 421 
f 403 422 421 
f 403 404 422 
f 404 423 422 
f 404 405 423 
f 405 424 423 
f 405 406 424 
f 406 425 424 
f 406 407 425 
f 407 426 425 
f 407 408 426 
f 408 427 426 
f 408 409 427 
f 409 428 427 
f 409 410 428 
f 410 429 428 
f 410 411 429 
f 411 430 429 
f 411 412 430 
f 412 431 430 
f 412 413 431 
f 413 432 431 
f 413 414 432 
f 414 433 432 
f 414 415 433 
f 415 434 433 
f 415 416 434 
f 416 435 434 
f 416 417 435 
f 417 418 435 
f 417 400 418 
f 418 437 436 
f 418 419 437 
f 419 438 437 
f 419 420 438 
f 420 439 438 
f 420 421 439 
f 421 440 439 
f 421 422 440 
f 422 441 440 
f 422 423 441 
f 423 442 441 
f 423 424 442 
f 424 443 442 
f 424 425 443 
f 425 444 443 
f 425 426 444 
f 426 445 444 
f 426 427 445 
f 427 446 445 
f 427 428 446 
f 428 447 446 
f 428 429 447 
f 429 448 447 
f 429 430 448 
f 430 449 448 
f 430 431 449 
f 431 450 449 
f 431 432 450 
f 432 451 450 
f 432 433 451 
f 433 452 451 
f 433 434 452 
f 434 453 452 
f 434 435 453 
f 435 436 453 
f 435 418 436 
f 436 455 454 
f 436 437 455 
f 437 456 455 
f 437 438 456 
f 438 457 456 
f 438 439 457 
f 439 458 457 
f 439 440 458 
f 440 459 458 
f 440 441 459 
f 441 460 459 
f 441 442 460 
f 442 461 460 
f 442 443 461 
f 443 462 461 
f 443 444 462 
f 444 463 462 
f 444 445 463 
f 445 464 463 
f 445 446 464 
f 446 465 464 
f 446 447 465 
f 447 466 465 
f 447 448 466 
f 448 467 466 
f 448 449 467 
f 449 468 467 
f 449 450 468 
f 450 469 468 
f 450 451 469 
f 451 470 469 
f 451 452 470 
f 452 471 470 
f 452 453 471 
f 453 454 471 
f 453 436 454 
f 472 454 455 
f 472 455 456 
f 472 456 457 
f 472 457 458 
f 472 458 459 
f 472 459 460 
f 472 460 461 
f 472 461 462 
f 472 462 463 
f 472 463 464 
f 472 464 465 
f 472 465 466 
f 472 466 467 
f 472 467 468 
f 472 468 469 
f 472 469 470 
f 472 470 471 
f 472 471 454 
# 216 faces

