# 3ds Max Wavefront OBJ Exporter v0.97b - (c)2007 guruware
# File Created: 30.12.2014 21:44:41

#
# object Box013
#

v  1.0000 -25.0000 0.0000
v  21.0000 -25.0000 0.0000
v  1.0000 25.0000 0.0000
v  21.0000 25.0000 0.0000
v  1.0000 -25.0000 2.0000
v  21.0000 -25.0000 2.0000
v  1.0000 25.0000 2.0000
v  21.0000 25.0000 2.0000
# 8 vertices

g Box013
f 1 3 4 
f 4 2 1 
f 5 6 8 
f 8 7 5 
f 1 2 6 
f 6 5 1 
f 2 4 8 
f 8 6 2 
f 4 3 7 
f 7 8 4 
f 3 1 5 
f 5 7 3 
# 12 faces

#
# object chain015
#

v  1.0000 24.9609 2.0000
v  1.0000 0.0009 2.0000
v  0.0000 24.9609 2.0000
v  -0.0000 0.0009 2.0000
v  1.0000 24.9609 0.0000
v  1.0000 0.0009 0.0000
v  0.0000 24.9609 0.6400
v  0.0000 20.1200 0.6400
v  0.6303 20.1200 0.0000
v  0.6303 24.9609 0.0000
v  0.6303 24.9609 0.1111
v  0.5543 24.9609 0.3200
v  0.4114 24.9609 0.4903
v  0.2189 24.9609 0.6014
v  0.0000 14.9616 0.6400
v  0.6303 14.9616 0.0000
v  -0.0000 9.8032 0.6400
v  0.6303 9.8032 0.0000
v  -0.0000 4.6448 0.6400
v  0.6303 4.6448 0.0000
v  -0.0000 0.0009 0.6400
v  0.6303 0.0009 0.0000
v  0.6303 0.0009 0.1111
v  0.5543 0.0009 0.3200
v  0.4114 0.0009 0.4903
v  0.2189 0.0009 0.6014
v  0.6303 20.1200 0.1111
v  0.5543 20.1200 0.3200
v  0.4114 20.1200 0.4903
v  0.2189 20.1200 0.6014
v  0.6303 14.9616 0.1111
v  0.5543 14.9616 0.3200
v  0.4114 14.9616 0.4903
v  0.2189 14.9616 0.6014
v  0.6303 9.8032 0.1111
v  0.5543 9.8032 0.3200
v  0.4114 9.8032 0.4903
v  0.2189 9.8032 0.6014
v  0.6303 4.6448 0.1111
v  0.5543 4.6448 0.3200
v  0.4114 4.6448 0.4903
v  0.2189 4.6448 0.6014
# 42 vertices

g chain015
f 9 11 12 
f 12 10 9 
f 14 30 28 
f 14 28 26 
f 14 26 24 
f 14 24 17 
f 13 14 17 
f 13 17 18 
f 9 10 14 
f 14 13 9 
f 11 15 16 
f 12 11 16 
f 12 16 23 
f 12 23 25 
f 12 25 27 
f 12 27 29 
f 13 18 19 
f 22 15 11 
f 21 22 11 
f 20 21 11 
f 19 20 11 
f 19 11 9 
f 13 19 9 
f 14 10 12 
f 12 29 34 
f 12 34 33 
f 12 33 32 
f 14 12 32 
f 14 32 31 
f 30 14 31 
f 16 15 22 
f 22 38 16 
f 35 39 40 
f 40 36 35 
f 36 40 41 
f 41 37 36 
f 37 41 42 
f 42 38 37 
f 38 42 23 
f 23 16 38 
f 39 43 44 
f 44 40 39 
f 40 44 45 
f 45 41 40 
f 41 45 46 
f 46 42 41 
f 42 46 25 
f 25 23 42 
f 43 47 48 
f 48 44 43 
f 44 48 49 
f 49 45 44 
f 45 49 50 
f 50 46 45 
f 46 50 27 
f 27 25 46 
f 39 35 17 
f 17 24 39 
f 43 39 24 
f 24 26 43 
f 28 30 31 
f 31 47 28 
f 47 43 26 
f 26 28 47 
f 48 32 33 
f 33 49 48 
f 47 31 32 
f 32 48 47 
f 50 34 29 
f 29 27 50 
f 49 33 34 
f 34 50 49 
f 18 17 35 
f 35 19 18 
f 36 20 19 
f 19 35 36 
f 37 21 20 
f 20 36 37 
f 38 22 21 
f 21 37 38 
# 80 faces

#
# object chain016
#

v  -1.0000 24.9609 2.0000
v  -1.0000 0.0009 2.0000
v  0.0000 24.9609 2.0000
v  0.0000 0.0009 2.0000
v  -1.0000 24.9609 0.0000
v  -1.0000 0.0009 0.0000
v  0.0000 24.9609 0.6400
v  0.0000 20.1200 0.6400
v  -0.6303 20.1200 0.0000
v  -0.6303 24.9609 0.0000
v  -0.6303 24.9609 0.1111
v  -0.5543 24.9609 0.3200
v  -0.4114 24.9609 0.4903
v  -0.2189 24.9609 0.6014
v  0.0000 14.9616 0.6400
v  -0.6303 14.9616 0.0000
v  0.0000 9.8032 0.6400
v  -0.6303 9.8032 0.0000
v  0.0000 4.6448 0.6400
v  -0.6303 4.6448 0.0000
v  0.0000 0.0009 0.6400
v  -0.6303 0.0009 0.0000
v  -0.6303 0.0009 0.1111
v  -0.5543 0.0009 0.3200
v  -0.4114 0.0009 0.4903
v  -0.2189 0.0009 0.6014
v  -0.6303 20.1200 0.1111
v  -0.5543 20.1200 0.3200
v  -0.4114 20.1200 0.4903
v  -0.2189 20.1200 0.6014
v  -0.6303 14.9616 0.1111
v  -0.5543 14.9616 0.3200
v  -0.4114 14.9616 0.4903
v  -0.2189 14.9616 0.6014
v  -0.6303 9.8032 0.1111
v  -0.5543 9.8032 0.3200
v  -0.4114 9.8032 0.4903
v  -0.2189 9.8032 0.6014
v  -0.6303 4.6448 0.1111
v  -0.5543 4.6448 0.3200
v  -0.4114 4.6448 0.4903
v  -0.2189 4.6448 0.6014
# 42 vertices

g chain016
f 54 53 51 
f 51 52 54 
f 70 72 56 
f 68 70 56 
f 66 68 56 
f 59 66 56 
f 59 56 55 
f 60 59 55 
f 56 52 51 
f 51 55 56 
f 58 57 53 
f 58 53 54 
f 65 58 54 
f 67 65 54 
f 69 67 54 
f 71 69 54 
f 61 60 55 
f 53 57 64 
f 53 64 63 
f 53 63 62 
f 53 62 61 
f 51 53 61 
f 51 61 55 
f 54 52 56 
f 76 71 54 
f 75 76 54 
f 74 75 54 
f 74 54 56 
f 73 74 56 
f 73 56 72 
f 64 57 58 
f 58 80 64 
f 82 81 77 
f 77 78 82 
f 83 82 78 
f 78 79 83 
f 84 83 79 
f 79 80 84 
f 65 84 80 
f 80 58 65 
f 86 85 81 
f 81 82 86 
f 87 86 82 
f 82 83 87 
f 88 87 83 
f 83 84 88 
f 67 88 84 
f 84 65 67 
f 90 89 85 
f 85 86 90 
f 91 90 86 
f 86 87 91 
f 92 91 87 
f 87 88 92 
f 69 92 88 
f 88 67 69 
f 59 77 81 
f 81 66 59 
f 66 81 85 
f 85 68 66 
f 73 72 70 
f 70 89 73 
f 68 85 89 
f 89 70 68 
f 75 74 90 
f 90 91 75 
f 74 73 89 
f 89 90 74 
f 71 76 92 
f 92 69 71 
f 76 75 91 
f 91 92 76 
f 77 59 60 
f 60 61 77 
f 61 62 78 
f 78 77 61 
f 62 63 79 
f 79 78 62 
f 63 64 80 
f 80 79 63 
# 80 faces

#
# object Cylinder034
#

v  0.0000 24.9591 1.0000
v  -0.3420 24.9591 0.9397
v  -0.6428 24.9591 0.7660
v  -0.8660 24.9591 0.5000
v  -0.9848 24.9591 0.1736
v  -0.9848 24.9591 -0.1736
v  -0.8660 24.9591 -0.5000
v  -0.6428 24.9591 -0.7660
v  -0.3420 24.9591 -0.9397
v  0.0000 24.9591 -1.0000
v  0.3420 24.9591 -0.9397
v  0.6428 24.9591 -0.7660
v  0.8660 24.9591 -0.5000
v  0.9848 24.9591 -0.1736
v  0.9848 24.9591 0.1736
v  0.8660 24.9591 0.5000
v  0.6428 24.9591 0.7660
v  0.3420 24.9591 0.9397
v  0.0000 19.9671 1.0000
v  -0.3420 19.9671 0.9397
v  -0.6428 19.9671 0.7660
v  -0.8660 19.9671 0.5000
v  -0.9848 19.9671 0.1736
v  -0.9848 19.9671 -0.1736
v  -0.8660 19.9671 -0.5000
v  -0.6428 19.9671 -0.7660
v  -0.3420 19.9671 -0.9397
v  0.0000 19.9671 -1.0000
v  0.3420 19.9671 -0.9397
v  0.6428 19.9671 -0.7660
v  0.8660 19.9671 -0.5000
v  0.9848 19.9671 -0.1736
v  0.9848 19.9671 0.1736
v  0.8660 19.9671 0.5000
v  0.6428 19.9671 0.7660
v  0.3420 19.9671 0.9397
v  0.0000 14.9751 1.0000
v  -0.3420 14.9751 0.9397
v  -0.6428 14.9751 0.7660
v  -0.8660 14.9751 0.5000
v  -0.9848 14.9751 0.1736
v  -0.9848 14.9751 -0.1736
v  -0.8660 14.9751 -0.5000
v  -0.6428 14.9751 -0.7660
v  -0.3420 14.9751 -0.9397
v  -0.0000 14.9751 -1.0000
v  0.3420 14.9751 -0.9397
v  0.6428 14.9751 -0.7660
v  0.8660 14.9751 -0.5000
v  0.9848 14.9751 -0.1737
v  0.9848 14.9751 0.1736
v  0.8660 14.9751 0.5000
v  0.6428 14.9751 0.7660
v  0.3420 14.9751 0.9397
v  -0.0000 9.9831 1.0000
v  -0.3420 9.9831 0.9397
v  -0.6428 9.9831 0.7660
v  -0.8660 9.9831 0.5000
v  -0.9848 9.9831 0.1736
v  -0.9848 9.9831 -0.1737
v  -0.8660 9.9831 -0.5000
v  -0.6428 9.9831 -0.7660
v  -0.3420 9.9831 -0.9397
v  -0.0000 9.9831 -1.0000
v  0.3420 9.9831 -0.9397
v  0.6428 9.9831 -0.7660
v  0.8660 9.9831 -0.5000
v  0.9848 9.9831 -0.1737
v  0.9848 9.9831 0.1736
v  0.8660 9.9831 0.5000
v  0.6428 9.9831 0.7660
v  0.3420 9.9831 0.9397
v  -0.0000 4.9911 1.0000
v  -0.3420 4.9911 0.9397
v  -0.6428 4.9911 0.7660
v  -0.8660 4.9911 0.5000
v  -0.9848 4.9911 0.1736
v  -0.9848 4.9911 -0.1737
v  -0.8660 4.9911 -0.5000
v  -0.6428 4.9911 -0.7660
v  -0.3420 4.9911 -0.9397
v  -0.0000 4.9911 -1.0000
v  0.3420 4.9911 -0.9397
v  0.6428 4.9911 -0.7660
v  0.8660 4.9911 -0.5000
v  0.9848 4.9911 -0.1737
v  0.9848 4.9911 0.1736
v  0.8660 4.9911 0.5000
v  0.6428 4.9911 0.7660
v  0.3420 4.9911 0.9397
v  -0.0000 -0.0009 1.0000
v  -0.3420 -0.0009 0.9397
v  -0.6428 -0.0009 0.7660
v  -0.8660 -0.0009 0.5000
v  -0.9848 -0.0009 0.1736
v  -0.9848 -0.0009 -0.1737
v  -0.8660 -0.0009 -0.5000
v  -0.6428 -0.0009 -0.7660
v  -0.3420 -0.0009 -0.9397
v  -0.0000 -0.0009 -1.0000
v  0.3420 -0.0009 -0.9397
v  0.6428 -0.0009 -0.7660
v  0.8660 -0.0009 -0.5000
v  0.9848 -0.0009 -0.1737
v  0.9848 -0.0009 0.1736
v  0.8660 -0.0009 0.5000
v  0.6428 -0.0009 0.7660
v  0.3420 -0.0009 0.9397
v  0.0000 24.9591 0.6400
v  -0.2189 24.9591 0.6014
v  -0.4114 24.9591 0.4903
v  -0.5543 24.9591 0.3200
v  -0.6303 24.9591 0.1111
v  -0.6303 24.9591 -0.1111
v  -0.5543 24.9591 -0.3200
v  -0.4114 24.9591 -0.4903
v  -0.2189 24.9591 -0.6014
v  0.0000 24.9591 -0.6400
v  0.2189 24.9591 -0.6014
v  0.4114 24.9591 -0.4903
v  0.5543 24.9591 -0.3200
v  0.6303 24.9591 -0.1111
v  0.6303 24.9591 0.1111
v  0.5543 24.9591 0.3200
v  0.4114 24.9591 0.4903
v  0.2189 24.9591 0.6014
v  -0.2189 -0.0009 0.6014
v  -0.0000 -0.0009 0.6400
v  -0.4114 -0.0009 0.4903
v  -0.5543 -0.0009 0.3200
v  -0.6303 -0.0009 0.1111
v  -0.6303 -0.0009 -0.1111
v  -0.5543 -0.0009 -0.3200
v  -0.4114 -0.0009 -0.4903
v  -0.2189 -0.0009 -0.6014
v  -0.0000 -0.0009 -0.6400
v  0.2189 -0.0009 -0.6014
v  0.4114 -0.0009 -0.4903
v  0.5543 -0.0009 -0.3200
v  0.6303 -0.0009 -0.1111
v  0.6303 -0.0009 0.1111
v  0.5543 -0.0009 0.3200
v  0.4114 -0.0009 0.4903
v  0.2189 -0.0009 0.6014
v  0.0000 19.8007 0.6400
v  -0.2189 19.8007 0.6014
v  -0.4114 19.8007 0.4903
v  -0.5543 19.8007 0.3200
v  -0.6303 19.8007 0.1111
v  -0.6303 19.8007 -0.1111
v  -0.5543 19.8007 -0.3200
v  -0.4114 19.8007 -0.4903
v  -0.2189 19.8007 -0.6014
v  0.0000 19.8007 -0.6400
v  0.2189 19.8007 -0.6014
v  0.4114 19.8007 -0.4903
v  0.5543 19.8007 -0.3200
v  0.6303 19.8007 -0.1111
v  0.6303 19.8007 0.1111
v  0.5543 19.8007 0.3200
v  0.4114 19.8007 0.4903
v  0.2189 19.8007 0.6014
v  0.0000 14.6423 0.6400
v  -0.2189 14.6423 0.6014
v  -0.4114 14.6423 0.4903
v  -0.5543 14.6423 0.3200
v  -0.6303 14.6423 0.1111
v  -0.6303 14.6423 -0.1111
v  -0.5543 14.6423 -0.3200
v  -0.4114 14.6423 -0.4903
v  -0.2189 14.6423 -0.6014
v  -0.0000 14.6423 -0.6400
v  0.2189 14.6423 -0.6014
v  0.4114 14.6423 -0.4903
v  0.5543 14.6423 -0.3200
v  0.6303 14.6423 -0.1111
v  0.6303 14.6423 0.1111
v  0.5543 14.6423 0.3200
v  0.4114 14.6423 0.4903
v  0.2189 14.6423 0.6014
v  -0.0000 9.4839 0.6400
v  -0.2189 9.4839 0.6014
v  -0.4114 9.4839 0.4903
v  -0.5543 9.4839 0.3200
v  -0.6303 9.4839 0.1111
v  -0.6303 9.4839 -0.1111
v  -0.5543 9.4839 -0.3200
v  -0.4114 9.4839 -0.4903
v  -0.2189 9.4839 -0.6014
v  -0.0000 9.4839 -0.6400
v  0.2189 9.4839 -0.6014
v  0.4114 9.4839 -0.4903
v  0.5543 9.4839 -0.3200
v  0.6303 9.4839 -0.1111
v  0.6303 9.4839 0.1111
v  0.5543 9.4839 0.3200
v  0.4114 9.4839 0.4903
v  0.2189 9.4839 0.6014
v  -0.0000 4.3255 0.6400
v  -0.2189 4.3255 0.6014
v  -0.4114 4.3255 0.4903
v  -0.5543 4.3255 0.3200
v  -0.6303 4.3255 0.1111
v  -0.6303 4.3255 -0.1111
v  -0.5543 4.3255 -0.3200
v  -0.4114 4.3255 -0.4903
v  -0.2189 4.3255 -0.6014
v  -0.0000 4.3255 -0.6400
v  0.2189 4.3255 -0.6014
v  0.4114 4.3255 -0.4903
v  0.5543 4.3255 -0.3200
v  0.6303 4.3255 -0.1111
v  0.6303 4.3255 0.1111
v  0.5543 4.3255 0.3200
v  0.4114 4.3255 0.4903
v  0.2189 4.3255 0.6014
# 216 vertices

g Cylinder034
f 93 94 112 
f 112 111 93 
f 94 95 113 
f 113 112 94 
f 95 96 114 
f 114 113 95 
f 96 97 115 
f 115 114 96 
f 97 98 116 
f 116 115 97 
f 98 99 117 
f 117 116 98 
f 99 100 118 
f 118 117 99 
f 100 101 119 
f 119 118 100 
f 101 102 120 
f 120 119 101 
f 102 103 121 
f 121 120 102 
f 103 104 122 
f 122 121 103 
f 104 105 123 
f 123 122 104 
f 105 106 124 
f 124 123 105 
f 106 107 125 
f 125 124 106 
f 107 108 126 
f 126 125 107 
f 108 109 127 
f 127 126 108 
f 109 110 128 
f 128 127 109 
f 110 93 111 
f 111 128 110 
f 111 112 130 
f 130 129 111 
f 112 113 131 
f 131 130 112 
f 113 114 132 
f 132 131 113 
f 114 115 133 
f 133 132 114 
f 115 116 134 
f 134 133 115 
f 116 117 135 
f 135 134 116 
f 117 118 136 
f 136 135 117 
f 118 119 137 
f 137 136 118 
f 119 120 138 
f 138 137 119 
f 120 121 139 
f 139 138 120 
f 121 122 140 
f 140 139 121 
f 122 123 141 
f 141 140 122 
f 123 124 142 
f 142 141 123 
f 124 125 143 
f 143 142 124 
f 125 126 144 
f 144 143 125 
f 126 127 145 
f 145 144 126 
f 127 128 146 
f 146 145 127 
f 128 111 129 
f 129 146 128 
f 129 130 148 
f 148 147 129 
f 130 131 149 
f 149 148 130 
f 131 132 150 
f 150 149 131 
f 132 133 151 
f 151 150 132 
f 133 134 152 
f 152 151 133 
f 134 135 153 
f 153 152 134 
f 135 136 154 
f 154 153 135 
f 136 137 155 
f 155 154 136 
f 137 138 156 
f 156 155 137 
f 138 139 157 
f 157 156 138 
f 139 140 158 
f 158 157 139 
f 140 141 159 
f 159 158 140 
f 141 142 160 
f 160 159 141 
f 142 143 161 
f 161 160 142 
f 143 144 162 
f 162 161 143 
f 144 145 163 
f 163 162 144 
f 145 146 164 
f 164 163 145 
f 146 129 147 
f 147 164 146 
f 147 148 166 
f 166 165 147 
f 148 149 167 
f 167 166 148 
f 149 150 168 
f 168 167 149 
f 150 151 169 
f 169 168 150 
f 151 152 170 
f 170 169 151 
f 152 153 171 
f 171 170 152 
f 153 154 172 
f 172 171 153 
f 154 155 173 
f 173 172 154 
f 155 156 174 
f 174 173 155 
f 156 157 175 
f 175 174 156 
f 157 158 176 
f 176 175 157 
f 158 159 177 
f 177 176 158 
f 159 160 178 
f 178 177 159 
f 160 161 179 
f 179 178 160 
f 161 162 180 
f 180 179 161 
f 162 163 181 
f 181 180 162 
f 163 164 182 
f 182 181 163 
f 164 147 165 
f 165 182 164 
f 165 166 184 
f 184 183 165 
f 166 167 185 
f 185 184 166 
f 167 168 186 
f 186 185 167 
f 168 169 187 
f 187 186 168 
f 169 170 188 
f 188 187 169 
f 170 171 189 
f 189 188 170 
f 171 172 190 
f 190 189 171 
f 172 173 191 
f 191 190 172 
f 173 174 192 
f 192 191 173 
f 174 175 193 
f 193 192 174 
f 175 176 194 
f 194 193 175 
f 176 177 195 
f 195 194 176 
f 177 178 196 
f 196 195 177 
f 178 179 197 
f 197 196 178 
f 179 180 198 
f 198 197 179 
f 180 181 199 
f 199 198 180 
f 181 182 200 
f 200 199 181 
f 182 165 183 
f 183 200 182 
f 217 218 108 
f 216 217 108 
f 215 216 108 
f 214 215 108 
f 213 214 108 
f 213 108 107 
f 212 213 107 
f 212 107 106 
f 211 212 106 
f 211 106 105 
f 210 211 105 
f 210 105 104 
f 209 210 104 
f 209 104 103 
f 208 209 103 
f 208 103 102 
f 207 208 102 
f 207 102 101 
f 206 207 101 
f 206 101 100 
f 205 206 100 
f 205 100 99 
f 204 205 99 
f 204 99 98 
f 203 204 98 
f 203 98 97 
f 202 203 97 
f 202 97 96 
f 202 96 95 
f 95 94 93 
f 202 95 93 
f 93 110 109 
f 202 93 109 
f 201 202 109 
f 201 109 108 
f 201 108 218 
f 220 236 198 
f 220 198 199 
f 220 199 200 
f 200 183 184 
f 220 200 184 
f 184 185 186 
f 220 184 186 
f 219 220 186 
f 219 186 187 
f 221 219 187 
f 221 187 188 
f 222 221 188 
f 222 188 189 
f 223 222 189 
f 223 189 190 
f 224 223 190 
f 224 190 191 
f 225 224 191 
f 225 191 192 
f 226 225 192 
f 226 192 193 
f 227 226 193 
f 227 193 194 
f 228 227 194 
f 228 194 195 
f 229 228 195 
f 229 195 196 
f 230 229 196 
f 230 196 197 
f 231 230 197 
f 231 197 198 
f 198 236 235 
f 198 235 234 
f 198 234 233 
f 198 233 232 
f 231 198 232 
f 201 237 238 
f 238 202 201 
f 202 238 239 
f 239 203 202 
f 203 239 240 
f 240 204 203 
f 204 240 241 
f 241 205 204 
f 205 241 242 
f 242 206 205 
f 206 242 243 
f 243 207 206 
f 207 243 244 
f 244 208 207 
f 208 244 245 
f 245 209 208 
f 209 245 246 
f 246 210 209 
f 210 246 247 
f 247 211 210 
f 211 247 248 
f 248 212 211 
f 212 248 249 
f 249 213 212 
f 213 249 250 
f 250 214 213 
f 214 250 251 
f 251 215 214 
f 215 251 252 
f 252 216 215 
f 216 252 253 
f 253 217 216 
f 217 253 254 
f 254 218 217 
f 218 254 237 
f 237 201 218 
f 237 255 256 
f 256 238 237 
f 238 256 257 
f 257 239 238 
f 239 257 258 
f 258 240 239 
f 240 258 259 
f 259 241 240 
f 241 259 260 
f 260 242 241 
f 242 260 261 
f 261 243 242 
f 243 261 262 
f 262 244 243 
f 244 262 263 
f 263 245 244 
f 245 263 264 
f 264 246 245 
f 246 264 265 
f 265 247 246 
f 247 265 266 
f 266 248 247 
f 248 266 267 
f 267 249 248 
f 249 267 268 
f 268 250 249 
f 250 268 269 
f 269 251 250 
f 251 269 270 
f 270 252 251 
f 252 270 271 
f 271 253 252 
f 253 271 272 
f 272 254 253 
f 254 272 255 
f 255 237 254 
f 255 273 274 
f 274 256 255 
f 256 274 275 
f 275 257 256 
f 257 275 276 
f 276 258 257 
f 258 276 277 
f 277 259 258 
f 259 277 278 
f 278 260 259 
f 260 278 279 
f 279 261 260 
f 261 279 280 
f 280 262 261 
f 262 280 281 
f 281 263 262 
f 263 281 282 
f 282 264 263 
f 264 282 283 
f 283 265 264 
f 265 283 284 
f 284 266 265 
f 266 284 285 
f 285 267 266 
f 267 285 286 
f 286 268 267 
f 268 286 287 
f 287 269 268 
f 269 287 288 
f 288 270 269 
f 270 288 289 
f 289 271 270 
f 271 289 290 
f 290 272 271 
f 272 290 273 
f 273 255 272 
f 273 291 292 
f 292 274 273 
f 274 292 293 
f 293 275 274 
f 275 293 294 
f 294 276 275 
f 276 294 295 
f 295 277 276 
f 277 295 296 
f 296 278 277 
f 278 296 297 
f 297 279 278 
f 279 297 298 
f 298 280 279 
f 280 298 299 
f 299 281 280 
f 281 299 300 
f 300 282 281 
f 282 300 301 
f 301 283 282 
f 283 301 302 
f 302 284 283 
f 284 302 303 
f 303 285 284 
f 285 303 304 
f 304 286 285 
f 286 304 305 
f 305 287 286 
f 287 305 306 
f 306 288 287 
f 288 306 307 
f 307 289 288 
f 289 307 308 
f 308 290 289 
f 290 308 291 
f 291 273 290 
f 292 219 221 
f 221 293 292 
f 291 220 219 
f 219 292 291 
f 294 222 223 
f 223 295 294 
f 293 221 222 
f 222 294 293 
f 296 224 225 
f 225 297 296 
f 295 223 224 
f 224 296 295 
f 298 226 227 
f 227 299 298 
f 297 225 226 
f 226 298 297 
f 300 228 229 
f 229 301 300 
f 299 227 228 
f 228 300 299 
f 302 230 231 
f 231 303 302 
f 301 229 230 
f 230 302 301 
f 304 232 233 
f 233 305 304 
f 303 231 232 
f 232 304 303 
f 306 234 235 
f 235 307 306 
f 305 233 234 
f 234 306 305 
f 308 236 220 
f 220 291 308 
f 307 235 236 
f 236 308 307 
# 432 faces

#
# object chain013
#

v  22.0000 0.0110 0.0000
v  22.0000 -25.0250 0.0000
v  21.0000 0.0110 0.0000
v  21.0000 -25.0250 0.0000
v  22.0000 0.0110 2.0000
v  22.0000 -25.0250 2.0000
v  21.0000 0.0110 2.0000
v  21.0000 -25.0250 2.0000
# 8 vertices

g chain013
f 312 311 309 
f 309 310 312 
f 316 314 313 
f 313 315 316 
f 314 310 309 
f 309 313 314 
f 316 312 310 
f 310 314 316 
f 315 311 312 
f 312 316 315 
f 313 309 311 
f 311 315 313 
# 12 faces

#
# object Cylinder030
#

v  22.0000 25.0470 1.0000
v  22.0000 25.0470 0.4800
v  21.8221 25.0470 0.5114
v  21.6657 25.0470 0.6017
v  21.5497 25.0470 0.7400
v  21.4879 25.0470 0.9097
v  21.4879 25.0470 1.0903
v  21.5497 25.0470 1.2600
v  21.6657 25.0470 1.3983
v  21.8221 25.0470 1.4886
v  22.0000 25.0470 1.5200
v  22.1778 25.0470 1.4886
v  22.3342 25.0470 1.3983
v  22.4503 25.0470 1.2600
v  22.5121 25.0470 1.0903
v  22.5121 25.0470 0.9097
v  22.4503 25.0470 0.7400
v  22.3342 25.0470 0.6017
v  22.1778 25.0470 0.5114
v  22.0000 20.0398 0.4800
v  21.8221 20.0398 0.5114
v  21.6657 20.0398 0.6017
v  21.5497 20.0398 0.7400
v  21.4879 20.0398 0.9097
v  21.4879 20.0398 1.0903
v  21.5497 20.0398 1.2600
v  21.6657 20.0398 1.3983
v  21.8221 20.0398 1.4886
v  22.0000 20.0398 1.5200
v  22.1778 20.0398 1.4886
v  22.3342 20.0398 1.3983
v  22.4503 20.0398 1.2600
v  22.5121 20.0398 1.0903
v  22.5121 20.0398 0.9097
v  22.4503 20.0398 0.7400
v  22.3342 20.0398 0.6017
v  22.1778 20.0398 0.5114
v  22.0000 15.0326 0.4800
v  21.8221 15.0326 0.5114
v  21.6657 15.0326 0.6017
v  21.5497 15.0326 0.7400
v  21.4879 15.0326 0.9097
v  21.4879 15.0326 1.0903
v  21.5497 15.0326 1.2600
v  21.6657 15.0326 1.3983
v  21.8221 15.0326 1.4886
v  22.0000 15.0326 1.5200
v  22.1778 15.0326 1.4886
v  22.3342 15.0326 1.3983
v  22.4503 15.0326 1.2600
v  22.5121 15.0326 1.0903
v  22.5121 15.0326 0.9097
v  22.4503 15.0326 0.7400
v  22.3342 15.0326 0.6017
v  22.1778 15.0326 0.5114
v  22.0000 10.0254 0.4800
v  21.8221 10.0254 0.5114
v  21.6657 10.0254 0.6017
v  21.5497 10.0254 0.7400
v  21.4879 10.0254 0.9097
v  21.4879 10.0254 1.0903
v  21.5497 10.0254 1.2600
v  21.6657 10.0254 1.3983
v  21.8221 10.0254 1.4886
v  22.0000 10.0254 1.5200
v  22.1778 10.0254 1.4886
v  22.3342 10.0254 1.3983
v  22.4503 10.0254 1.2600
v  22.5121 10.0254 1.0903
v  22.5121 10.0254 0.9097
v  22.4503 10.0254 0.7400
v  22.3342 10.0254 0.6017
v  22.1778 10.0254 0.5114
v  22.0000 5.0182 0.4800
v  21.8221 5.0182 0.5114
v  21.6657 5.0182 0.6017
v  21.5497 5.0182 0.7400
v  21.4879 5.0182 0.9097
v  21.4879 5.0182 1.0903
v  21.5497 5.0182 1.2600
v  21.6657 5.0182 1.3983
v  21.8221 5.0182 1.4886
v  22.0000 5.0182 1.5200
v  22.1778 5.0182 1.4886
v  22.3342 5.0182 1.3983
v  22.4503 5.0182 1.2600
v  22.5121 5.0182 1.0903
v  22.5121 5.0182 0.9097
v  22.4503 5.0182 0.7400
v  22.3342 5.0182 0.6017
v  22.1779 5.0182 0.5114
v  22.0000 0.0110 0.4800
v  21.8221 0.0110 0.5114
v  21.6658 0.0110 0.6017
v  21.5497 0.0110 0.7400
v  21.4879 0.0110 0.9097
v  21.4879 0.0110 1.0903
v  21.5497 0.0110 1.2600
v  21.6657 0.0110 1.3983
v  21.8221 0.0110 1.4886
v  22.0000 0.0110 1.5200
v  22.1778 0.0110 1.4886
v  22.3342 0.0110 1.3983
v  22.4503 0.0110 1.2600
v  22.5121 0.0110 1.0903
v  22.5121 0.0110 0.9097
v  22.4503 0.0110 0.7400
v  22.3342 0.0110 0.6017
v  22.1779 0.0110 0.5114
v  22.0000 0.0110 1.0000
# 110 vertices

g Cylinder030
f 318 319 317 
f 319 320 317 
f 320 321 317 
f 321 322 317 
f 322 323 317 
f 323 324 317 
f 324 325 317 
f 325 326 317 
f 326 327 317 
f 327 328 317 
f 328 329 317 
f 329 330 317 
f 330 331 317 
f 331 332 317 
f 332 333 317 
f 333 334 317 
f 334 335 317 
f 335 318 317 
f 336 337 318 
f 337 319 318 
f 337 338 319 
f 338 320 319 
f 338 339 320 
f 339 321 320 
f 339 340 321 
f 340 322 321 
f 340 341 322 
f 341 323 322 
f 341 342 323 
f 342 324 323 
f 342 343 324 
f 343 325 324 
f 343 344 325 
f 344 326 325 
f 344 345 326 
f 345 327 326 
f 345 346 327 
f 346 328 327 
f 346 347 328 
f 347 329 328 
f 347 348 329 
f 348 330 329 
f 348 349 330 
f 349 331 330 
f 349 350 331 
f 350 332 331 
f 350 351 332 
f 351 333 332 
f 351 352 333 
f 352 334 333 
f 352 353 334 
f 353 335 334 
f 353 336 335 
f 336 318 335 
f 354 355 336 
f 355 337 336 
f 355 356 337 
f 356 338 337 
f 356 357 338 
f 357 339 338 
f 357 358 339 
f 358 340 339 
f 358 359 340 
f 359 341 340 
f 359 360 341 
f 360 342 341 
f 360 361 342 
f 361 343 342 
f 361 362 343 
f 362 344 343 
f 362 363 344 
f 363 345 344 
f 363 364 345 
f 364 346 345 
f 364 365 346 
f 365 347 346 
f 365 366 347 
f 366 348 347 
f 366 367 348 
f 367 349 348 
f 367 368 349 
f 368 350 349 
f 368 369 350 
f 369 351 350 
f 369 370 351 
f 370 352 351 
f 370 371 352 
f 371 353 352 
f 371 354 353 
f 354 336 353 
f 372 373 354 
f 373 355 354 
f 373 374 355 
f 374 356 355 
f 374 375 356 
f 375 357 356 
f 375 376 357 
f 376 358 357 
f 376 377 358 
f 377 359 358 
f 377 378 359 
f 378 360 359 
f 378 379 360 
f 379 361 360 
f 379 380 361 
f 380 362 361 
f 380 381 362 
f 381 363 362 
f 381 382 363 
f 382 364 363 
f 382 383 364 
f 383 365 364 
f 383 384 365 
f 384 366 365 
f 384 385 366 
f 385 367 366 
f 385 386 367 
f 386 368 367 
f 386 387 368 
f 387 369 368 
f 387 388 369 
f 388 370 369 
f 388 389 370 
f 389 371 370 
f 389 372 371 
f 372 354 371 
f 390 391 372 
f 391 373 372 
f 391 392 373 
f 392 374 373 
f 392 393 374 
f 393 375 374 
f 393 394 375 
f 394 376 375 
f 394 395 376 
f 395 377 376 
f 395 396 377 
f 396 378 377 
f 396 397 378 
f 397 379 378 
f 397 398 379 
f 398 380 379 
f 398 399 380 
f 399 381 380 
f 399 400 381 
f 400 382 381 
f 400 401 382 
f 401 383 382 
f 401 402 383 
f 402 384 383 
f 402 403 384 
f 403 385 384 
f 403 404 385 
f 404 386 385 
f 404 405 386 
f 405 387 386 
f 405 406 387 
f 406 388 387 
f 406 407 388 
f 407 389 388 
f 407 390 389 
f 390 372 389 
f 408 409 390 
f 409 391 390 
f 409 410 391 
f 410 392 391 
f 410 411 392 
f 411 393 392 
f 411 412 393 
f 412 394 393 
f 412 413 394 
f 413 395 394 
f 413 414 395 
f 414 396 395 
f 414 415 396 
f 415 397 396 
f 415 416 397 
f 416 398 397 
f 416 417 398 
f 417 399 398 
f 417 418 399 
f 418 400 399 
f 418 419 400 
f 419 401 400 
f 419 420 401 
f 420 402 401 
f 420 421 402 
f 421 403 402 
f 421 422 403 
f 422 404 403 
f 422 423 404 
f 423 405 404 
f 423 424 405 
f 424 406 405 
f 424 425 406 
f 425 407 406 
f 425 408 407 
f 408 390 407 
f 409 408 426 
f 410 409 426 
f 411 410 426 
f 412 411 426 
f 413 412 426 
f 414 413 426 
f 415 414 426 
f 416 415 426 
f 417 416 426 
f 418 417 426 
f 419 418 426 
f 420 419 426 
f 421 420 426 
f 422 421 426 
f 423 422 426 
f 424 423 426 
f 425 424 426 
f 408 425 426 
# 216 faces

#
# object Cylinder031
#

v  22.0000 0.0110 1.0000
v  22.0000 0.0110 0.0000
v  21.6580 0.0110 0.0603
v  21.3572 0.0110 0.2340
v  21.1340 0.0110 0.5000
v  21.0152 0.0110 0.8264
v  21.0152 0.0110 1.1736
v  21.1340 0.0110 1.5000
v  21.3572 0.0110 1.7660
v  21.6580 0.0110 1.9397
v  22.0000 0.0110 2.0000
v  22.3420 0.0110 1.9397
v  22.6428 0.0110 1.7660
v  22.8660 0.0110 1.5000
v  22.9848 0.0110 1.1737
v  22.9848 0.0110 0.8264
v  22.8660 0.0110 0.5000
v  22.6428 0.0110 0.2340
v  22.3420 0.0110 0.0603
v  22.0000 -4.9962 0.0000
v  21.6580 -4.9962 0.0603
v  21.3572 -4.9962 0.2340
v  21.1340 -4.9962 0.5000
v  21.0152 -4.9962 0.8264
v  21.0152 -4.9962 1.1736
v  21.1340 -4.9962 1.5000
v  21.3572 -4.9962 1.7660
v  21.6580 -4.9962 1.9397
v  22.0000 -4.9962 2.0000
v  22.3420 -4.9962 1.9397
v  22.6428 -4.9962 1.7660
v  22.8660 -4.9962 1.5000
v  22.9848 -4.9962 1.1737
v  22.9848 -4.9962 0.8264
v  22.8660 -4.9962 0.5000
v  22.6428 -4.9962 0.2340
v  22.3420 -4.9962 0.0603
v  22.0000 -10.0034 0.0000
v  21.6580 -10.0034 0.0603
v  21.3572 -10.0034 0.2340
v  21.1340 -10.0034 0.5000
v  21.0152 -10.0034 0.8264
v  21.0152 -10.0034 1.1737
v  21.1340 -10.0034 1.5000
v  21.3572 -10.0034 1.7660
v  21.6580 -10.0034 1.9397
v  22.0000 -10.0034 2.0000
v  22.3420 -10.0034 1.9397
v  22.6428 -10.0034 1.7660
v  22.8660 -10.0034 1.5000
v  22.9848 -10.0034 1.1737
v  22.9848 -10.0034 0.8264
v  22.8660 -10.0034 0.5000
v  22.6428 -10.0034 0.2340
v  22.3420 -10.0034 0.0603
v  22.0000 -15.0106 0.0000
v  21.6580 -15.0106 0.0603
v  21.3572 -15.0106 0.2340
v  21.1340 -15.0106 0.5000
v  21.0152 -15.0106 0.8264
v  21.0152 -15.0106 1.1737
v  21.1340 -15.0106 1.5000
v  21.3572 -15.0106 1.7660
v  21.6580 -15.0106 1.9397
v  22.0000 -15.0106 2.0000
v  22.3420 -15.0106 1.9397
v  22.6428 -15.0106 1.7660
v  22.8660 -15.0106 1.5000
v  22.9848 -15.0106 1.1737
v  22.9848 -15.0106 0.8264
v  22.8660 -15.0106 0.5000
v  22.6428 -15.0106 0.2340
v  22.3420 -15.0106 0.0603
v  22.0000 -20.0178 0.0000
v  21.6580 -20.0178 0.0603
v  21.3572 -20.0178 0.2340
v  21.1340 -20.0178 0.5000
v  21.0152 -20.0178 0.8264
v  21.0152 -20.0178 1.1737
v  21.1340 -20.0178 1.5000
v  21.3572 -20.0178 1.7660
v  21.6580 -20.0178 1.9397
v  22.0000 -20.0178 2.0000
v  22.3420 -20.0178 1.9397
v  22.6428 -20.0178 1.7660
v  22.8660 -20.0178 1.5000
v  22.9848 -20.0178 1.1737
v  22.9848 -20.0178 0.8264
v  22.8660 -20.0178 0.5000
v  22.6428 -20.0178 0.2340
v  22.3420 -20.0178 0.0603
v  22.0000 -25.0250 0.0000
v  21.6580 -25.0250 0.0603
v  21.3572 -25.0250 0.2340
v  21.1340 -25.0250 0.5000
v  21.0152 -25.0250 0.8264
v  21.0152 -25.0250 1.1737
v  21.1340 -25.0250 1.5000
v  21.3572 -25.0250 1.7660
v  21.6580 -25.0250 1.9397
v  22.0000 -25.0250 2.0000
v  22.3420 -25.0250 1.9397
v  22.6428 -25.0250 1.7660
v  22.8660 -25.0250 1.5000
v  22.9848 -25.0250 1.1737
v  22.9848 -25.0250 0.8264
v  22.8660 -25.0250 0.5000
v  22.6428 -25.0250 0.2340
v  22.3420 -25.0250 0.0603
v  22.0000 -25.0250 1.0000
# 110 vertices

g Cylinder031
f 428 429 427 
f 429 430 427 
f 430 431 427 
f 431 432 427 
f 432 433 427 
f 433 434 427 
f 434 435 427 
f 435 436 427 
f 436 437 427 
f 437 438 427 
f 438 439 427 
f 439 440 427 
f 440 441 427 
f 441 442 427 
f 442 443 427 
f 443 444 427 
f 444 445 427 
f 445 428 427 
f 446 447 428 
f 447 429 428 
f 447 448 429 
f 448 430 429 
f 448 449 430 
f 449 431 430 
f 449 450 431 
f 450 432 431 
f 450 451 432 
f 451 433 432 
f 451 452 433 
f 452 434 433 
f 452 453 434 
f 453 435 434 
f 453 454 435 
f 454 436 435 
f 454 455 436 
f 455 437 436 
f 455 456 437 
f 456 438 437 
f 456 457 438 
f 457 439 438 
f 457 458 439 
f 458 440 439 
f 458 459 440 
f 459 441 440 
f 459 460 441 
f 460 442 441 
f 460 461 442 
f 461 443 442 
f 461 462 443 
f 462 444 443 
f 462 463 444 
f 463 445 444 
f 463 446 445 
f 446 428 445 
f 464 465 446 
f 465 447 446 
f 465 466 447 
f 466 448 447 
f 466 467 448 
f 467 449 448 
f 467 468 449 
f 468 450 449 
f 468 469 450 
f 469 451 450 
f 469 470 451 
f 470 452 451 
f 470 471 452 
f 471 453 452 
f 471 472 453 
f 472 454 453 
f 472 473 454 
f 473 455 454 
f 473 474 455 
f 474 456 455 
f 474 475 456 
f 475 457 456 
f 475 476 457 
f 476 458 457 
f 476 477 458 
f 477 459 458 
f 477 478 459 
f 478 460 459 
f 478 479 460 
f 479 461 460 
f 479 480 461 
f 480 462 461 
f 480 481 462 
f 481 463 462 
f 481 464 463 
f 464 446 463 
f 482 483 464 
f 483 465 464 
f 483 484 465 
f 484 466 465 
f 484 485 466 
f 485 467 466 
f 485 486 467 
f 486 468 467 
f 486 487 468 
f 487 469 468 
f 487 488 469 
f 488 470 469 
f 488 489 470 
f 489 471 470 
f 489 490 471 
f 490 472 471 
f 490 491 472 
f 491 473 472 
f 491 492 473 
f 492 474 473 
f 492 493 474 
f 493 475 474 
f 493 494 475 
f 494 476 475 
f 494 495 476 
f 495 477 476 
f 495 496 477 
f 496 478 477 
f 496 497 478 
f 497 479 478 
f 497 498 479 
f 498 480 479 
f 498 499 480 
f 499 481 480 
f 499 482 481 
f 482 464 481 
f 500 501 482 
f 501 483 482 
f 501 502 483 
f 502 484 483 
f 502 503 484 
f 503 485 484 
f 503 504 485 
f 504 486 485 
f 504 505 486 
f 505 487 486 
f 505 506 487 
f 506 488 487 
f 506 507 488 
f 507 489 488 
f 507 508 489 
f 508 490 489 
f 508 509 490 
f 509 491 490 
f 509 510 491 
f 510 492 491 
f 510 511 492 
f 511 493 492 
f 511 512 493 
f 512 494 493 
f 512 513 494 
f 513 495 494 
f 513 514 495 
f 514 496 495 
f 514 515 496 
f 515 497 496 
f 515 516 497 
f 516 498 497 
f 516 517 498 
f 517 499 498 
f 517 500 499 
f 500 482 499 
f 518 519 500 
f 519 501 500 
f 519 520 501 
f 520 502 501 
f 520 521 502 
f 521 503 502 
f 521 522 503 
f 522 504 503 
f 522 523 504 
f 523 505 504 
f 523 524 505 
f 524 506 505 
f 524 525 506 
f 525 507 506 
f 525 526 507 
f 526 508 507 
f 526 527 508 
f 527 509 508 
f 527 528 509 
f 528 510 509 
f 528 529 510 
f 529 511 510 
f 529 530 511 
f 530 512 511 
f 530 531 512 
f 531 513 512 
f 531 532 513 
f 532 514 513 
f 532 533 514 
f 533 515 514 
f 533 534 515 
f 534 516 515 
f 534 535 516 
f 535 517 516 
f 535 518 517 
f 518 500 517 
f 519 518 536 
f 520 519 536 
f 521 520 536 
f 522 521 536 
f 523 522 536 
f 524 523 536 
f 525 524 536 
f 526 525 536 
f 527 526 536 
f 528 527 536 
f 529 528 536 
f 530 529 536 
f 531 530 536 
f 532 531 536 
f 533 532 536 
f 534 533 536 
f 535 534 536 
f 518 535 536 
# 216 faces

#
# object Box018
#

v  23.0000 -0.0110 -0.0000
v  23.0000 -25.0470 -0.0000
v  21.0000 -0.0110 -0.0000
v  21.0000 -25.0470 -0.0000
v  23.0000 -0.0110 1.0000
v  23.0000 -25.0470 1.0000
v  21.0000 -0.0110 1.0000
v  21.0000 -25.0470 1.0000
# 8 vertices

g Box018
f 540 539 537 
f 537 538 540 
f 544 542 541 
f 541 543 544 
f 542 538 537 
f 537 541 542 
f 544 540 538 
f 538 542 544 
f 543 539 540 
f 540 544 543 
f 541 537 539 
f 539 543 541 
# 12 faces

