# 3ds Max Wavefront OBJ Exporter v0.97b - (c)2007 guruware
# File Created: 02.06.2014 00:00:52

#
# object Box001
#

v  -30.0000 -5.0000 -0.0000
v  30.0000 -5.0000 -0.0000
v  -30.0000 5.0000 0.0000
v  30.0000 5.0000 0.0000
v  -30.0000 -5.0000 1.0000
v  30.0000 -5.0000 1.0000
v  -30.0000 5.0000 1.0000
v  30.0000 5.0000 1.0000
# 8 vertices

g Box001
f 1 3 4 
f 4 2 1 
f 5 6 8 
f 8 7 5 
f 1 2 6 
f 6 5 1 
f 2 4 8 
f 8 6 2 
f 4 3 7 
f 7 8 4 
f 3 1 5 
f 5 7 3 
# 12 faces

#
# object Box002
#

v  -35.0000 -5.0000 9.8822
v  25.0000 -5.0000 9.8822
v  -35.0000 5.0000 9.8822
v  25.0000 5.0000 9.8822
v  -35.0000 -5.0000 10.8822
v  25.0000 -5.0000 10.8822
v  -35.0000 5.0000 10.8822
v  25.0000 5.0000 10.8822
# 8 vertices

g Box002
f 9 11 12 
f 12 10 9 
f 13 14 16 
f 16 15 13 
f 9 10 14 
f 14 13 9 
f 10 12 16 
f 16 14 10 
f 12 11 15 
f 15 16 12 
f 11 9 13 
f 13 15 11 
# 12 faces

#
# object Box003
#

v  -32.5000 -5.0000 20.0000
v  27.5000 -5.0000 20.0000
v  -32.5000 5.0000 20.0000
v  27.5000 5.0000 20.0000
v  -32.5000 -5.0000 21.0000
v  27.5000 -5.0000 21.0000
v  -32.5000 5.0000 21.0000
v  27.5000 5.0000 21.0000
# 8 vertices

g Box003
f 17 19 20 
f 20 18 17 
f 21 22 24 
f 24 23 21 
f 17 18 22 
f 22 21 17 
f 18 20 24 
f 24 22 18 
f 20 19 23 
f 23 24 20 
f 19 17 21 
f 21 23 19 
# 12 faces

#
# object Box004
#

v  -30.0000 -5.0000 30.0000
v  30.0000 -5.0000 30.0000
v  -30.0000 5.0000 30.0000
v  30.0000 5.0000 30.0000
v  -30.0000 -5.0000 31.0000
v  30.0000 -5.0000 31.0000
v  -30.0000 5.0000 31.0000
v  30.0000 5.0000 31.0000
# 8 vertices

g Box004
f 25 27 28 
f 28 26 25 
f 29 30 32 
f 32 31 29 
f 25 26 30 
f 30 29 25 
f 26 28 32 
f 32 30 26 
f 28 27 31 
f 31 32 28 
f 27 25 29 
f 29 31 27 
# 12 faces

#
# object Box005
#

v  -32.5000 -5.0000 40.0000
v  27.5000 -5.0000 40.0000
v  -32.5000 5.0000 40.0000
v  27.5000 5.0000 40.0000
v  -32.5000 -5.0000 41.0000
v  27.5000 -5.0000 41.0000
v  -32.5000 5.0000 41.0000
v  27.5000 5.0000 41.0000
# 8 vertices

g Box005
f 33 35 36 
f 36 34 33 
f 37 38 40 
f 40 39 37 
f 33 34 38 
f 38 37 33 
f 34 36 40 
f 40 38 34 
f 36 35 39 
f 39 40 36 
f 35 33 37 
f 37 39 35 
# 12 faces

#
# object Box006
#

v  -30.0000 -3.0000 50.0000
v  30.0000 -3.0000 50.0000
v  -30.0000 3.0000 50.0000
v  30.0000 3.0000 50.0000
v  -30.0000 -3.0000 51.0000
v  30.0000 -3.0000 51.0000
v  -30.0000 3.0000 51.0000
v  30.0000 3.0000 51.0000
# 8 vertices

g Box006
f 41 43 44 
f 44 42 41 
f 45 46 48 
f 48 47 45 
f 41 42 46 
f 46 45 41 
f 42 44 48 
f 48 46 42 
f 44 43 47 
f 47 48 44 
f 43 41 45 
f 45 47 43 
# 12 faces

#
# object Box007
#

v  20.8154 6.0000 0.1636
v  20.3456 6.0000 -0.0074
v  16.7112 6.0000 11.4399
v  16.2414 6.0000 11.2689
v  20.8154 -6.0000 0.1636
v  20.3456 -6.0000 -0.0074
v  16.7112 -6.0000 11.4399
v  16.2414 -6.0000 11.2689
# 8 vertices

g Box007
f 52 51 49 
f 49 50 52 
f 56 54 53 
f 53 55 56 
f 54 50 49 
f 49 53 54 
f 56 52 50 
f 50 54 56 
f 55 51 52 
f 52 56 55 
f 53 49 51 
f 51 55 53 
# 12 faces

#
# object Box008
#

v  0.9238 6.0000 0.1636
v  0.4540 6.0000 -0.0074
v  -3.1804 6.0000 11.4399
v  -3.6503 6.0000 11.2689
v  0.9238 -6.0000 0.1636
v  0.4540 -6.0000 -0.0074
v  -3.1804 -6.0000 11.4399
v  -3.6503 -6.0000 11.2689
# 8 vertices

g Box008
f 60 59 57 
f 57 58 60 
f 64 62 61 
f 61 63 64 
f 62 58 57 
f 57 61 62 
f 64 60 58 
f 58 62 64 
f 63 59 60 
f 60 64 63 
f 61 57 59 
f 59 63 61 
# 12 faces

#
# object Box009
#

v  -25.9470 6.0000 0.1636
v  -25.4772 6.0000 -0.0074
v  -21.8428 6.0000 11.4399
v  -21.3729 6.0000 11.2689
v  -25.9470 -6.0000 0.1636
v  -25.4772 -6.0000 -0.0074
v  -21.8428 -6.0000 11.4399
v  -21.3729 -6.0000 11.2689
# 8 vertices

g Box009
f 65 67 68 
f 68 66 65 
f 69 70 72 
f 72 71 69 
f 65 66 70 
f 70 69 65 
f 66 68 72 
f 72 70 66 
f 68 67 71 
f 71 72 68 
f 67 65 69 
f 69 71 67 
# 12 faces

#
# object Box010
#

v  0.9238 6.0000 19.9473
v  0.4540 6.0000 19.7763
v  -3.1804 6.0000 31.2237
v  -3.6503 6.0000 31.0527
v  0.9238 -6.0000 19.9473
v  0.4540 -6.0000 19.7763
v  -3.1804 -6.0000 31.2237
v  -3.6503 -6.0000 31.0526
# 8 vertices

g Box010
f 76 75 73 
f 73 74 76 
f 80 78 77 
f 77 79 80 
f 78 74 73 
f 73 77 78 
f 80 76 74 
f 74 78 80 
f 79 75 76 
f 76 80 79 
f 77 73 75 
f 75 79 77 
# 12 faces

#
# object Box011
#

v  20.8154 6.0000 19.9473
v  20.3456 6.0000 19.7763
v  16.7112 6.0000 31.2237
v  16.2414 6.0000 31.0527
v  20.8154 -6.0000 19.9473
v  20.3456 -6.0000 19.7763
v  16.7112 -6.0000 31.2237
v  16.2414 -6.0000 31.0526
# 8 vertices

g Box011
f 84 83 81 
f 81 82 84 
f 88 86 85 
f 85 87 88 
f 86 82 81 
f 81 85 86 
f 88 84 82 
f 82 86 88 
f 87 83 84 
f 84 88 87 
f 85 81 83 
f 83 87 85 
# 12 faces

#
# object Box012
#

v  -19.3031 6.0000 19.9473
v  -19.7729 6.0000 19.7763
v  -23.4073 6.0000 31.2237
v  -23.8772 6.0000 31.0527
v  -19.3031 -6.0000 19.9473
v  -19.7729 -6.0000 19.7763
v  -23.4073 -6.0000 31.2237
v  -23.8772 -6.0000 31.0526
# 8 vertices

g Box012
f 92 91 89 
f 89 90 92 
f 96 94 93 
f 93 95 96 
f 94 90 89 
f 89 93 94 
f 96 92 90 
f 90 94 96 
f 95 91 92 
f 92 96 95 
f 93 89 91 
f 91 95 93 
# 12 faces

#
# object Box013
#

v  -31.3388 6.0000 9.9474
v  -30.8690 6.0000 9.7763
v  -27.2346 6.0000 21.2237
v  -26.7647 6.0000 21.0527
v  -31.3388 -6.0000 9.9473
v  -30.8690 -6.0000 9.7763
v  -27.2346 -6.0000 21.2237
v  -26.7647 -6.0000 21.0526
# 8 vertices

g Box013
f 97 99 100 
f 100 98 97 
f 101 102 104 
f 104 103 101 
f 97 98 102 
f 102 101 97 
f 98 100 104 
f 104 102 98 
f 100 99 103 
f 103 104 100 
f 99 97 101 
f 101 103 99 
# 12 faces

#
# object Box014
#

v  -13.7814 6.0000 9.9474
v  -13.3116 6.0000 9.7763
v  -9.6772 6.0000 21.2237
v  -9.2073 6.0000 21.0527
v  -13.7814 -6.0000 9.9473
v  -13.3116 -6.0000 9.7763
v  -9.6772 -6.0000 21.2237
v  -9.2073 -6.0000 21.0526
# 8 vertices

g Box014
f 105 107 108 
f 108 106 105 
f 109 110 112 
f 112 111 109 
f 105 106 110 
f 110 109 105 
f 106 108 112 
f 112 110 106 
f 108 107 111 
f 111 112 108 
f 107 105 109 
f 109 111 107 
# 12 faces

#
# object Box015
#

v  5.9860 6.0000 9.9474
v  6.4559 6.0000 9.7763
v  10.0903 6.0000 21.2237
v  10.5601 6.0000 21.0527
v  5.9860 -6.0000 9.9473
v  6.4559 -6.0000 9.7763
v  10.0903 -6.0000 21.2237
v  10.5601 -6.0000 21.0526
# 8 vertices

g Box015
f 113 115 116 
f 116 114 113 
f 117 118 120 
f 120 119 117 
f 113 114 118 
f 118 117 113 
f 114 116 120 
f 120 118 114 
f 116 115 119 
f 119 120 116 
f 115 113 117 
f 117 119 115 
# 12 faces

#
# object Box016
#

v  -17.7405 6.0000 29.9473
v  -17.2706 6.0000 29.7763
v  -13.6362 6.0000 41.2237
v  -13.1664 6.0000 41.0527
v  -17.7405 -6.0000 29.9473
v  -17.2706 -6.0000 29.7763
v  -13.6362 -6.0000 41.2237
v  -13.1664 -6.0000 41.0526
# 8 vertices

g Box016
f 121 123 124 
f 124 122 121 
f 125 126 128 
f 128 127 125 
f 121 122 126 
f 126 125 121 
f 122 124 128 
f 128 126 122 
f 124 123 127 
f 127 128 124 
f 123 121 125 
f 125 127 123 
# 12 faces

#
# object Box017
#

v  7.4455 6.0000 29.9473
v  6.9757 6.0000 29.7763
v  3.3413 6.0000 41.2237
v  2.8714 6.0000 41.0527
v  7.4455 -6.0000 29.9473
v  6.9757 -6.0000 29.7763
v  3.3413 -6.0000 41.2237
v  2.8714 -6.0000 41.0526
# 8 vertices

g Box017
f 132 131 129 
f 129 130 132 
f 136 134 133 
f 133 135 136 
f 134 130 129 
f 129 133 134 
f 136 132 130 
f 130 134 136 
f 135 131 132 
f 132 136 135 
f 133 129 131 
f 131 135 133 
# 12 faces

#
# object Box018
#

v  25.9168 6.0000 29.9473
v  25.4470 6.0000 29.7763
v  21.8126 6.0000 41.2237
v  21.3428 6.0000 41.0527
v  25.9168 -6.0000 29.9473
v  25.4470 -6.0000 29.7763
v  21.8126 -6.0000 41.2237
v  21.3428 -6.0000 41.0526
# 8 vertices

g Box018
f 140 139 137 
f 137 138 140 
f 144 142 141 
f 141 143 144 
f 142 138 137 
f 137 141 142 
f 144 140 138 
f 138 142 144 
f 143 139 140 
f 140 144 143 
f 141 137 139 
f 139 143 141 
# 12 faces

#
# object Box019
#

v  12.7594 6.0000 39.9473
v  13.2292 6.0000 39.7763
v  16.8636 6.0000 51.2237
v  17.3335 6.0000 51.0527
v  12.7594 -6.0000 39.9473
v  13.2292 -6.0000 39.7763
v  16.8636 -6.0000 51.2237
v  17.3335 -6.0000 51.0526
# 8 vertices

g Box019
f 145 147 148 
f 148 146 145 
f 149 150 152 
f 152 151 149 
f 145 146 150 
f 150 149 145 
f 146 148 152 
f 152 150 146 
f 148 147 151 
f 151 152 148 
f 147 145 149 
f 149 151 147 
# 12 faces

#
# object Box020
#

v  -5.6591 6.0000 39.9473
v  -5.1892 6.0000 39.7763
v  -1.5548 6.0000 51.2237
v  -1.0850 6.0000 51.0527
v  -5.6591 -6.0000 39.9473
v  -5.1892 -6.0000 39.7763
v  -1.5548 -6.0000 51.2237
v  -1.0850 -6.0000 51.0526
# 8 vertices

g Box020
f 153 155 156 
f 156 154 153 
f 157 158 160 
f 160 159 157 
f 153 154 158 
f 158 157 153 
f 154 156 160 
f 160 158 154 
f 156 155 159 
f 159 160 156 
f 155 153 157 
f 157 159 155 
# 12 faces

#
# object Box021
#

v  -23.7076 6.0000 39.9473
v  -23.2377 6.0000 39.7763
v  -19.6033 6.0000 51.2237
v  -19.1335 6.0000 51.0527
v  -23.7076 -6.0000 39.9473
v  -23.2377 -6.0000 39.7763
v  -19.6033 -6.0000 51.2237
v  -19.1335 -6.0000 51.0526
# 8 vertices

g Box021
f 161 163 164 
f 164 162 161 
f 165 166 168 
f 168 167 165 
f 161 162 166 
f 166 165 161 
f 162 164 168 
f 168 166 162 
f 164 163 167 
f 167 168 164 
f 163 161 165 
f 165 167 163 
# 12 faces

