# 3ds Max Wavefront OBJ Exporter v0.97b - (c)2007 guruware
# File Created: 09.01.2014 19:37:07

#
# object bottom
#

v  -9.5051 0.0000 9.5183
v  9.7932 0.0000 9.5183
v  -9.5051 0.0000 -9.2315
v  9.7932 0.0000 -9.2315
v  -9.5051 1.1606 9.5183
v  9.7932 1.1606 9.5183
v  -9.5051 1.1606 -9.2315
v  9.7932 1.1606 -9.2315
# 8 vertices

g bottom
f 1 3 4 
f 4 2 1 
f 5 6 8 
f 8 7 5 
f 1 2 6 
f 6 5 1 
f 2 4 8 
f 8 6 2 
f 4 3 7 
f 7 8 4 
f 3 1 5 
f 5 7 3 
# 12 faces

#
# object right
#

v  -9.4804 1.1478 9.5059
v  9.7440 1.1478 9.5059
v  -9.4804 1.1478 8.3438
v  9.7440 1.1478 8.3438
v  -9.4804 31.7852 9.5059
v  9.7440 31.7852 9.5059
v  -9.4804 31.7852 8.3438
v  9.7440 31.7852 8.3438
# 8 vertices

g right
f 9 11 12 
f 12 10 9 
f 13 14 16 
f 16 15 13 
f 9 10 14 
f 14 13 9 
f 10 12 16 
f 16 14 10 
f 12 11 15 
f 15 16 12 
f 11 9 13 
f 13 15 11 
# 12 faces

#
# object left
#

v  -9.4804 1.1478 -7.9807
v  9.7440 1.1478 -7.9807
v  -9.4804 1.1478 -9.1428
v  9.7440 1.1478 -9.1428
v  -9.4804 31.7852 -7.9807
v  9.7440 31.7852 -7.9807
v  -9.4804 31.7852 -9.1428
v  9.7440 31.7852 -9.1428
# 8 vertices

g left
f 17 19 20 
f 20 18 17 
f 21 22 24 
f 24 23 21 
f 17 18 22 
f 22 21 17 
f 18 20 24 
f 24 22 18 
f 20 19 23 
f 23 24 20 
f 19 17 21 
f 21 23 19 
# 12 faces

