# NV = 8 NF = 12
v -29.7762 0 9.8107
v 20.1377 0 9.8107
v -29.7762 0 -20.1377
v 20.1377 0 -20.1377
v -29.7762 1.0327 9.8107
v 20.1377 1.0327 9.8107
v -29.7762 1.0327 -20.1377
v 20.1377 1.0327 -20.1377
f 1 3 4 
f 4 2 1 
f 5 6 8 
f 8 7 5 
f 1 2 6 
f 6 5 1 
f 2 4 8 
f 8 6 2 
f 4 3 7 
f 7 8 4 
f 3 1 5 
f 5 7 3 
