# NV = 886 NF = 1768
v -0.254867 -0.290914 -0.0298789
v -0.262789 -0.298228 -0.0299758
v -0.26138 -0.299467 -0.0299758
v -0.259752 -0.300414 -0.0299758
v -0.257954 -0.301046 -0.0299758
v -0.256034 -0.301314 -0.0299519
v -0.25409 -0.301241 -0.0299519
v -0.252194 -0.300828 -0.0299279
v -0.250347 -0.300051 -0.0299029
v -0.248695 -0.298981 -0.0299029
v -0.247213 -0.297645 -0.0298789
v -0.246023 -0.296065 -0.0298549
v -0.245123 -0.294316 -0.0298299
v -0.244539 -0.292444 -0.0298299
v -0.244322 -0.290525 -0.0298059
v -0.244467 -0.288605 -0.0298059
v -0.244953 -0.286782 -0.0298059
v -0.245804 -0.285081 -0.029782
v -0.246946 -0.283599 -0.029782
v -0.248355 -0.28236 -0.029782
v -0.249983 -0.281412 -0.0298059
v -0.251781 -0.280781 -0.0298059
v -0.253676 -0.280513 -0.0298059
v -0.255621 -0.280586 -0.0298299
v -0.25754 -0.281024 -0.0298299
v -0.259363 -0.281777 -0.0298549
v -0.26104 -0.282845 -0.0298789
v -0.262497 -0.284207 -0.0299029
v -0.263688 -0.285786 -0.0299029
v -0.264612 -0.287536 -0.0299279
v -0.26517 -0.289407 -0.0299519
v -0.265389 -0.291327 -0.0299519
v -0.265243 -0.293221 -0.0299758
v -0.264757 -0.295044 -0.0299758
v -0.263931 -0.296745 -0.0299758
v -0.27071 -0.305541 -0.0300978
v -0.267892 -0.30802 -0.0300738
v -0.264612 -0.309916 -0.0300738
v -0.26104 -0.311155 -0.0300488
v -0.257224 -0.311714 -0.0300248
v -0.253336 -0.311568 -0.0300009
v -0.249496 -0.310717 -0.0299758
v -0.245852 -0.309211 -0.0299279
v -0.242499 -0.307048 -0.0299029
v -0.239582 -0.304351 -0.0298789
v -0.237177 -0.301192 -0.0298299
v -0.235379 -0.297693 -0.0298059
v -0.234236 -0.293951 -0.029782
v -0.2338 -0.290111 -0.029733
v -0.234066 -0.286296 -0.029733
v -0.235063 -0.282628 -0.029709
v -0.236715 -0.279274 -0.029709
v -0.239 -0.276285 -0.0296851
v -0.241818 -0.273807 -0.029709
v -0.245099 -0.271911 -0.029709
v -0.248695 -0.270671 -0.029733
v -0.252486 -0.270113 -0.029733
v -0.256373 -0.270259 -0.029782
v -0.260213 -0.271109 -0.0298059
v -0.263858 -0.27264 -0.0298299
v -0.267211 -0.274778 -0.0298789
v -0.270128 -0.277476 -0.0299029
v -0.272533 -0.280635 -0.0299279
v -0.274331 -0.284134 -0.0299758
v -0.275473 -0.287876 -0.0300009
v -0.27591 -0.291715 -0.0300248
v -0.275643 -0.29553 -0.0300488
v -0.274647 -0.299175 -0.0300738
v -0.272971 -0.302553 -0.0300738
v -0.278608 -0.312832 -0.0301947
v -0.274404 -0.31655 -0.0301947
v -0.269496 -0.319392 -0.0301708
v -0.264101 -0.321288 -0.0301468
v -0.258415 -0.322114 -0.0300978
v -0.252583 -0.321896 -0.0300738
v -0.246824 -0.320632 -0.0300248
v -0.241356 -0.318348 -0.0299758
v -0.236326 -0.315116 -0.0299029
v -0.231953 -0.311082 -0.0298549
v -0.228332 -0.306344 -0.0298059
v -0.225634 -0.301071 -0.0297569
v -0.223933 -0.295457 -0.029709
v -0.223278 -0.289699 -0.0296851
v -0.22369 -0.283988 -0.0296361
v -0.225173 -0.278496 -0.0296361
v -0.227651 -0.273442 -0.0296121
v -0.231078 -0.26897 -0.0296121
v -0.235306 -0.265253 -0.0296121
v -0.24019 -0.26241 -0.0296361
v -0.245585 -0.260538 -0.0296361
v -0.251295 -0.259688 -0.0296851
v -0.257127 -0.259907 -0.029709
v -0.262886 -0.261195 -0.0297569
v -0.268378 -0.263479 -0.0298059
v -0.273384 -0.266711 -0.0298549
v -0.277782 -0.270768 -0.0299029
v -0.281378 -0.275483 -0.0299758
v -0.284075 -0.280756 -0.0300248
v -0.285776 -0.286345 -0.0300738
v -0.286432 -0.292104 -0.0300978
v -0.286019 -0.297815 -0.0301468
v -0.284537 -0.303307 -0.0301708
v -0.282035 -0.308361 -0.0301947
v -0.28653 -0.320122 -0.0302917
v -0.280892 -0.325079 -0.0302917
v -0.27438 -0.328894 -0.0302677
v -0.267187 -0.331396 -0.0302437
v -0.259582 -0.332515 -0.0301947
v -0.251805 -0.332223 -0.0301218
v -0.244151 -0.330522 -0.0300738
v -0.236861 -0.327485 -0.0300009
v -0.230155 -0.323183 -0.0299279
v -0.224322 -0.317789 -0.0298549
v -0.219511 -0.311471 -0.029782
v -0.215891 -0.304448 -0.029709
v -0.213606 -0.296988 -0.02966
v -0.212732 -0.289286 -0.0296121
v -0.21329 -0.281655 -0.0295631
v -0.215258 -0.274341 -0.0295391
v -0.218587 -0.267585 -0.0295141
v -0.223132 -0.261633 -0.0295141
v -0.228769 -0.256675 -0.0295141
v -0.235306 -0.252885 -0.0295391
v -0.242499 -0.250381 -0.0295631
v -0.250104 -0.249288 -0.0296121
v -0.257881 -0.24958 -0.02966
v -0.265559 -0.251281 -0.029709
v -0.272873 -0.254342 -0.029782
v -0.279556 -0.258643 -0.0298549
v -0.285412 -0.264038 -0.0299279
v -0.290223 -0.270356 -0.0300009
v -0.29382 -0.277355 -0.0300738
v -0.296103 -0.284838 -0.0301218
v -0.296954 -0.292493 -0.0301947
v -0.296395 -0.300122 -0.0302437
v -0.294427 -0.307437 -0.0302677
v -0.291098 -0.314168 -0.0302917
v -0.294451 -0.327412 -0.0304136
v -0.287405 -0.333608 -0.0303896
v -0.279239 -0.33837 -0.0303646
v -0.270273 -0.341505 -0.0303167
v -0.260748 -0.342915 -0.0302677
v -0.251053 -0.34255 -0.0301947
v -0.241478 -0.340436 -0.0300978
v -0.232341 -0.336621 -0.0300248
v -0.223982 -0.33125 -0.0299279
v -0.216669 -0.324495 -0.0298299
v -0.210666 -0.316623 -0.0297569
v -0.206147 -0.30785 -0.0296851
v -0.203303 -0.298494 -0.0296121
v -0.202186 -0.288872 -0.0295391
v -0.202891 -0.279346 -0.0294901
v -0.205344 -0.270186 -0.0294662
v -0.2095 -0.261754 -0.0294411
v -0.21521 -0.254294 -0.0294411
v -0.222257 -0.248098 -0.0294411
v -0.230398 -0.243359 -0.0294662
v -0.239412 -0.240248 -0.0294901
v -0.248914 -0.238864 -0.0295391
v -0.258633 -0.239253 -0.0296121
v -0.268232 -0.24139 -0.0296851
v -0.277368 -0.245205 -0.0297569
v -0.285728 -0.250576 -0.0298299
v -0.293042 -0.257331 -0.0299279
v -0.299044 -0.265205 -0.0300248
v -0.303564 -0.273977 -0.0300978
v -0.306406 -0.283307 -0.0301947
v -0.307476 -0.292882 -0.0302677
v -0.306771 -0.302407 -0.0303167
v -0.304293 -0.311544 -0.0303646
v -0.300137 -0.319976 -0.0303896
v -0.302349 -0.334701 -0.0305105
v -0.293893 -0.342137 -0.0305105
v -0.284124 -0.347848 -0.0304626
v -0.273335 -0.351614 -0.0304136
v -0.261938 -0.353291 -0.0303406
v -0.250274 -0.352878 -0.0302437
v -0.238781 -0.350326 -0.0301468
v -0.227846 -0.345758 -0.0300488
v -0.21781 -0.339319 -0.0299519
v -0.209038 -0.331226 -0.0298299
v -0.201821 -0.32175 -0.029733
v -0.196402 -0.311228 -0.0296361
v -0.192976 -0.300002 -0.0295631
v -0.191664 -0.288459 -0.0294901
v -0.192489 -0.277014 -0.0294172
v -0.195455 -0.26603 -0.0293932
v -0.200436 -0.255897 -0.0293682
v -0.207264 -0.246979 -0.0293442
v -0.21572 -0.239544 -0.0293682
v -0.225513 -0.233858 -0.0293932
v -0.236302 -0.230116 -0.0294172
v -0.247724 -0.228439 -0.0294901
v -0.259387 -0.228901 -0.0295631
v -0.270905 -0.231476 -0.0296361
v -0.281864 -0.236069 -0.029733
v -0.2919 -0.242509 -0.0298299
v -0.300672 -0.2506 -0.0299519
v -0.307889 -0.260077 -0.0300488
v -0.313284 -0.270575 -0.0301468
v -0.31671 -0.281777 -0.0302437
v -0.317998 -0.29327 -0.0303406
v -0.317147 -0.304716 -0.0304136
v -0.314183 -0.31565 -0.0304626
v -0.309201 -0.325784 -0.0305105
v -0.310246 -0.341991 -0.0306325
v -0.300405 -0.350666 -0.0306074
v -0.288984 -0.357324 -0.0305835
v -0.276421 -0.361723 -0.0305105
v -0.263105 -0.363691 -0.0304136
v -0.249521 -0.363205 -0.0303167
v -0.236108 -0.360241 -0.0301947
v -0.223327 -0.354895 -0.0300738
v -0.211638 -0.347386 -0.0299519
v -0.201408 -0.337934 -0.0298299
v -0.192976 -0.326901 -0.029709
v -0.186658 -0.314606 -0.0295871
v -0.182673 -0.301508 -0.0294901
v -0.181118 -0.288047 -0.0294172
v -0.18209 -0.274681 -0.0293442
v -0.185541 -0.261876 -0.0293203
v -0.191348 -0.250065 -0.0292712
v -0.199319 -0.239642 -0.0292712
v -0.209184 -0.230967 -0.0292712
v -0.220604 -0.224332 -0.0293203
v -0.233192 -0.219958 -0.0293442
v -0.246532 -0.218014 -0.0294172
v -0.26014 -0.218574 -0.0294901
v -0.273577 -0.221562 -0.0295871
v -0.286359 -0.226908 -0.029709
v -0.298096 -0.23444 -0.0298299
v -0.308326 -0.243893 -0.0299519
v -0.316735 -0.254926 -0.0300738
v -0.323028 -0.267197 -0.0301947
v -0.327013 -0.280246 -0.0303167
v -0.32852 -0.293659 -0.0304136
v -0.327523 -0.306999 -0.0305105
v -0.324048 -0.319781 -0.0305835
v -0.318241 -0.331566 -0.0306074
v -0.263566 -0.299832 0.0464948
v -0.255475 -0.307291 0.0459362
v -0.246386 -0.313318 0.0442591
v -0.236667 -0.31774 0.0415377
v -0.226631 -0.320414 0.0378438
v -0.216596 -0.321215 0.0333005
v -0.206948 -0.320122 0.0281005
v -0.197981 -0.317206 0.0223898
v -0.190011 -0.31254 0.0163633
v -0.183305 -0.306271 0.0102399
v -0.178105 -0.29864 0.00421334
v -0.174581 -0.289892 -0.0014974
v -0.172856 -0.280343 -0.00669736
v -0.172977 -0.270283 -0.0112167
v -0.174946 -0.260077 -0.0149106
v -0.178687 -0.250065 -0.017656
v -0.184082 -0.240613 -0.019333
v -0.190959 -0.232011 -0.0198917
v -0.199075 -0.224575 -0.019333
v -0.208163 -0.218525 -0.017656
v -0.217883 -0.214102 -0.0149106
v -0.227919 -0.211454 -0.0112167
v -0.237954 -0.210651 -0.00669736
v -0.247602 -0.211721 -0.0014974
v -0.256568 -0.214661 0.00421334
v -0.264539 -0.219326 0.0102399
v -0.271245 -0.225572 0.0163633
v -0.276445 -0.233201 0.0223898
v -0.279969 -0.241949 0.0281005
v -0.281694 -0.251524 0.0333005
v -0.281573 -0.261584 0.0378438
v -0.279604 -0.271765 0.0415377
v -0.275862 -0.281777 0.0442591
v -0.270443 -0.29123 0.0459362
v -0.239315 -0.277622 0.0710866
v -0.232608 -0.283794 0.0706249
v -0.225076 -0.288799 0.0692397
v -0.217032 -0.292469 0.06698
v -0.208722 -0.294656 0.0639177
v -0.200412 -0.295336 0.0601759
v -0.192417 -0.294437 0.0558504
v -0.184981 -0.292007 0.0511362
v -0.178396 -0.288143 0.04613
v -0.172832 -0.282967 0.041052
v -0.16853 -0.276649 0.0360709
v -0.165614 -0.269384 0.0313567
v -0.164181 -0.261487 0.0270312
v -0.164278 -0.253152 0.0232882
v -0.165906 -0.244696 0.0202271
v -0.169016 -0.236409 0.0179674
v -0.173487 -0.228585 0.0165822
v -0.179173 -0.221465 0.0160965
v -0.185904 -0.215293 0.0165822
v -0.193413 -0.210288 0.0179674
v -0.20148 -0.206618 0.0202271
v -0.209791 -0.204431 0.0232882
v -0.218102 -0.20375 0.0270312
v -0.226096 -0.20465 0.0313567
v -0.233508 -0.207079 0.0360709
v -0.240117 -0.210943 0.041052
v -0.245658 -0.216119 0.04613
v -0.249983 -0.222436 0.0511362
v -0.252898 -0.229702 0.0558504
v -0.254333 -0.2376 0.0601759
v -0.254236 -0.245935 0.0639177
v -0.252608 -0.254391 0.06698
v -0.249496 -0.262677 0.0692397
v -0.245026 -0.270502 0.0706249
v -0.215623 -0.255873 0.0961881
v -0.210131 -0.260903 0.0958233
v -0.204008 -0.264986 0.0946809
v -0.197447 -0.267974 0.092834
v -0.190668 -0.269748 0.0903554
v -0.183913 -0.270308 0.0872942
v -0.177375 -0.269578 0.0837702
v -0.171325 -0.267585 0.0799075
v -0.165955 -0.264451 0.0758488
v -0.161434 -0.260223 0.0717183
v -0.157912 -0.255072 0.0676595
v -0.15553 -0.249167 0.0637958
v -0.154364 -0.242703 0.0602729
v -0.154437 -0.235924 0.0572106
v -0.155773 -0.229022 0.054732
v -0.1583 -0.222267 0.0528862
v -0.161945 -0.215876 0.0517438
v -0.166587 -0.210069 0.051379
v -0.172078 -0.205063 0.0517438
v -0.178202 -0.20098 0.0528862
v -0.184763 -0.197992 0.054732
v -0.191542 -0.196194 0.0572106
v -0.198322 -0.195659 0.0602729
v -0.204834 -0.196388 0.0637958
v -0.210885 -0.198355 0.0676595
v -0.216255 -0.201515 0.0717183
v -0.220799 -0.205743 0.0758488
v -0.224298 -0.210894 0.0799075
v -0.22668 -0.2168 0.0837702
v -0.227846 -0.223263 0.0872942
v -0.227773 -0.230043 0.0903554
v -0.226437 -0.236919 0.092834
v -0.223909 -0.243675 0.0946809
v -0.220264 -0.250065 0.0958233
v -0.192465 -0.234562 0.121799
v -0.188092 -0.238596 0.121483
v -0.183183 -0.241852 0.120585
v -0.17791 -0.244258 0.119103
v -0.172491 -0.245692 0.11711
v -0.167072 -0.246129 0.114679
v -0.161848 -0.245546 0.111861
v -0.157012 -0.243942 0.108775
v -0.152687 -0.241414 0.105519
v -0.149067 -0.238037 0.10219
v -0.146247 -0.233907 0.0989335
v -0.144352 -0.229193 0.0958472
v -0.143405 -0.224017 0.0930289
v -0.143478 -0.218574 0.0905994
v -0.144546 -0.213057 0.0886065
v -0.146563 -0.207663 0.0871243
v -0.149503 -0.202535 0.0862009
v -0.153221 -0.197895 0.085909
v -0.157596 -0.19386 0.0862009
v -0.162504 -0.190604 0.0871243
v -0.167753 -0.188223 0.0886065
v -0.173196 -0.186789 0.0905994
v -0.178615 -0.186351 0.0930289
v -0.18384 -0.186935 0.0958472
v -0.188675 -0.188514 0.0989335
v -0.192976 -0.191042 0.10219
v -0.196596 -0.19442 0.105519
v -0.199416 -0.19855 0.108775
v -0.201335 -0.203265 0.111861
v -0.202259 -0.208441 0.114679
v -0.20221 -0.213883 0.11711
v -0.20114 -0.219399 0.119103
v -0.1991 -0.224794 0.120585
v -0.196183 -0.229921 0.121483
v -0.169867 -0.213714 0.147922
v -0.166417 -0.216873 0.147679
v -0.162577 -0.219424 0.14695
v -0.158446 -0.221319 0.145807
v -0.15417 -0.222436 0.144228
v -0.149917 -0.222777 0.142308
v -0.145811 -0.222316 0.140098
v -0.14202 -0.221076 0.137667
v -0.138618 -0.219107 0.135116
v -0.135774 -0.216435 0.132516
v -0.133564 -0.213203 0.129965
v -0.13208 -0.209485 0.127534
v -0.131328 -0.205427 0.125323
v -0.131376 -0.201151 0.123403
v -0.132226 -0.196825 0.121824
v -0.133807 -0.192573 0.120658
v -0.136114 -0.188563 0.119953
v -0.13903 -0.184894 0.119709
v -0.142481 -0.181735 0.119953
v -0.14632 -0.179184 0.120658
v -0.150452 -0.177288 0.121824
v -0.154728 -0.17617 0.123403
v -0.158981 -0.175831 0.125323
v -0.163088 -0.176292 0.127534
v -0.166902 -0.177532 0.129965
v -0.17028 -0.179499 0.132516
v -0.173123 -0.182173 0.135116
v -0.175334 -0.185404 0.137667
v -0.176841 -0.189122 0.140098
v -0.17757 -0.19318 0.142308
v -0.177521 -0.197457 0.144228
v -0.176671 -0.201782 0.145807
v -0.175092 -0.206035 0.14695
v -0.172783 -0.210044 0.147679
v -0.147827 -0.193301 0.17453
v -0.145178 -0.195732 0.174336
v -0.14219 -0.1977 0.173801
v -0.139006 -0.199158 0.172902
v -0.135725 -0.200032 0.171687
v -0.132445 -0.2003 0.170204
v -0.129286 -0.199936 0.168503
v -0.126346 -0.198988 0.166632
v -0.123746 -0.197457 0.164664
v -0.12156 -0.195391 0.162672
v -0.119834 -0.192913 0.160679
v -0.118691 -0.190045 0.158808
v -0.118133 -0.186911 0.157107
v -0.118158 -0.18363 0.155625
v -0.118813 -0.180277 0.154434
v -0.120028 -0.176997 0.153535
v -0.121802 -0.173911 0.152976
v -0.124062 -0.171091 0.152806
v -0.126711 -0.168662 0.152976
v -0.129675 -0.166669 0.153535
v -0.132858 -0.165236 0.154434
v -0.136163 -0.164361 0.155625
v -0.139443 -0.164093 0.157107
v -0.142602 -0.164458 0.158808
v -0.145519 -0.165405 0.160679
v -0.148143 -0.166937 0.162672
v -0.15033 -0.168977 0.164664
v -0.152031 -0.17148 0.166632
v -0.153197 -0.174347 0.168503
v -0.153756 -0.177483 0.170204
v -0.153708 -0.180763 0.171687
v -0.153075 -0.184117 0.172902
v -0.151836 -0.187373 0.173801
v -0.150087 -0.190483 0.174336
v -0.126322 -0.173327 0.201648
v -0.124305 -0.175198 0.201503
v -0.122069 -0.176681 0.201089
v -0.11964 -0.177798 0.200409
v -0.117136 -0.178455 0.19951
v -0.114658 -0.178649 0.198368
v -0.112252 -0.178382 0.19708
v -0.110016 -0.177652 0.19567
v -0.108049 -0.176486 0.194164
v -0.106372 -0.174931 0.192633
v -0.105084 -0.173036 0.191151
v -0.104209 -0.170873 0.189717
v -0.103772 -0.168492 0.18843
v -0.103796 -0.165989 0.187311
v -0.104282 -0.163462 0.186388
v -0.10523 -0.160959 0.185708
v -0.106566 -0.158601 0.185294
v -0.108291 -0.156464 0.185148
v -0.110308 -0.154617 0.185294
v -0.112544 -0.15311 0.185708
v -0.114973 -0.152016 0.186388
v -0.117477 -0.151361 0.187311
v -0.119956 -0.151166 0.18843
v -0.122361 -0.151434 0.189717
v -0.124597 -0.152162 0.191151
v -0.126565 -0.153328 0.192633
v -0.128242 -0.154884 0.194164
v -0.129529 -0.15678 0.19567
v -0.130404 -0.158942 0.19708
v -0.130841 -0.161323 0.198368
v -0.130817 -0.163826 0.19951
v -0.130306 -0.166353 0.200409
v -0.129384 -0.168857 0.201089
v -0.128047 -0.171189 0.201503
v -0.1054 -0.153814 0.229277
v -0.103869 -0.155224 0.22918
v -0.102144 -0.156366 0.228864
v -0.100321 -0.157192 0.228353
v -0.0984258 -0.157703 0.227649
v -0.0965304 -0.157848 0.226798
v -0.0947079 -0.157654 0.225827
v -0.0930313 -0.157095 0.224734
v -0.0915247 -0.15622 0.223615
v -0.0902611 -0.155029 0.222449
v -0.0892891 -0.153596 0.221307
v -0.0886088 -0.151943 0.220237
v -0.0882929 -0.150145 0.219266
v -0.0883171 -0.14825 0.218415
v -0.0886816 -0.146331 0.217711
v -0.0893863 -0.144435 0.2172
v -0.0904069 -0.142661 0.216884
v -0.0917191 -0.141033 0.216763
v -0.09325 -0.139647 0.216884
v -0.094951 -0.138506 0.2172
v -0.0967734 -0.13768 0.217711
v -0.0986689 -0.137169 0.218415
v -0.100564 -0.137024 0.219266
v -0.102387 -0.137218 0.220237
v -0.104063 -0.137776 0.221307
v -0.10557 -0.138652 0.222449
v -0.106834 -0.139818 0.223615
v -0.10783 -0.141275 0.224734
v -0.108486 -0.142929 0.225827
v -0.108802 -0.144726 0.226798
v -0.108777 -0.146621 0.227649
v -0.108413 -0.148541 0.228353
v -0.107708 -0.150412 0.228864
v -0.106688 -0.152211 0.22918
v -0.0850124 -0.134763 0.257417
v -0.0838216 -0.135858 0.257344
v -0.0824852 -0.136756 0.2571
v -0.0810516 -0.137388 0.256687
v -0.0795692 -0.137776 0.256152
v -0.0781113 -0.137898 0.255472
v -0.0766776 -0.137753 0.254719
v -0.0753654 -0.137315 0.253869
v -0.074199 -0.136635 0.252993
v -0.0732027 -0.135712 0.252095
v -0.0724494 -0.134593 0.25122
v -0.0719391 -0.133306 0.25037
v -0.0716719 -0.131896 0.249616
v -0.0716962 -0.130414 0.248936
v -0.0719878 -0.128932 0.248401
v -0.0725467 -0.12745 0.247988
v -0.0733242 -0.126064 0.247745
v -0.0743448 -0.124801 0.247672
v -0.0755356 -0.123708 0.247745
v -0.076872 -0.122808 0.247988
v -0.0783056 -0.122177 0.248401
v -0.0797637 -0.121788 0.248936
v -0.0812459 -0.121666 0.249616
v -0.0826553 -0.121812 0.25037
v -0.0839675 -0.12225 0.25122
v -0.0851582 -0.12293 0.252095
v -0.0861302 -0.123853 0.252993
v -0.0869078 -0.124971 0.253869
v -0.0874181 -0.126259 0.254719
v -0.087661 -0.127668 0.255472
v -0.087661 -0.129151 0.256152
v -0.0873695 -0.130633 0.256687
v -0.0868105 -0.132115 0.2571
v -0.0860087 -0.1335 0.257344
v -0.0651838 -0.11615 0.286065
v -0.0641632 -0.117073 0.285992
v -0.0630455 -0.117827 0.285798
v -0.0618305 -0.118386 0.285459
v -0.0605912 -0.118702 0.284997
v -0.0593519 -0.118798 0.284437
v -0.0581612 -0.118678 0.283781
v -0.0570435 -0.118313 0.283077
v -0.0560471 -0.117729 0.282323
v -0.055221 -0.116952 0.28157
v -0.0545892 -0.116004 0.280817
v -0.0541518 -0.114911 0.280113
v -0.0539331 -0.113744 0.27948
v -0.0539331 -0.112481 0.278921
v -0.0541761 -0.111217 0.278459
v -0.054662 -0.109978 0.27812
v -0.0553182 -0.108811 0.277901
v -0.0561687 -0.107742 0.277828
v -0.0571893 -0.106819 0.277901
v -0.058307 -0.106066 0.27812
v -0.059522 -0.105531 0.278459
v -0.0607613 -0.105191 0.278921
v -0.0620006 -0.105093 0.27948
v -0.0631913 -0.105239 0.280113
v -0.064309 -0.105604 0.280817
v -0.0653054 -0.106163 0.28157
v -0.0661315 -0.10694 0.282323
v -0.0667633 -0.107888 0.283077
v -0.0672007 -0.108981 0.283781
v -0.0674194 -0.110173 0.284437
v -0.0673952 -0.111412 0.284997
v -0.0671521 -0.112675 0.285459
v -0.0666905 -0.113914 0.285798
v -0.0660344 -0.115081 0.285992
v -0.0458899 -0.0979986 0.315225
v -0.0449179 -0.098873 0.315152
v -0.0438487 -0.0996016 0.314957
v -0.0426824 -0.100136 0.314618
v -0.0414674 -0.100452 0.31418
v -0.0402767 -0.10055 0.313646
v -0.0391102 -0.100428 0.313013
v -0.0380411 -0.100063 0.312334
v -0.0370934 -0.0995047 0.311604
v -0.0362915 -0.0987511 0.310876
v -0.035684 -0.0978527 0.310146
v -0.0352466 -0.0968072 0.309467
v -0.0350522 -0.0956659 0.308859
v -0.0350522 -0.0944506 0.3083
v -0.0352953 -0.0932353 0.307862
v -0.0357326 -0.092045 0.307547
v -0.0363887 -0.0909026 0.307352
v -0.0372149 -0.0898823 0.307279
v -0.0381869 -0.0889828 0.307352
v -0.0392561 -0.0882782 0.307547
v -0.0404225 -0.0877435 0.307862
v -0.0416375 -0.0874277 0.3083
v -0.0428281 -0.0873307 0.308859
v -0.0439945 -0.0874516 0.309467
v -0.0450637 -0.0878164 0.310146
v -0.0460113 -0.0883751 0.310876
v -0.0468133 -0.0891047 0.311604
v -0.0474451 -0.0900282 0.312334
v -0.0478582 -0.0910725 0.313013
v -0.0480526 -0.0922149 0.313646
v -0.0480526 -0.0934052 0.31418
v -0.0478096 -0.0946445 0.314618
v -0.0473722 -0.0958358 0.314957
v -0.046716 -0.0969531 0.315152
v -0.0271792 -0.0802838 0.344871
v -0.0260857 -0.0812802 0.344798
v -0.0248707 -0.0820818 0.344579
v -0.0235584 -0.0826894 0.344214
v -0.022222 -0.0830292 0.343705
v -0.0208855 -0.0831511 0.343097
v -0.0195976 -0.0830052 0.342416
v -0.0183826 -0.0826164 0.341639
v -0.0173135 -0.0819848 0.340837
v -0.0164144 -0.0811343 0.340011
v -0.015734 -0.0801139 0.339209
v -0.015248 -0.0789476 0.338456
v -0.0150293 -0.0776593 0.337751
v -0.0150536 -0.0763231 0.337144
v -0.0152966 -0.0749619 0.336658
v -0.0158068 -0.0736257 0.336293
v -0.0165359 -0.0723624 0.33605
v -0.0174593 -0.0711961 0.335977
v -0.0185285 -0.0701997 0.33605
v -0.0197435 -0.0693971 0.336293
v -0.0210556 -0.0688145 0.336658
v -0.0223921 -0.0684497 0.337144
v -0.0237286 -0.0683527 0.337751
v -0.0250408 -0.0684987 0.338456
v -0.0262314 -0.0688874 0.339209
v -0.0273006 -0.0694951 0.340011
v -0.0281998 -0.0703456 0.340837
v -0.0288801 -0.071366 0.341639
v -0.0293661 -0.0725323 0.342416
v -0.0295848 -0.0738195 0.343097
v -0.0295848 -0.0751568 0.343705
v -0.0293175 -0.076517 0.344214
v -0.0288072 -0.0778543 0.344579
v -0.0280782 -0.0791415 0.344798
v -0.00900297 -0.0630308 0.375027
v -0.00764219 -0.0642701 0.374929
v -0.00613562 -0.0652665 0.374662
v -0.00450753 -0.065995 0.3742
v -0.00283085 -0.0664568 0.373593
v -0.00115418 -0.0665788 0.37284
v 0.000449603 -0.0664089 0.371965
v 0.00193188 -0.0659221 0.371017
v 0.00326837 -0.0651445 0.37002
v 0.00438615 -0.0641002 0.369
v 0.00526094 -0.0628119 0.36798
v 0.00584414 -0.0613548 0.367032
v 0.00613573 -0.0597747 0.366158
v 0.00611143 -0.0580976 0.365404
v 0.00577124 -0.0563977 0.364796
v 0.00516374 -0.0547206 0.364335
v 0.00424035 -0.0531405 0.364068
v 0.00309827 -0.0517074 0.36397
v 0.00176179 -0.0504681 0.364068
v 0.000230907 -0.0494717 0.364335
v -0.00137287 -0.0487431 0.364796
v -0.00304955 -0.0482814 0.365404
v -0.00472623 -0.0481594 0.366158
v -0.00633001 -0.0483293 0.367032
v -0.00783659 -0.0488161 0.36798
v -0.00914877 -0.0495936 0.369
v -0.0102666 -0.050638 0.37002
v -0.0111413 -0.0519263 0.371017
v -0.0117245 -0.0533844 0.371965
v -0.0120161 -0.0549635 0.37284
v -0.0119919 -0.0566405 0.373593
v -0.0116759 -0.0583415 0.3742
v -0.0110441 -0.0600175 0.374662
v -0.0101451 -0.0615977 0.374929
v -0.00812818 -0.0622042 0.374249
v -0.0069618 -0.0632736 0.374152
v -0.00567391 -0.0641492 0.373933
v -0.00428883 -0.0647808 0.373544
v -0.00285515 -0.0651445 0.37301
v -0.00142148 -0.0652665 0.372354
v -3.63906e-05 -0.0651206 0.371624
v 0.00125149 -0.0646828 0.370799
v 0.00236928 -0.0640272 0.369949
v 0.00334127 -0.0631277 0.369073
v 0.00407025 -0.0620343 0.368199
v 0.00458055 -0.0607951 0.367397
v 0.00482355 -0.0594349 0.366643
v 0.00482355 -0.0580007 0.365987
v 0.00453195 -0.0565425 0.365477
v 0.00399736 -0.0551094 0.365088
v 0.00321977 -0.0537481 0.364845
v 0.00224778 -0.0525339 0.364747
v 0.00108139 -0.0514645 0.364845
v -0.000206488 -0.05059 0.365088
v -0.00159157 -0.0499573 0.365477
v -0.00302526 -0.0495936 0.365987
v -0.00445894 -0.0494717 0.366643
v -0.00584401 -0.0496176 0.367397
v -0.0071319 -0.0500553 0.368199
v -0.00827399 -0.0507109 0.369073
v -0.00922167 -0.0516104 0.369949
v -0.00997496 -0.0527038 0.370799
v -0.0104609 -0.0539431 0.371624
v -0.0107283 -0.0553032 0.372354
v -0.010704 -0.0567375 0.37301
v -0.0104124 -0.0581956 0.373544
v -0.00987776 -0.0596288 0.373933
v -0.00910017 -0.06099 0.374152
v -0.0072534 -0.0614027 0.373447
v -0.00630571 -0.0623022 0.373374
v -0.00521222 -0.0630068 0.37318
v -0.00407014 -0.0635415 0.372864
v -0.00285515 -0.0638573 0.372427
v -0.00166446 -0.0639542 0.371892
v -0.000522386 -0.0638083 0.37126
v 0.000546802 -0.0634686 0.37058
v 0.00149449 -0.0629099 0.369876
v 0.00229638 -0.0621803 0.369146
v 0.00290387 -0.0612568 0.368417
v 0.00331697 -0.0602124 0.367737
v 0.00353566 -0.0590941 0.367129
v 0.00351137 -0.0578798 0.36657
v 0.00329266 -0.0566645 0.366133
v 0.00283097 -0.0554742 0.365817
v 0.00219918 -0.0543558 0.365623
v 0.00137299 -0.0533354 0.36555
v 0.000401004 -0.0524359 0.365623
v -0.000668182 -0.0517313 0.365817
v -0.00183457 -0.0511966 0.366133
v -0.00302526 -0.0508808 0.36657
v -0.00421594 -0.0507839 0.367129
v -0.00535803 -0.0509059 0.367737
v -0.00642721 -0.0512696 0.368417
v -0.0073749 -0.0518293 0.369146
v -0.00817678 -0.0525579 0.369876
v -0.00878428 -0.0534813 0.37058
v -0.00922167 -0.0545257 0.37126
v -0.00941606 -0.0556441 0.371892
v -0.00941606 -0.0568583 0.372427
v -0.00917308 -0.0580737 0.372864
v -0.00873568 -0.059265 0.37318
v -0.00807959 -0.0603823 0.373374
v -0.00640291 -0.0606012 0.37267
v -0.00562532 -0.0613058 0.372597
v -0.00477483 -0.0618884 0.372451
v -0.00382714 -0.0623022 0.372183
v -0.00287945 -0.0625451 0.371843
v -0.00193177 -0.062642 0.371406
v -0.00100837 -0.0625211 0.37092
v -0.000157889 -0.0622532 0.370361
v 0.000595401 -0.0618155 0.369803
v 0.00125149 -0.0612089 0.369219
v 0.00173749 -0.0604793 0.368636
v 0.00207768 -0.0596538 0.368102
v 0.00224778 -0.0587303 0.367591
v 0.00222348 -0.0577818 0.367153
v 0.00202909 -0.0568104 0.366813
v 0.00168889 -0.055863 0.366547
v 0.00117859 -0.0549635 0.366401
v 0.000522503 -0.0541369 0.366352
v -0.000255088 -0.0534323 0.366401
v -0.00112987 -0.0528497 0.366547
v -0.00205326 -0.0524359 0.366813
v -0.00300095 -0.0521691 0.367153
v -0.00394864 -0.0520961 0.367591
v -0.00487203 -0.0522181 0.368102
v -0.00572251 -0.0524849 0.368636
v -0.0065001 -0.0529227 0.369219
v -0.0071319 -0.0535293 0.369803
v -0.0076179 -0.0542589 0.370361
v -0.00795809 -0.0550854 0.37092
v -0.00812818 -0.0559839 0.371406
v -0.00810388 -0.0569563 0.371843
v -0.00793378 -0.0579277 0.372183
v -0.00756929 -0.0588762 0.372451
v -0.007059 -0.0597747 0.372597
v -0.00552812 -0.0597986 0.371867
v -0.00496923 -0.0603094 0.371843
v -0.00431313 -0.0607472 0.371721
v -0.00360845 -0.061063 0.371528
v -0.00290376 -0.0612568 0.37126
v -0.00217476 -0.0613058 0.37092
v -0.00149437 -0.0612328 0.370555
v -0.000862579 -0.0610379 0.370142
v -0.000279387 -0.0606981 0.36973
v 0.000206607 -0.0602604 0.369292
v 0.000571101 -0.0597017 0.368854
v 0.000814099 -0.0590701 0.368441
v 0.000935597 -0.0583895 0.368077
v 0.000935597 -0.0576849 0.367761
v 0.000789799 -0.0569563 0.367494
v 0.000522503 -0.0562267 0.367299
v 0.000133708 -0.0555711 0.367178
v -0.000352287 -0.0549395 0.367129
v -0.000935477 -0.0544048 0.367178
v -0.00156727 -0.053991 0.367299
v -0.00227196 -0.0536752 0.367494
v -0.00300095 -0.0534813 0.367761
v -0.00370564 -0.0534084 0.368077
v -0.00438604 -0.0535053 0.368441
v -0.00504213 -0.0537002 0.368854
v -0.00560101 -0.05404 0.369292
v -0.00608701 -0.0544778 0.36973
v -0.00645151 -0.0550364 0.370142
v -0.00671881 -0.0556441 0.370555
v -0.0068403 -0.0563487 0.37092
v -0.006816 -0.0570533 0.37126
v -0.00667021 -0.0577818 0.371528
v -0.00640291 -0.0585114 0.371721
v -0.00603841 -0.059167 0.371843
v -0.00467763 -0.0589732 0.37109
v -0.00428883 -0.0593369 0.371066
v -0.00385144 -0.0596288 0.370969
v -0.00338975 -0.0598237 0.370847
v -0.00290376 -0.0599696 0.370677
v -0.00244205 -0.0599936 0.370458
v -0.00198036 -0.0599446 0.370215
v -0.00154298 -0.0597986 0.369923
v -0.00117848 -0.0595808 0.369657
v -0.000862579 -0.059289 0.369365
v -0.000595284 -0.0589242 0.369073
v -0.000425182 -0.0585114 0.368806
v -0.000352287 -0.0580497 0.368538
v -0.000352287 -0.057564 0.368344
v -0.000449489 -0.0570772 0.36815
v -0.00061958 -0.0566155 0.368029
v -0.000886875 -0.0561538 0.367956
v -0.00122708 -0.055741 0.367931
v -0.00159157 -0.0554012 0.367956
v -0.00202896 -0.0551094 0.368029
v -0.00249066 -0.0548905 0.36815
v -0.00297665 -0.0547685 0.368344
v -0.00346264 -0.0547446 0.368538
v -0.00390004 -0.0547936 0.368806
v -0.00433744 -0.0549145 0.369073
v -0.00472623 -0.0551584 0.369365
v -0.00504213 -0.0554492 0.369657
v -0.00528512 -0.055814 0.369923
v -0.00545522 -0.0562267 0.370215
v -0.00552812 -0.0566884 0.370458
v -0.00552812 -0.0571502 0.370677
v -0.00543092 -0.057637 0.370847
v -0.00526082 -0.0581226 0.370969
v -0.00499353 -0.0585844 0.371066
v -0.00380285 -0.0581706 0.370288
v -0.00360845 -0.0583415 0.370288
v -0.00338975 -0.0584864 0.370239
v -0.00317105 -0.0586084 0.370166
v -0.00292805 -0.0586574 0.370093
v -0.00268505 -0.0586813 0.369972
v -0.00246636 -0.0586574 0.369851
v -0.00224766 -0.0585844 0.36973
v -0.00205326 -0.0584864 0.369584
v -0.00190746 -0.0583165 0.369438
v -0.00176167 -0.0581466 0.369292
v -0.00168877 -0.0579277 0.369146
v -0.00164017 -0.0577088 0.369025
v -0.00164017 -0.057466 0.368927
v -0.00168877 -0.0572232 0.36883
v -0.00178596 -0.0569803 0.368757
v -0.00190746 -0.0567614 0.368733
v -0.00207757 -0.0565676 0.368709
v -0.00227196 -0.0563726 0.368733
v -0.00249066 -0.0562518 0.368757
v -0.00270936 -0.0561298 0.36883
v -0.00295235 -0.0560808 0.368927
v -0.00319535 -0.0560568 0.369025
v -0.00343835 -0.0560808 0.369146
v -0.00363274 -0.0561538 0.369292
v -0.00382714 -0.0562518 0.369438
v -0.00399724 -0.0563977 0.369584
v -0.00411873 -0.0565915 0.369705
v -0.00419164 -0.0567865 0.369851
v -0.00424023 -0.0570293 0.369972
v -0.00424023 -0.0572721 0.370093
v -0.00419164 -0.057515 0.370166
v -0.00409444 -0.0577339 0.370239
v -0.00397294 -0.0579767 0.370288
v -0.00295235 -0.0573691 0.369511
f 1 3 2 
f 1 4 3 
f 1 5 4 
f 1 6 5 
f 1 7 6 
f 1 8 7 
f 1 9 8 
f 1 10 9 
f 1 11 10 
f 1 12 11 
f 1 13 12 
f 1 14 13 
f 1 15 14 
f 1 16 15 
f 1 17 16 
f 1 18 17 
f 1 19 18 
f 1 20 19 
f 1 21 20 
f 1 22 21 
f 1 23 22 
f 1 24 23 
f 1 25 24 
f 1 26 25 
f 1 27 26 
f 1 28 27 
f 1 29 28 
f 1 30 29 
f 1 31 30 
f 1 32 31 
f 1 33 32 
f 1 34 33 
f 1 35 34 
f 1 2 35 
f 2 37 36 
f 2 3 37 
f 3 38 37 
f 3 4 38 
f 4 39 38 
f 4 5 39 
f 5 40 39 
f 5 6 40 
f 6 41 40 
f 6 7 41 
f 7 42 41 
f 7 8 42 
f 8 43 42 
f 8 9 43 
f 9 44 43 
f 9 10 44 
f 10 45 44 
f 10 11 45 
f 11 46 45 
f 11 12 46 
f 12 47 46 
f 12 13 47 
f 13 48 47 
f 13 14 48 
f 14 49 48 
f 14 15 49 
f 15 50 49 
f 15 16 50 
f 16 51 50 
f 16 17 51 
f 17 52 51 
f 17 18 52 
f 18 53 52 
f 18 19 53 
f 19 54 53 
f 19 20 54 
f 20 55 54 
f 20 21 55 
f 21 56 55 
f 21 22 56 
f 22 57 56 
f 22 23 57 
f 23 58 57 
f 23 24 58 
f 24 59 58 
f 24 25 59 
f 25 60 59 
f 25 26 60 
f 26 61 60 
f 26 27 61 
f 27 62 61 
f 27 28 62 
f 28 63 62 
f 28 29 63 
f 29 64 63 
f 29 30 64 
f 30 65 64 
f 30 31 65 
f 31 66 65 
f 31 32 66 
f 32 67 66 
f 32 33 67 
f 33 68 67 
f 33 34 68 
f 34 69 68 
f 34 35 69 
f 35 36 69 
f 35 2 36 
f 36 71 70 
f 36 37 71 
f 37 72 71 
f 37 38 72 
f 38 73 72 
f 38 39 73 
f 39 74 73 
f 39 40 74 
f 40 75 74 
f 40 41 75 
f 41 76 75 
f 41 42 76 
f 42 77 76 
f 42 43 77 
f 43 78 77 
f 43 44 78 
f 44 79 78 
f 44 45 79 
f 45 80 79 
f 45 46 80 
f 46 81 80 
f 46 47 81 
f 47 82 81 
f 47 48 82 
f 48 83 82 
f 48 49 83 
f 49 84 83 
f 49 50 84 
f 50 85 84 
f 50 51 85 
f 51 86 85 
f 51 52 86 
f 52 87 86 
f 52 53 87 
f 53 88 87 
f 53 54 88 
f 54 89 88 
f 54 55 89 
f 55 90 89 
f 55 56 90 
f 56 91 90 
f 56 57 91 
f 57 92 91 
f 57 58 92 
f 58 93 92 
f 58 59 93 
f 59 94 93 
f 59 60 94 
f 60 95 94 
f 60 61 95 
f 61 96 95 
f 61 62 96 
f 62 97 96 
f 62 63 97 
f 63 98 97 
f 63 64 98 
f 64 99 98 
f 64 65 99 
f 65 100 99 
f 65 66 100 
f 66 101 100 
f 66 67 101 
f 67 102 101 
f 67 68 102 
f 68 103 102 
f 68 69 103 
f 69 70 103 
f 69 36 70 
f 70 105 104 
f 70 71 105 
f 71 106 105 
f 71 72 106 
f 72 107 106 
f 72 73 107 
f 73 108 107 
f 73 74 108 
f 74 109 108 
f 74 75 109 
f 75 110 109 
f 75 76 110 
f 76 111 110 
f 76 77 111 
f 77 112 111 
f 77 78 112 
f 78 113 112 
f 78 79 113 
f 79 114 113 
f 79 80 114 
f 80 115 114 
f 80 81 115 
f 81 116 115 
f 81 82 116 
f 82 117 116 
f 82 83 117 
f 83 118 117 
f 83 84 118 
f 84 119 118 
f 84 85 119 
f 85 120 119 
f 85 86 120 
f 86 121 120 
f 86 87 121 
f 87 122 121 
f 87 88 122 
f 88 123 122 
f 88 89 123 
f 89 124 123 
f 89 90 124 
f 90 125 124 
f 90 91 125 
f 91 126 125 
f 91 92 126 
f 92 127 126 
f 92 93 127 
f 93 128 127 
f 93 94 128 
f 94 129 128 
f 94 95 129 
f 95 130 129 
f 95 96 130 
f 96 131 130 
f 96 97 131 
f 97 132 131 
f 97 98 132 
f 98 133 132 
f 98 99 133 
f 99 134 133 
f 99 100 134 
f 100 135 134 
f 100 101 135 
f 101 136 135 
f 101 102 136 
f 102 137 136 
f 102 103 137 
f 103 104 137 
f 103 70 104 
f 104 139 138 
f 104 105 139 
f 105 140 139 
f 105 106 140 
f 106 141 140 
f 106 107 141 
f 107 142 141 
f 107 108 142 
f 108 143 142 
f 108 109 143 
f 109 144 143 
f 109 110 144 
f 110 145 144 
f 110 111 145 
f 111 146 145 
f 111 112 146 
f 112 147 146 
f 112 113 147 
f 113 148 147 
f 113 114 148 
f 114 149 148 
f 114 115 149 
f 115 150 149 
f 115 116 150 
f 116 151 150 
f 116 117 151 
f 117 152 151 
f 117 118 152 
f 118 153 152 
f 118 119 153 
f 119 154 153 
f 119 120 154 
f 120 155 154 
f 120 121 155 
f 121 156 155 
f 121 122 156 
f 122 157 156 
f 122 123 157 
f 123 158 157 
f 123 124 158 
f 124 159 158 
f 124 125 159 
f 125 160 159 
f 125 126 160 
f 126 161 160 
f 126 127 161 
f 127 162 161 
f 127 128 162 
f 128 163 162 
f 128 129 163 
f 129 164 163 
f 129 130 164 
f 130 165 164 
f 130 131 165 
f 131 166 165 
f 131 132 166 
f 132 167 166 
f 132 133 167 
f 133 168 167 
f 133 134 168 
f 134 169 168 
f 134 135 169 
f 135 170 169 
f 135 136 170 
f 136 171 170 
f 136 137 171 
f 137 138 171 
f 137 104 138 
f 138 173 172 
f 138 139 173 
f 139 174 173 
f 139 140 174 
f 140 175 174 
f 140 141 175 
f 141 176 175 
f 141 142 176 
f 142 177 176 
f 142 143 177 
f 143 178 177 
f 143 144 178 
f 144 179 178 
f 144 145 179 
f 145 180 179 
f 145 146 180 
f 146 181 180 
f 146 147 181 
f 147 182 181 
f 147 148 182 
f 148 183 182 
f 148 149 183 
f 149 184 183 
f 149 150 184 
f 150 185 184 
f 150 151 185 
f 151 186 185 
f 151 152 186 
f 152 187 186 
f 152 153 187 
f 153 188 187 
f 153 154 188 
f 154 189 188 
f 154 155 189 
f 155 190 189 
f 155 156 190 
f 156 191 190 
f 156 157 191 
f 157 192 191 
f 157 158 192 
f 158 193 192 
f 158 159 193 
f 159 194 193 
f 159 160 194 
f 160 195 194 
f 160 161 195 
f 161 196 195 
f 161 162 196 
f 162 197 196 
f 162 163 197 
f 163 198 197 
f 163 164 198 
f 164 199 198 
f 164 165 199 
f 165 200 199 
f 165 166 200 
f 166 201 200 
f 166 167 201 
f 167 202 201 
f 167 168 202 
f 168 203 202 
f 168 169 203 
f 169 204 203 
f 169 170 204 
f 170 205 204 
f 170 171 205 
f 171 172 205 
f 171 138 172 
f 172 207 206 
f 172 173 207 
f 173 208 207 
f 173 174 208 
f 174 209 208 
f 174 175 209 
f 175 210 209 
f 175 176 210 
f 176 211 210 
f 176 177 211 
f 177 212 211 
f 177 178 212 
f 178 213 212 
f 178 179 213 
f 179 214 213 
f 179 180 214 
f 180 215 214 
f 180 181 215 
f 181 216 215 
f 181 182 216 
f 182 217 216 
f 182 183 217 
f 183 218 217 
f 183 184 218 
f 184 219 218 
f 184 185 219 
f 185 220 219 
f 185 186 220 
f 186 221 220 
f 186 187 221 
f 187 222 221 
f 187 188 222 
f 188 223 222 
f 188 189 223 
f 189 224 223 
f 189 190 224 
f 190 225 224 
f 190 191 225 
f 191 226 225 
f 191 192 226 
f 192 227 226 
f 192 193 227 
f 193 228 227 
f 193 194 228 
f 194 229 228 
f 194 195 229 
f 195 230 229 
f 195 196 230 
f 196 231 230 
f 196 197 231 
f 197 232 231 
f 197 198 232 
f 198 233 232 
f 198 199 233 
f 199 234 233 
f 199 200 234 
f 200 235 234 
f 200 201 235 
f 201 236 235 
f 201 202 236 
f 202 237 236 
f 202 203 237 
f 203 238 237 
f 203 204 238 
f 204 239 238 
f 204 205 239 
f 205 206 239 
f 205 172 206 
f 206 241 240 
f 206 207 241 
f 207 242 241 
f 207 208 242 
f 208 243 242 
f 208 209 243 
f 209 244 243 
f 209 210 244 
f 210 245 244 
f 210 211 245 
f 211 246 245 
f 211 212 246 
f 212 247 246 
f 212 213 247 
f 213 248 247 
f 213 214 248 
f 214 249 248 
f 214 215 249 
f 215 250 249 
f 215 216 250 
f 216 251 250 
f 216 217 251 
f 217 252 251 
f 217 218 252 
f 218 253 252 
f 218 219 253 
f 219 254 253 
f 219 220 254 
f 220 255 254 
f 220 221 255 
f 221 256 255 
f 221 222 256 
f 222 257 256 
f 222 223 257 
f 223 258 257 
f 223 224 258 
f 224 259 258 
f 224 225 259 
f 225 260 259 
f 225 226 260 
f 226 261 260 
f 226 227 261 
f 227 262 261 
f 227 228 262 
f 228 263 262 
f 228 229 263 
f 229 264 263 
f 229 230 264 
f 230 265 264 
f 230 231 265 
f 231 266 265 
f 231 232 266 
f 232 267 266 
f 232 233 267 
f 233 268 267 
f 233 234 268 
f 234 269 268 
f 234 235 269 
f 235 270 269 
f 235 236 270 
f 236 271 270 
f 236 237 271 
f 237 272 271 
f 237 238 272 
f 238 273 272 
f 238 239 273 
f 239 240 273 
f 239 206 240 
f 240 275 274 
f 240 241 275 
f 241 276 275 
f 241 242 276 
f 242 277 276 
f 242 243 277 
f 243 278 277 
f 243 244 278 
f 244 279 278 
f 244 245 279 
f 245 280 279 
f 245 246 280 
f 246 281 280 
f 246 247 281 
f 247 282 281 
f 247 248 282 
f 248 283 282 
f 248 249 283 
f 249 284 283 
f 249 250 284 
f 250 285 284 
f 250 251 285 
f 251 286 285 
f 251 252 286 
f 252 287 286 
f 252 253 287 
f 253 288 287 
f 253 254 288 
f 254 289 288 
f 254 255 289 
f 255 290 289 
f 255 256 290 
f 256 291 290 
f 256 257 291 
f 257 292 291 
f 257 258 292 
f 258 293 292 
f 258 259 293 
f 259 294 293 
f 259 260 294 
f 260 295 294 
f 260 261 295 
f 261 296 295 
f 261 262 296 
f 262 297 296 
f 262 263 297 
f 263 298 297 
f 263 264 298 
f 264 299 298 
f 264 265 299 
f 265 300 299 
f 265 266 300 
f 266 301 300 
f 266 267 301 
f 267 302 301 
f 267 268 302 
f 268 303 302 
f 268 269 303 
f 269 304 303 
f 269 270 304 
f 270 305 304 
f 270 271 305 
f 271 306 305 
f 271 272 306 
f 272 307 306 
f 272 273 307 
f 273 274 307 
f 273 240 274 
f 274 309 308 
f 274 275 309 
f 275 310 309 
f 275 276 310 
f 276 311 310 
f 276 277 311 
f 277 312 311 
f 277 278 312 
f 278 313 312 
f 278 279 313 
f 279 314 313 
f 279 280 314 
f 280 315 314 
f 280 281 315 
f 281 316 315 
f 281 282 316 
f 282 317 316 
f 282 283 317 
f 283 318 317 
f 283 284 318 
f 284 319 318 
f 284 285 319 
f 285 320 319 
f 285 286 320 
f 286 321 320 
f 286 287 321 
f 287 322 321 
f 287 288 322 
f 288 323 322 
f 288 289 323 
f 289 324 323 
f 289 290 324 
f 290 325 324 
f 290 291 325 
f 291 326 325 
f 291 292 326 
f 292 327 326 
f 292 293 327 
f 293 328 327 
f 293 294 328 
f 294 329 328 
f 294 295 329 
f 295 330 329 
f 295 296 330 
f 296 331 330 
f 296 297 331 
f 297 332 331 
f 297 298 332 
f 298 333 332 
f 298 299 333 
f 299 334 333 
f 299 300 334 
f 300 335 334 
f 300 301 335 
f 301 336 335 
f 301 302 336 
f 302 337 336 
f 302 303 337 
f 303 338 337 
f 303 304 338 
f 304 339 338 
f 304 305 339 
f 305 340 339 
f 305 306 340 
f 306 341 340 
f 306 307 341 
f 307 308 341 
f 307 274 308 
f 308 343 342 
f 308 309 343 
f 309 344 343 
f 309 310 344 
f 310 345 344 
f 310 311 345 
f 311 346 345 
f 311 312 346 
f 312 347 346 
f 312 313 347 
f 313 348 347 
f 313 314 348 
f 314 349 348 
f 314 315 349 
f 315 350 349 
f 315 316 350 
f 316 351 350 
f 316 317 351 
f 317 352 351 
f 317 318 352 
f 318 353 352 
f 318 319 353 
f 319 354 353 
f 319 320 354 
f 320 355 354 
f 320 321 355 
f 321 356 355 
f 321 322 356 
f 322 357 356 
f 322 323 357 
f 323 358 357 
f 323 324 358 
f 324 359 358 
f 324 325 359 
f 325 360 359 
f 325 326 360 
f 326 361 360 
f 326 327 361 
f 327 362 361 
f 327 328 362 
f 328 363 362 
f 328 329 363 
f 329 364 363 
f 329 330 364 
f 330 365 364 
f 330 331 365 
f 331 366 365 
f 331 332 366 
f 332 367 366 
f 332 333 367 
f 333 368 367 
f 333 334 368 
f 334 369 368 
f 334 335 369 
f 335 370 369 
f 335 336 370 
f 336 371 370 
f 336 337 371 
f 337 372 371 
f 337 338 372 
f 338 373 372 
f 338 339 373 
f 339 374 373 
f 339 340 374 
f 340 375 374 
f 340 341 375 
f 341 342 375 
f 341 308 342 
f 342 377 376 
f 342 343 377 
f 343 378 377 
f 343 344 378 
f 344 379 378 
f 344 345 379 
f 345 380 379 
f 345 346 380 
f 346 381 380 
f 346 347 381 
f 347 382 381 
f 347 348 382 
f 348 383 382 
f 348 349 383 
f 349 384 383 
f 349 350 384 
f 350 385 384 
f 350 351 385 
f 351 386 385 
f 351 352 386 
f 352 387 386 
f 352 353 387 
f 353 388 387 
f 353 354 388 
f 354 389 388 
f 354 355 389 
f 355 390 389 
f 355 356 390 
f 356 391 390 
f 356 357 391 
f 357 392 391 
f 357 358 392 
f 358 393 392 
f 358 359 393 
f 359 394 393 
f 359 360 394 
f 360 395 394 
f 360 361 395 
f 361 396 395 
f 361 362 396 
f 362 397 396 
f 362 363 397 
f 363 398 397 
f 363 364 398 
f 364 399 398 
f 364 365 399 
f 365 400 399 
f 365 366 400 
f 366 401 400 
f 366 367 401 
f 367 402 401 
f 367 368 402 
f 368 403 402 
f 368 369 403 
f 369 404 403 
f 369 370 404 
f 370 405 404 
f 370 371 405 
f 371 406 405 
f 371 372 406 
f 372 407 406 
f 372 373 407 
f 373 408 407 
f 373 374 408 
f 374 409 408 
f 374 375 409 
f 375 376 409 
f 375 342 376 
f 376 411 410 
f 376 377 411 
f 377 412 411 
f 377 378 412 
f 378 413 412 
f 378 379 413 
f 379 414 413 
f 379 380 414 
f 380 415 414 
f 380 381 415 
f 381 416 415 
f 381 382 416 
f 382 417 416 
f 382 383 417 
f 383 418 417 
f 383 384 418 
f 384 419 418 
f 384 385 419 
f 385 420 419 
f 385 386 420 
f 386 421 420 
f 386 387 421 
f 387 422 421 
f 387 388 422 
f 388 423 422 
f 388 389 423 
f 389 424 423 
f 389 390 424 
f 390 425 424 
f 390 391 425 
f 391 426 425 
f 391 392 426 
f 392 427 426 
f 392 393 427 
f 393 428 427 
f 393 394 428 
f 394 429 428 
f 394 395 429 
f 395 430 429 
f 395 396 430 
f 396 431 430 
f 396 397 431 
f 397 432 431 
f 397 398 432 
f 398 433 432 
f 398 399 433 
f 399 434 433 
f 399 400 434 
f 400 435 434 
f 400 401 435 
f 401 436 435 
f 401 402 436 
f 402 437 436 
f 402 403 437 
f 403 438 437 
f 403 404 438 
f 404 439 438 
f 404 405 439 
f 405 440 439 
f 405 406 440 
f 406 441 440 
f 406 407 441 
f 407 442 441 
f 407 408 442 
f 408 443 442 
f 408 409 443 
f 409 410 443 
f 409 376 410 
f 410 445 444 
f 410 411 445 
f 411 446 445 
f 411 412 446 
f 412 447 446 
f 412 413 447 
f 413 448 447 
f 413 414 448 
f 414 449 448 
f 414 415 449 
f 415 450 449 
f 415 416 450 
f 416 451 450 
f 416 417 451 
f 417 452 451 
f 417 418 452 
f 418 453 452 
f 418 419 453 
f 419 454 453 
f 419 420 454 
f 420 455 454 
f 420 421 455 
f 421 456 455 
f 421 422 456 
f 422 457 456 
f 422 423 457 
f 423 458 457 
f 423 424 458 
f 424 459 458 
f 424 425 459 
f 425 460 459 
f 425 426 460 
f 426 461 460 
f 426 427 461 
f 427 462 461 
f 427 428 462 
f 428 463 462 
f 428 429 463 
f 429 464 463 
f 429 430 464 
f 430 465 464 
f 430 431 465 
f 431 466 465 
f 431 432 466 
f 432 467 466 
f 432 433 467 
f 433 468 467 
f 433 434 468 
f 434 469 468 
f 434 435 469 
f 435 470 469 
f 435 436 470 
f 436 471 470 
f 436 437 471 
f 437 472 471 
f 437 438 472 
f 438 473 472 
f 438 439 473 
f 439 474 473 
f 439 440 474 
f 440 475 474 
f 440 441 475 
f 441 476 475 
f 441 442 476 
f 442 477 476 
f 442 443 477 
f 443 444 477 
f 443 410 444 
f 444 479 478 
f 444 445 479 
f 445 480 479 
f 445 446 480 
f 446 481 480 
f 446 447 481 
f 447 482 481 
f 447 448 482 
f 448 483 482 
f 448 449 483 
f 449 484 483 
f 449 450 484 
f 450 485 484 
f 450 451 485 
f 451 486 485 
f 451 452 486 
f 452 487 486 
f 452 453 487 
f 453 488 487 
f 453 454 488 
f 454 489 488 
f 454 455 489 
f 455 490 489 
f 455 456 490 
f 456 491 490 
f 456 457 491 
f 457 492 491 
f 457 458 492 
f 458 493 492 
f 458 459 493 
f 459 494 493 
f 459 460 494 
f 460 495 494 
f 460 461 495 
f 461 496 495 
f 461 462 496 
f 462 497 496 
f 462 463 497 
f 463 498 497 
f 463 464 498 
f 464 499 498 
f 464 465 499 
f 465 500 499 
f 465 466 500 
f 466 501 500 
f 466 467 501 
f 467 502 501 
f 467 468 502 
f 468 503 502 
f 468 469 503 
f 469 504 503 
f 469 470 504 
f 470 505 504 
f 470 471 505 
f 471 506 505 
f 471 472 506 
f 472 507 506 
f 472 473 507 
f 473 508 507 
f 473 474 508 
f 474 509 508 
f 474 475 509 
f 475 510 509 
f 475 476 510 
f 476 511 510 
f 476 477 511 
f 477 478 511 
f 477 444 478 
f 478 513 512 
f 478 479 513 
f 479 514 513 
f 479 480 514 
f 480 515 514 
f 480 481 515 
f 481 516 515 
f 481 482 516 
f 482 517 516 
f 482 483 517 
f 483 518 517 
f 483 484 518 
f 484 519 518 
f 484 485 519 
f 485 520 519 
f 485 486 520 
f 486 521 520 
f 486 487 521 
f 487 522 521 
f 487 488 522 
f 488 523 522 
f 488 489 523 
f 489 524 523 
f 489 490 524 
f 490 525 524 
f 490 491 525 
f 491 526 525 
f 491 492 526 
f 492 527 526 
f 492 493 527 
f 493 528 527 
f 493 494 528 
f 494 529 528 
f 494 495 529 
f 495 530 529 
f 495 496 530 
f 496 531 530 
f 496 497 531 
f 497 532 531 
f 497 498 532 
f 498 533 532 
f 498 499 533 
f 499 534 533 
f 499 500 534 
f 500 535 534 
f 500 501 535 
f 501 536 535 
f 501 502 536 
f 502 537 536 
f 502 503 537 
f 503 538 537 
f 503 504 538 
f 504 539 538 
f 504 505 539 
f 505 540 539 
f 505 506 540 
f 506 541 540 
f 506 507 541 
f 507 542 541 
f 507 508 542 
f 508 543 542 
f 508 509 543 
f 509 544 543 
f 509 510 544 
f 510 545 544 
f 510 511 545 
f 511 512 545 
f 511 478 512 
f 512 547 546 
f 512 513 547 
f 513 548 547 
f 513 514 548 
f 514 549 548 
f 514 515 549 
f 515 550 549 
f 515 516 550 
f 516 551 550 
f 516 517 551 
f 517 552 551 
f 517 518 552 
f 518 553 552 
f 518 519 553 
f 519 554 553 
f 519 520 554 
f 520 555 554 
f 520 521 555 
f 521 556 555 
f 521 522 556 
f 522 557 556 
f 522 523 557 
f 523 558 557 
f 523 524 558 
f 524 559 558 
f 524 525 559 
f 525 560 559 
f 525 526 560 
f 526 561 560 
f 526 527 561 
f 527 562 561 
f 527 528 562 
f 528 563 562 
f 528 529 563 
f 529 564 563 
f 529 530 564 
f 530 565 564 
f 530 531 565 
f 531 566 565 
f 531 532 566 
f 532 567 566 
f 532 533 567 
f 533 568 567 
f 533 534 568 
f 534 569 568 
f 534 535 569 
f 535 570 569 
f 535 536 570 
f 536 571 570 
f 536 537 571 
f 537 572 571 
f 537 538 572 
f 538 573 572 
f 538 539 573 
f 539 574 573 
f 539 540 574 
f 540 575 574 
f 540 541 575 
f 541 576 575 
f 541 542 576 
f 542 577 576 
f 542 543 577 
f 543 578 577 
f 543 544 578 
f 544 579 578 
f 544 545 579 
f 545 546 579 
f 545 512 546 
f 546 581 580 
f 546 547 581 
f 547 582 581 
f 547 548 582 
f 548 583 582 
f 548 549 583 
f 549 584 583 
f 549 550 584 
f 550 585 584 
f 550 551 585 
f 551 586 585 
f 551 552 586 
f 552 587 586 
f 552 553 587 
f 553 588 587 
f 553 554 588 
f 554 589 588 
f 554 555 589 
f 555 590 589 
f 555 556 590 
f 556 591 590 
f 556 557 591 
f 557 592 591 
f 557 558 592 
f 558 593 592 
f 558 559 593 
f 559 594 593 
f 559 560 594 
f 560 595 594 
f 560 561 595 
f 561 596 595 
f 561 562 596 
f 562 597 596 
f 562 563 597 
f 563 598 597 
f 563 564 598 
f 564 599 598 
f 564 565 599 
f 565 600 599 
f 565 566 600 
f 566 601 600 
f 566 567 601 
f 567 602 601 
f 567 568 602 
f 568 603 602 
f 568 569 603 
f 569 604 603 
f 569 570 604 
f 570 605 604 
f 570 571 605 
f 571 606 605 
f 571 572 606 
f 572 607 606 
f 572 573 607 
f 573 608 607 
f 573 574 608 
f 574 609 608 
f 574 575 609 
f 575 610 609 
f 575 576 610 
f 576 611 610 
f 576 577 611 
f 577 612 611 
f 577 578 612 
f 578 613 612 
f 578 579 613 
f 579 580 613 
f 579 546 580 
f 580 615 614 
f 580 581 615 
f 581 616 615 
f 581 582 616 
f 582 617 616 
f 582 583 617 
f 583 618 617 
f 583 584 618 
f 584 619 618 
f 584 585 619 
f 585 620 619 
f 585 586 620 
f 586 621 620 
f 586 587 621 
f 587 622 621 
f 587 588 622 
f 588 623 622 
f 588 589 623 
f 589 624 623 
f 589 590 624 
f 590 625 624 
f 590 591 625 
f 591 626 625 
f 591 592 626 
f 592 627 626 
f 592 593 627 
f 593 628 627 
f 593 594 628 
f 594 629 628 
f 594 595 629 
f 595 630 629 
f 595 596 630 
f 596 631 630 
f 596 597 631 
f 597 632 631 
f 597 598 632 
f 598 633 632 
f 598 599 633 
f 599 634 633 
f 599 600 634 
f 600 635 634 
f 600 601 635 
f 601 636 635 
f 601 602 636 
f 602 637 636 
f 602 603 637 
f 603 638 637 
f 603 604 638 
f 604 639 638 
f 604 605 639 
f 605 640 639 
f 605 606 640 
f 606 641 640 
f 606 607 641 
f 607 642 641 
f 607 608 642 
f 608 643 642 
f 608 609 643 
f 609 644 643 
f 609 610 644 
f 610 645 644 
f 610 611 645 
f 611 646 645 
f 611 612 646 
f 612 647 646 
f 612 613 647 
f 613 614 647 
f 613 580 614 
f 614 649 648 
f 614 615 649 
f 615 650 649 
f 615 616 650 
f 616 651 650 
f 616 617 651 
f 617 652 651 
f 617 618 652 
f 618 653 652 
f 618 619 653 
f 619 654 653 
f 619 620 654 
f 620 655 654 
f 620 621 655 
f 621 656 655 
f 621 622 656 
f 622 657 656 
f 622 623 657 
f 623 658 657 
f 623 624 658 
f 624 659 658 
f 624 625 659 
f 625 660 659 
f 625 626 660 
f 626 661 660 
f 626 627 661 
f 627 662 661 
f 627 628 662 
f 628 663 662 
f 628 629 663 
f 629 664 663 
f 629 630 664 
f 630 665 664 
f 630 631 665 
f 631 666 665 
f 631 632 666 
f 632 667 666 
f 632 633 667 
f 633 668 667 
f 633 634 668 
f 634 669 668 
f 634 635 669 
f 635 670 669 
f 635 636 670 
f 636 671 670 
f 636 637 671 
f 637 672 671 
f 637 638 672 
f 638 673 672 
f 638 639 673 
f 639 674 673 
f 639 640 674 
f 640 675 674 
f 640 641 675 
f 641 676 675 
f 641 642 676 
f 642 677 676 
f 642 643 677 
f 643 678 677 
f 643 644 678 
f 644 679 678 
f 644 645 679 
f 645 680 679 
f 645 646 680 
f 646 681 680 
f 646 647 681 
f 647 648 681 
f 647 614 648 
f 648 683 682 
f 648 649 683 
f 649 684 683 
f 649 650 684 
f 650 685 684 
f 650 651 685 
f 651 686 685 
f 651 652 686 
f 652 687 686 
f 652 653 687 
f 653 688 687 
f 653 654 688 
f 654 689 688 
f 654 655 689 
f 655 690 689 
f 655 656 690 
f 656 691 690 
f 656 657 691 
f 657 692 691 
f 657 658 692 
f 658 693 692 
f 658 659 693 
f 659 694 693 
f 659 660 694 
f 660 695 694 
f 660 661 695 
f 661 696 695 
f 661 662 696 
f 662 697 696 
f 662 663 697 
f 663 698 697 
f 663 664 698 
f 664 699 698 
f 664 665 699 
f 665 700 699 
f 665 666 700 
f 666 701 700 
f 666 667 701 
f 667 702 701 
f 667 668 702 
f 668 703 702 
f 668 669 703 
f 669 704 703 
f 669 670 704 
f 670 705 704 
f 670 671 705 
f 671 706 705 
f 671 672 706 
f 672 707 706 
f 672 673 707 
f 673 708 707 
f 673 674 708 
f 674 709 708 
f 674 675 709 
f 675 710 709 
f 675 676 710 
f 676 711 710 
f 676 677 711 
f 677 712 711 
f 677 678 712 
f 678 713 712 
f 678 679 713 
f 679 714 713 
f 679 680 714 
f 680 715 714 
f 680 681 715 
f 681 682 715 
f 681 648 682 
f 682 717 716 
f 682 683 717 
f 683 718 717 
f 683 684 718 
f 684 719 718 
f 684 685 719 
f 685 720 719 
f 685 686 720 
f 686 721 720 
f 686 687 721 
f 687 722 721 
f 687 688 722 
f 688 723 722 
f 688 689 723 
f 689 724 723 
f 689 690 724 
f 690 725 724 
f 690 691 725 
f 691 726 725 
f 691 692 726 
f 692 727 726 
f 692 693 727 
f 693 728 727 
f 693 694 728 
f 694 729 728 
f 694 695 729 
f 695 730 729 
f 695 696 730 
f 696 731 730 
f 696 697 731 
f 697 732 731 
f 697 698 732 
f 698 733 732 
f 698 699 733 
f 699 734 733 
f 699 700 734 
f 700 735 734 
f 700 701 735 
f 701 736 735 
f 701 702 736 
f 702 737 736 
f 702 703 737 
f 703 738 737 
f 703 704 738 
f 704 739 738 
f 704 705 739 
f 705 740 739 
f 705 706 740 
f 706 741 740 
f 706 707 741 
f 707 742 741 
f 707 708 742 
f 708 743 742 
f 708 709 743 
f 709 744 743 
f 709 710 744 
f 710 745 744 
f 710 711 745 
f 711 746 745 
f 711 712 746 
f 712 747 746 
f 712 713 747 
f 713 748 747 
f 713 714 748 
f 714 749 748 
f 714 715 749 
f 715 716 749 
f 715 682 716 
f 716 751 750 
f 716 717 751 
f 717 752 751 
f 717 718 752 
f 718 753 752 
f 718 719 753 
f 719 754 753 
f 719 720 754 
f 720 755 754 
f 720 721 755 
f 721 756 755 
f 721 722 756 
f 722 757 756 
f 722 723 757 
f 723 758 757 
f 723 724 758 
f 724 759 758 
f 724 725 759 
f 725 760 759 
f 725 726 760 
f 726 761 760 
f 726 727 761 
f 727 762 761 
f 727 728 762 
f 728 763 762 
f 728 729 763 
f 729 764 763 
f 729 730 764 
f 730 765 764 
f 730 731 765 
f 731 766 765 
f 731 732 766 
f 732 767 766 
f 732 733 767 
f 733 768 767 
f 733 734 768 
f 734 769 768 
f 734 735 769 
f 735 770 769 
f 735 736 770 
f 736 771 770 
f 736 737 771 
f 737 772 771 
f 737 738 772 
f 738 773 772 
f 738 739 773 
f 739 774 773 
f 739 740 774 
f 740 775 774 
f 740 741 775 
f 741 776 775 
f 741 742 776 
f 742 777 776 
f 742 743 777 
f 743 778 777 
f 743 744 778 
f 744 779 778 
f 744 745 779 
f 745 780 779 
f 745 746 780 
f 746 781 780 
f 746 747 781 
f 747 782 781 
f 747 748 782 
f 748 783 782 
f 748 749 783 
f 749 750 783 
f 749 716 750 
f 750 785 784 
f 750 751 785 
f 751 786 785 
f 751 752 786 
f 752 787 786 
f 752 753 787 
f 753 788 787 
f 753 754 788 
f 754 789 788 
f 754 755 789 
f 755 790 789 
f 755 756 790 
f 756 791 790 
f 756 757 791 
f 757 792 791 
f 757 758 792 
f 758 793 792 
f 758 759 793 
f 759 794 793 
f 759 760 794 
f 760 795 794 
f 760 761 795 
f 761 796 795 
f 761 762 796 
f 762 797 796 
f 762 763 797 
f 763 798 797 
f 763 764 798 
f 764 799 798 
f 764 765 799 
f 765 800 799 
f 765 766 800 
f 766 801 800 
f 766 767 801 
f 767 802 801 
f 767 768 802 
f 768 803 802 
f 768 769 803 
f 769 804 803 
f 769 770 804 
f 770 805 804 
f 770 771 805 
f 771 806 805 
f 771 772 806 
f 772 807 806 
f 772 773 807 
f 773 808 807 
f 773 774 808 
f 774 809 808 
f 774 775 809 
f 775 810 809 
f 775 776 810 
f 776 811 810 
f 776 777 811 
f 777 812 811 
f 777 778 812 
f 778 813 812 
f 778 779 813 
f 779 814 813 
f 779 780 814 
f 780 815 814 
f 780 781 815 
f 781 816 815 
f 781 782 816 
f 782 817 816 
f 782 783 817 
f 783 784 817 
f 783 750 784 
f 784 819 818 
f 784 785 819 
f 785 820 819 
f 785 786 820 
f 786 821 820 
f 786 787 821 
f 787 822 821 
f 787 788 822 
f 788 823 822 
f 788 789 823 
f 789 824 823 
f 789 790 824 
f 790 825 824 
f 790 791 825 
f 791 826 825 
f 791 792 826 
f 792 827 826 
f 792 793 827 
f 793 828 827 
f 793 794 828 
f 794 829 828 
f 794 795 829 
f 795 830 829 
f 795 796 830 
f 796 831 830 
f 796 797 831 
f 797 832 831 
f 797 798 832 
f 798 833 832 
f 798 799 833 
f 799 834 833 
f 799 800 834 
f 800 835 834 
f 800 801 835 
f 801 836 835 
f 801 802 836 
f 802 837 836 
f 802 803 837 
f 803 838 837 
f 803 804 838 
f 804 839 838 
f 804 805 839 
f 805 840 839 
f 805 806 840 
f 806 841 840 
f 806 807 841 
f 807 842 841 
f 807 808 842 
f 808 843 842 
f 808 809 843 
f 809 844 843 
f 809 810 844 
f 810 845 844 
f 810 811 845 
f 811 846 845 
f 811 812 846 
f 812 847 846 
f 812 813 847 
f 813 848 847 
f 813 814 848 
f 814 849 848 
f 814 815 849 
f 815 850 849 
f 815 816 850 
f 816 851 850 
f 816 817 851 
f 817 818 851 
f 817 784 818 
f 818 853 852 
f 818 819 853 
f 819 854 853 
f 819 820 854 
f 820 855 854 
f 820 821 855 
f 821 856 855 
f 821 822 856 
f 822 857 856 
f 822 823 857 
f 823 858 857 
f 823 824 858 
f 824 859 858 
f 824 825 859 
f 825 860 859 
f 825 826 860 
f 826 861 860 
f 826 827 861 
f 827 862 861 
f 827 828 862 
f 828 863 862 
f 828 829 863 
f 829 864 863 
f 829 830 864 
f 830 865 864 
f 830 831 865 
f 831 866 865 
f 831 832 866 
f 832 867 866 
f 832 833 867 
f 833 868 867 
f 833 834 868 
f 834 869 868 
f 834 835 869 
f 835 870 869 
f 835 836 870 
f 836 871 870 
f 836 837 871 
f 837 872 871 
f 837 838 872 
f 838 873 872 
f 838 839 873 
f 839 874 873 
f 839 840 874 
f 840 875 874 
f 840 841 875 
f 841 876 875 
f 841 842 876 
f 842 877 876 
f 842 843 877 
f 843 878 877 
f 843 844 878 
f 844 879 878 
f 844 845 879 
f 845 880 879 
f 845 846 880 
f 846 881 880 
f 846 847 881 
f 847 882 881 
f 847 848 882 
f 848 883 882 
f 848 849 883 
f 849 884 883 
f 849 850 884 
f 850 885 884 
f 850 851 885 
f 851 852 885 
f 851 818 852 
f 886 852 853 
f 886 853 854 
f 886 854 855 
f 886 855 856 
f 886 856 857 
f 886 857 858 
f 886 858 859 
f 886 859 860 
f 886 860 861 
f 886 861 862 
f 886 862 863 
f 886 863 864 
f 886 864 865 
f 886 865 866 
f 886 866 867 
f 886 867 868 
f 886 868 869 
f 886 869 870 
f 886 870 871 
f 886 871 872 
f 886 872 873 
f 886 873 874 
f 886 874 875 
f 886 875 876 
f 886 876 877 
f 886 877 878 
f 886 878 879 
f 886 879 880 
f 886 880 881 
f 886 881 882 
f 886 882 883 
f 886 883 884 
f 886 884 885 
f 886 885 852 
