# NV = 886 NF = 1768
v 0.235355 -0.309503 -0.0298789
v 0.242668 -0.317424 -0.0299758
v 0.243908 -0.316015 -0.0299758
v 0.244856 -0.314387 -0.0299758
v 0.245488 -0.312588 -0.0299758
v 0.24578 -0.310669 -0.0299519
v 0.245682 -0.308726 -0.0299519
v 0.245269 -0.306806 -0.0299279
v 0.244515 -0.304983 -0.0299029
v 0.243422 -0.303331 -0.0299029
v 0.242086 -0.301848 -0.0298789
v 0.240506 -0.300657 -0.0298549
v 0.238757 -0.299759 -0.0298299
v 0.236886 -0.299175 -0.0298299
v 0.234966 -0.298956 -0.0298059
v 0.233046 -0.299102 -0.0298059
v 0.231224 -0.299589 -0.0298059
v 0.229547 -0.300439 -0.029782
v 0.228041 -0.301557 -0.029782
v 0.226802 -0.302966 -0.029782
v 0.225853 -0.304619 -0.0298059
v 0.225246 -0.306417 -0.0298059
v 0.224955 -0.308312 -0.0298059
v 0.225028 -0.310256 -0.0298299
v 0.225464 -0.312175 -0.0298299
v 0.226218 -0.313998 -0.0298549
v 0.227287 -0.315674 -0.0298789
v 0.228648 -0.317133 -0.0299029
v 0.230228 -0.318324 -0.0299029
v 0.231977 -0.319222 -0.0299279
v 0.233849 -0.319806 -0.0299519
v 0.235767 -0.320024 -0.0299519
v 0.237663 -0.319879 -0.0299758
v 0.239485 -0.319392 -0.0299758
v 0.241186 -0.318567 -0.0299758
v 0.249983 -0.325346 -0.0300978
v 0.252462 -0.322527 -0.0300738
v 0.254357 -0.319246 -0.0300738
v 0.255596 -0.31565 -0.0300488
v 0.25618 -0.31186 -0.0300248
v 0.256034 -0.307972 -0.0300009
v 0.255183 -0.304132 -0.0299758
v 0.253652 -0.300487 -0.0299279
v 0.251489 -0.297134 -0.0299029
v 0.248792 -0.294218 -0.0298789
v 0.245634 -0.291812 -0.0298299
v 0.242135 -0.290014 -0.0298059
v 0.238392 -0.288872 -0.029782
v 0.234553 -0.288435 -0.029733
v 0.230737 -0.288702 -0.029733
v 0.227092 -0.289699 -0.029709
v 0.223715 -0.291351 -0.029709
v 0.220726 -0.293635 -0.0296851
v 0.218248 -0.296454 -0.029709
v 0.216353 -0.29971 -0.029709
v 0.215113 -0.303307 -0.029733
v 0.214554 -0.307121 -0.029733
v 0.2147 -0.311009 -0.029782
v 0.21555 -0.314849 -0.0298059
v 0.217081 -0.318494 -0.0298299
v 0.21922 -0.321847 -0.0298789
v 0.221916 -0.324763 -0.0299029
v 0.225076 -0.327169 -0.0299279
v 0.2286 -0.328967 -0.0299758
v 0.232317 -0.330109 -0.0300009
v 0.236156 -0.330546 -0.0300248
v 0.239972 -0.330255 -0.0300488
v 0.243617 -0.329283 -0.0300738
v 0.246994 -0.327605 -0.0300738
v 0.257273 -0.333243 -0.0301947
v 0.260991 -0.329016 -0.0301947
v 0.263834 -0.324132 -0.0301708
v 0.265729 -0.318737 -0.0301468
v 0.266556 -0.313026 -0.0300978
v 0.266337 -0.307218 -0.0300738
v 0.265073 -0.30146 -0.0300248
v 0.262789 -0.295992 -0.0299758
v 0.259557 -0.290962 -0.0299029
v 0.255523 -0.286588 -0.0298549
v 0.250785 -0.282967 -0.0298059
v 0.245512 -0.28027 -0.0297569
v 0.239923 -0.278569 -0.029709
v 0.234139 -0.277888 -0.0296851
v 0.22843 -0.278326 -0.0296361
v 0.222938 -0.279808 -0.0296361
v 0.217883 -0.282287 -0.0296121
v 0.213412 -0.285713 -0.0296121
v 0.209695 -0.289941 -0.0296121
v 0.206851 -0.294826 -0.0296361
v 0.20498 -0.30022 -0.0296361
v 0.20413 -0.30593 -0.0296851
v 0.204373 -0.311763 -0.029709
v 0.205636 -0.317521 -0.0297569
v 0.207945 -0.322989 -0.0298059
v 0.211152 -0.328019 -0.0298549
v 0.21521 -0.332417 -0.0299029
v 0.219949 -0.336014 -0.0299758
v 0.225198 -0.338711 -0.0300248
v 0.23081 -0.340412 -0.0300738
v 0.236545 -0.341068 -0.0300978
v 0.24228 -0.340655 -0.0301468
v 0.247747 -0.339173 -0.0301708
v 0.252802 -0.336669 -0.0301947
v 0.264563 -0.341165 -0.0302917
v 0.269544 -0.335528 -0.0302917
v 0.273335 -0.329016 -0.0302677
v 0.275838 -0.321823 -0.0302437
v 0.276956 -0.314216 -0.0301947
v 0.276664 -0.306441 -0.0301218
v 0.274988 -0.298786 -0.0300738
v 0.271925 -0.291472 -0.0300009
v 0.267625 -0.28479 -0.0299279
v 0.26223 -0.278934 -0.0298549
v 0.255912 -0.274123 -0.029782
v 0.248914 -0.270526 -0.029709
v 0.241429 -0.268242 -0.02966
v 0.233751 -0.267367 -0.0296121
v 0.226096 -0.267926 -0.0295631
v 0.218782 -0.269894 -0.0295391
v 0.212027 -0.273223 -0.0295141
v 0.206074 -0.277767 -0.0295141
v 0.201117 -0.283405 -0.0295141
v 0.197326 -0.289941 -0.0295391
v 0.194847 -0.297134 -0.0295631
v 0.193729 -0.30474 -0.0296121
v 0.194021 -0.312516 -0.02966
v 0.195747 -0.320195 -0.029709
v 0.198784 -0.327509 -0.029782
v 0.203084 -0.334191 -0.0298549
v 0.208479 -0.340047 -0.0299279
v 0.214798 -0.344859 -0.0300009
v 0.221819 -0.348456 -0.0300738
v 0.22928 -0.350715 -0.0301218
v 0.236959 -0.35159 -0.0301947
v 0.244564 -0.351031 -0.0302437
v 0.251878 -0.349062 -0.0302677
v 0.258609 -0.345733 -0.0302917
v 0.271853 -0.349087 -0.0304136
v 0.278074 -0.34204 -0.0303896
v 0.282812 -0.333875 -0.0303646
v 0.285946 -0.324909 -0.0303167
v 0.287356 -0.315384 -0.0302677
v 0.286992 -0.305687 -0.0301947
v 0.284877 -0.296114 -0.0300978
v 0.281062 -0.286977 -0.0300248
v 0.275692 -0.278618 -0.0299279
v 0.268961 -0.271303 -0.0298299
v 0.261064 -0.265302 -0.0297569
v 0.252292 -0.260782 -0.0296851
v 0.242936 -0.257939 -0.0296121
v 0.233338 -0.25682 -0.0295391
v 0.223788 -0.257525 -0.0294901
v 0.214627 -0.25998 -0.0294662
v 0.206195 -0.264135 -0.0294411
v 0.198759 -0.269846 -0.0294411
v 0.192562 -0.276893 -0.0294411
v 0.187824 -0.285033 -0.0294662
v 0.18469 -0.294024 -0.0294901
v 0.183305 -0.303549 -0.0295391
v 0.183694 -0.313269 -0.0296121
v 0.185832 -0.322867 -0.0296851
v 0.189647 -0.332004 -0.0297569
v 0.195017 -0.340363 -0.0298299
v 0.201772 -0.347678 -0.0299279
v 0.20967 -0.353679 -0.0300248
v 0.218417 -0.358199 -0.0300978
v 0.227749 -0.361042 -0.0301947
v 0.237348 -0.362112 -0.0302677
v 0.246873 -0.361407 -0.0303167
v 0.255985 -0.358928 -0.0303646
v 0.264417 -0.354773 -0.0303896
v 0.279142 -0.356985 -0.0305105
v 0.286603 -0.348528 -0.0305105
v 0.292289 -0.338759 -0.0304626
v 0.296056 -0.32797 -0.0304136
v 0.297757 -0.316574 -0.0303406
v 0.297319 -0.30491 -0.0302437
v 0.294767 -0.293416 -0.0301468
v 0.290199 -0.282482 -0.0300488
v 0.28376 -0.272445 -0.0299519
v 0.275667 -0.263674 -0.0298299
v 0.266191 -0.256457 -0.029733
v 0.255669 -0.251038 -0.0296361
v 0.244442 -0.247611 -0.0295631
v 0.2329 -0.2463 -0.0294901
v 0.221455 -0.247125 -0.0294172
v 0.210472 -0.250089 -0.0293932
v 0.200339 -0.255047 -0.0293682
v 0.191421 -0.2619 -0.0293442
v 0.183985 -0.270356 -0.0293682
v 0.178299 -0.280149 -0.0293932
v 0.174557 -0.290938 -0.0294172
v 0.17288 -0.302358 -0.0294901
v 0.173342 -0.314022 -0.0295631
v 0.175918 -0.325541 -0.0296361
v 0.18051 -0.336499 -0.029733
v 0.18695 -0.346536 -0.0298299
v 0.195066 -0.355308 -0.0299519
v 0.204519 -0.362524 -0.0300488
v 0.215015 -0.367919 -0.0301468
v 0.226218 -0.371345 -0.0302437
v 0.237736 -0.372633 -0.0303406
v 0.249157 -0.371783 -0.0304136
v 0.260116 -0.368818 -0.0304626
v 0.270224 -0.363813 -0.0305105
v 0.286432 -0.364882 -0.0306325
v 0.295107 -0.355016 -0.0306074
v 0.301765 -0.343619 -0.0305835
v 0.306164 -0.331033 -0.0305105
v 0.308133 -0.31774 -0.0304136
v 0.307646 -0.304157 -0.0303167
v 0.304681 -0.290743 -0.0301947
v 0.29936 -0.277961 -0.0300738
v 0.291827 -0.266273 -0.0299519
v 0.282398 -0.256043 -0.0298299
v 0.271343 -0.247611 -0.029709
v 0.259047 -0.241294 -0.0295871
v 0.24595 -0.237284 -0.0294901
v 0.232487 -0.235753 -0.0294172
v 0.219122 -0.236725 -0.0293442
v 0.206317 -0.240175 -0.0293203
v 0.194507 -0.245983 -0.0292712
v 0.184082 -0.253953 -0.0292712
v 0.175407 -0.26382 -0.0292712
v 0.168773 -0.27524 -0.0293203
v 0.164424 -0.287828 -0.0293442
v 0.16248 -0.301168 -0.0294172
v 0.163015 -0.314776 -0.0294901
v 0.166003 -0.328213 -0.0295871
v 0.171374 -0.340995 -0.029709
v 0.178882 -0.352707 -0.0298299
v 0.188335 -0.362962 -0.0299519
v 0.199366 -0.371369 -0.0300738
v 0.211638 -0.377664 -0.0301947
v 0.224687 -0.381648 -0.0303167
v 0.238125 -0.383155 -0.0304136
v 0.251441 -0.382159 -0.0305105
v 0.264223 -0.378684 -0.0305835
v 0.276008 -0.372876 -0.0306074
v 0.244296 -0.318202 0.0464948
v 0.251732 -0.310086 0.0459362
v 0.257759 -0.301022 0.0442591
v 0.262181 -0.291303 0.0415377
v 0.264855 -0.281266 0.0378438
v 0.265656 -0.27123 0.0333005
v 0.264587 -0.261584 0.0281005
v 0.261646 -0.252617 0.0223898
v 0.256981 -0.244647 0.0163633
v 0.250712 -0.237941 0.0102399
v 0.243082 -0.232739 0.00421334
v 0.234334 -0.229217 -0.0014974
v 0.224784 -0.227492 -0.00669736
v 0.214725 -0.227588 -0.0112167
v 0.204519 -0.229581 -0.0149106
v 0.194531 -0.233323 -0.017656
v 0.185054 -0.238718 -0.019333
v 0.176452 -0.245594 -0.0198917
v 0.169016 -0.25371 -0.019333
v 0.162991 -0.262799 -0.017656
v 0.158543 -0.272518 -0.0149106
v 0.155895 -0.282555 -0.0112167
v 0.155093 -0.29259 -0.00669736
v 0.156162 -0.302237 -0.0014974
v 0.159102 -0.311204 0.00421334
v 0.163768 -0.319174 0.0102399
v 0.170038 -0.325881 0.0163633
v 0.177667 -0.33108 0.0223898
v 0.186415 -0.334605 0.0281005
v 0.195964 -0.336329 0.0333005
v 0.206025 -0.336208 0.0378438
v 0.216231 -0.33424 0.0415377
v 0.226218 -0.330498 0.0442591
v 0.235694 -0.325079 0.0459362
v 0.222087 -0.293951 0.0710866
v 0.228235 -0.287244 0.0706249
v 0.233241 -0.279711 0.0692397
v 0.23691 -0.271668 0.06698
v 0.239122 -0.263358 0.0639177
v 0.239777 -0.255047 0.0601759
v 0.238878 -0.247052 0.0558504
v 0.236472 -0.239616 0.0511362
v 0.232584 -0.233007 0.04613
v 0.227408 -0.227467 0.041052
v 0.221091 -0.223166 0.0360709
v 0.213849 -0.22025 0.0313567
v 0.205928 -0.218792 0.0270312
v 0.197592 -0.218914 0.0232882
v 0.189136 -0.220542 0.0202271
v 0.18085 -0.223652 0.0179674
v 0.173026 -0.228123 0.0165822
v 0.165906 -0.233809 0.0160965
v 0.159735 -0.24054 0.0165822
v 0.154728 -0.248049 0.0179674
v 0.15106 -0.256092 0.0202271
v 0.148872 -0.264427 0.0232882
v 0.148192 -0.272713 0.0270312
v 0.149091 -0.280732 0.0313567
v 0.15152 -0.288143 0.0360709
v 0.155384 -0.294753 0.041052
v 0.16056 -0.300293 0.04613
v 0.166902 -0.304619 0.0511362
v 0.174144 -0.307534 0.0558504
v 0.182066 -0.308968 0.0601759
v 0.190376 -0.30887 0.0639177
v 0.198832 -0.307242 0.06698
v 0.207118 -0.304132 0.0692397
v 0.214967 -0.299662 0.0706249
v 0.200315 -0.270259 0.0961881
v 0.205344 -0.264767 0.0958233
v 0.209427 -0.258643 0.0946809
v 0.212416 -0.252082 0.092834
v 0.214214 -0.245303 0.0903554
v 0.214749 -0.238523 0.0872942
v 0.214019 -0.232011 0.0837702
v 0.212051 -0.22596 0.0799075
v 0.208892 -0.220591 0.0758488
v 0.204664 -0.216046 0.0717183
v 0.199512 -0.212547 0.0676595
v 0.193608 -0.210166 0.0637958
v 0.187144 -0.208999 0.0602729
v 0.180365 -0.209072 0.0572106
v 0.173464 -0.210408 0.054732
v 0.166732 -0.212936 0.0528862
v 0.160341 -0.216581 0.0517438
v 0.154533 -0.221222 0.051379
v 0.149503 -0.226714 0.0517438
v 0.145422 -0.232837 0.0528862
v 0.142432 -0.239398 0.054732
v 0.140635 -0.246178 0.0572106
v 0.1401 -0.252933 0.0602729
v 0.140828 -0.25947 0.0637958
v 0.142797 -0.265521 0.0676595
v 0.145956 -0.27089 0.0717183
v 0.150184 -0.275435 0.0758488
v 0.155336 -0.278934 0.0799075
v 0.161241 -0.281315 0.0837702
v 0.167704 -0.282482 0.0872942
v 0.174484 -0.282409 0.0903554
v 0.181361 -0.281073 0.092834
v 0.188116 -0.278545 0.0946809
v 0.194507 -0.2749 0.0958233
v 0.179003 -0.247101 0.121799
v 0.183037 -0.242703 0.121483
v 0.186293 -0.237819 0.120585
v 0.1887 -0.232546 0.119103
v 0.190133 -0.227127 0.11711
v 0.190571 -0.221708 0.114679
v 0.189987 -0.216484 0.111861
v 0.188408 -0.211624 0.108775
v 0.18588 -0.207322 0.105519
v 0.182478 -0.203702 0.10219
v 0.178372 -0.200883 0.0989335
v 0.173633 -0.198988 0.0958472
v 0.168457 -0.19804 0.0930289
v 0.163039 -0.198113 0.0905994
v 0.157523 -0.199182 0.0886065
v 0.152104 -0.201199 0.0871243
v 0.147001 -0.204139 0.0862009
v 0.142336 -0.207857 0.085909
v 0.138326 -0.212231 0.0862009
v 0.135046 -0.21714 0.0871243
v 0.132664 -0.222389 0.0886065
v 0.131231 -0.227831 0.0905994
v 0.130793 -0.23325 0.0930289
v 0.131376 -0.238475 0.0958472
v 0.132956 -0.24331 0.0989335
v 0.135482 -0.247611 0.10219
v 0.138861 -0.251232 0.105519
v 0.142991 -0.254051 0.108775
v 0.14773 -0.25597 0.111861
v 0.152881 -0.256893 0.114679
v 0.158324 -0.256846 0.11711
v 0.163841 -0.255776 0.119103
v 0.169235 -0.253735 0.120585
v 0.174362 -0.250819 0.121483
v 0.158154 -0.224502 0.147922
v 0.161314 -0.221052 0.147679
v 0.163889 -0.217212 0.14695
v 0.16576 -0.213082 0.145807
v 0.166878 -0.208804 0.144228
v 0.167218 -0.204552 0.142308
v 0.166781 -0.200445 0.140098
v 0.165517 -0.19663 0.137667
v 0.163549 -0.193253 0.135116
v 0.160876 -0.19041 0.132516
v 0.157645 -0.188198 0.129965
v 0.153927 -0.186716 0.127534
v 0.149868 -0.185963 0.125323
v 0.145592 -0.186012 0.123403
v 0.141266 -0.186862 0.121824
v 0.137014 -0.188441 0.120658
v 0.133004 -0.19075 0.119953
v 0.129335 -0.193666 0.119709
v 0.126176 -0.197116 0.119953
v 0.123624 -0.200956 0.120658
v 0.121753 -0.205086 0.121824
v 0.120611 -0.209364 0.123403
v 0.120271 -0.213617 0.125323
v 0.120733 -0.217723 0.127534
v 0.121972 -0.221538 0.129965
v 0.123965 -0.224915 0.132516
v 0.126614 -0.227758 0.135116
v 0.129846 -0.22997 0.137667
v 0.133564 -0.231452 0.140098
v 0.137621 -0.232206 0.142308
v 0.141898 -0.232157 0.144228
v 0.146223 -0.231306 0.145807
v 0.150476 -0.229727 0.14695
v 0.154509 -0.227419 0.147679
v 0.137743 -0.202463 0.17453
v 0.140173 -0.199814 0.174336
v 0.142166 -0.196825 0.173801
v 0.143599 -0.193642 0.172902
v 0.144474 -0.190361 0.171687
v 0.144741 -0.187081 0.170204
v 0.144376 -0.183922 0.168503
v 0.143429 -0.180981 0.166632
v 0.141898 -0.178382 0.164664
v 0.139857 -0.17617 0.162672
v 0.137354 -0.174469 0.160679
v 0.134487 -0.173327 0.158808
v 0.131352 -0.172744 0.157107
v 0.128072 -0.172792 0.155625
v 0.124718 -0.173449 0.154434
v 0.121462 -0.174664 0.153535
v 0.118351 -0.176437 0.152976
v 0.115533 -0.178698 0.152806
v 0.113102 -0.181346 0.152976
v 0.111135 -0.184311 0.153535
v 0.109676 -0.187494 0.154434
v 0.108802 -0.190775 0.155625
v 0.108535 -0.194055 0.157107
v 0.108899 -0.197238 0.158808
v 0.109846 -0.200154 0.160679
v 0.111377 -0.202779 0.162672
v 0.113443 -0.204966 0.164664
v 0.115922 -0.206667 0.166632
v 0.118789 -0.207833 0.168503
v 0.121923 -0.208392 0.170204
v 0.125205 -0.208343 0.171687
v 0.128558 -0.207711 0.172902
v 0.131838 -0.206472 0.173801
v 0.134924 -0.204698 0.174336
v 0.117793 -0.180958 0.201648
v 0.11964 -0.178941 0.201503
v 0.121146 -0.176705 0.201089
v 0.122239 -0.174275 0.200409
v 0.122896 -0.171772 0.19951
v 0.12309 -0.169293 0.198368
v 0.122823 -0.166888 0.19708
v 0.122094 -0.164652 0.19567
v 0.120927 -0.162684 0.194164
v 0.119372 -0.161007 0.192633
v 0.117477 -0.15972 0.191151
v 0.115314 -0.158844 0.189717
v 0.112933 -0.158408 0.18843
v 0.11043 -0.158432 0.187311
v 0.107903 -0.158917 0.186388
v 0.1054 -0.159865 0.185708
v 0.103067 -0.161202 0.185294
v 0.100929 -0.162903 0.185148
v 0.0990577 -0.16492 0.185294
v 0.0975755 -0.167179 0.185708
v 0.0964576 -0.169609 0.186388
v 0.0958016 -0.172113 0.187311
v 0.0956071 -0.174591 0.18843
v 0.0958745 -0.176997 0.189717
v 0.0966034 -0.179233 0.191151
v 0.0977699 -0.1812 0.192633
v 0.099325 -0.182877 0.194164
v 0.10122 -0.184165 0.19567
v 0.103383 -0.18504 0.19708
v 0.105764 -0.185477 0.198368
v 0.108267 -0.185453 0.19951
v 0.110795 -0.184942 0.200409
v 0.113297 -0.184019 0.201089
v 0.115654 -0.182682 0.201503
v 0.0982802 -0.160036 0.229277
v 0.0996652 -0.158505 0.22918
v 0.100807 -0.15678 0.228864
v 0.101658 -0.154957 0.228353
v 0.102144 -0.153062 0.227649
v 0.10229 -0.151166 0.226798
v 0.102095 -0.149344 0.225827
v 0.101536 -0.147667 0.224734
v 0.100661 -0.146161 0.223615
v 0.0994951 -0.144896 0.222449
v 0.0980371 -0.143925 0.221307
v 0.0964091 -0.143244 0.220237
v 0.0945866 -0.142929 0.219266
v 0.0926912 -0.142953 0.218415
v 0.0907715 -0.143317 0.217711
v 0.0889004 -0.144022 0.2172
v 0.0871022 -0.145042 0.216884
v 0.0854985 -0.146331 0.216763
v 0.0840891 -0.147861 0.216884
v 0.0829471 -0.149587 0.2172
v 0.0821208 -0.151409 0.217711
v 0.0816105 -0.153305 0.218415
v 0.0814647 -0.155199 0.219266
v 0.0816591 -0.157022 0.220237
v 0.0822181 -0.158698 0.221307
v 0.0830929 -0.160206 0.222449
v 0.0842835 -0.161469 0.223615
v 0.0857171 -0.162441 0.224734
v 0.0873696 -0.163122 0.225827
v 0.0891678 -0.163438 0.226798
v 0.0910632 -0.163413 0.227649
v 0.0929829 -0.163049 0.228353
v 0.0948781 -0.162343 0.228864
v 0.096652 -0.161323 0.22918
v 0.0792049 -0.139647 0.257417
v 0.0802984 -0.138457 0.257344
v 0.0811975 -0.137121 0.2571
v 0.0818536 -0.135687 0.256687
v 0.0822424 -0.134205 0.256152
v 0.0823395 -0.132746 0.255472
v 0.0821937 -0.131313 0.254719
v 0.0817563 -0.130001 0.253869
v 0.0810759 -0.128835 0.252993
v 0.0801526 -0.127838 0.252095
v 0.0790348 -0.127085 0.25122
v 0.0777469 -0.126575 0.25037
v 0.0763375 -0.126307 0.249616
v 0.0748795 -0.126332 0.248936
v 0.073373 -0.126623 0.248401
v 0.0718907 -0.127158 0.247988
v 0.0705056 -0.12796 0.247745
v 0.069242 -0.128981 0.247672
v 0.0681485 -0.130171 0.247745
v 0.0672737 -0.131507 0.247988
v 0.0666176 -0.132917 0.248401
v 0.0662288 -0.134399 0.248936
v 0.0661073 -0.135882 0.249616
v 0.0662774 -0.137291 0.25037
v 0.0666906 -0.138603 0.25122
v 0.067371 -0.139793 0.252095
v 0.0682943 -0.140766 0.252993
v 0.0694121 -0.141519 0.253869
v 0.0706999 -0.142054 0.254719
v 0.0721093 -0.142297 0.255472
v 0.0735917 -0.142297 0.256152
v 0.0750982 -0.142005 0.256687
v 0.0765563 -0.141446 0.2571
v 0.0779413 -0.140644 0.257344
v 0.0605913 -0.119819 0.286065
v 0.0615147 -0.118798 0.285992
v 0.062268 -0.117681 0.285798
v 0.0628269 -0.116466 0.285459
v 0.0631428 -0.115227 0.284997
v 0.06324 -0.113987 0.284437
v 0.0631184 -0.112797 0.283781
v 0.0627539 -0.111679 0.283077
v 0.0621708 -0.110682 0.282323
v 0.0613932 -0.109857 0.28157
v 0.0604455 -0.109225 0.280817
v 0.0593763 -0.108787 0.280113
v 0.0581857 -0.108568 0.27948
v 0.0569464 -0.108568 0.278921
v 0.0556827 -0.108811 0.278459
v 0.0544435 -0.109273 0.27812
v 0.0532529 -0.109954 0.277901
v 0.0521837 -0.110804 0.277828
v 0.0512602 -0.111825 0.277901
v 0.0505312 -0.112943 0.27812
v 0.0499724 -0.114133 0.278459
v 0.0496322 -0.115396 0.278921
v 0.049535 -0.116636 0.27948
v 0.0496807 -0.117827 0.280113
v 0.0500452 -0.118944 0.280817
v 0.0506285 -0.119917 0.28157
v 0.051406 -0.120767 0.282323
v 0.0523537 -0.121399 0.283077
v 0.053423 -0.121836 0.283781
v 0.0546136 -0.122055 0.284437
v 0.0558528 -0.122031 0.284997
v 0.0571164 -0.121788 0.285459
v 0.0583557 -0.121326 0.285798
v 0.0595464 -0.120669 0.285992
v 0.0424394 -0.100525 0.315225
v 0.0433385 -0.0995537 0.315152
v 0.0440432 -0.0984843 0.314957
v 0.0445778 -0.0973179 0.314618
v 0.0448937 -0.0961026 0.31418
v 0.0449909 -0.0949124 0.313646
v 0.0448694 -0.093746 0.313013
v 0.0445049 -0.0926766 0.312334
v 0.0439461 -0.0917292 0.311604
v 0.0432171 -0.0909266 0.310876
v 0.0422937 -0.090295 0.310146
v 0.0412488 -0.0898823 0.309467
v 0.0401067 -0.0896873 0.308859
v 0.038916 -0.0896873 0.3083
v 0.0376767 -0.0899313 0.307862
v 0.0364861 -0.090368 0.307547
v 0.0353682 -0.0910246 0.307352
v 0.0343233 -0.0918501 0.307279
v 0.0334485 -0.0928226 0.307352
v 0.0327195 -0.093892 0.307547
v 0.032185 -0.0950583 0.307862
v 0.0318691 -0.0962725 0.3083
v 0.0317719 -0.0974639 0.308859
v 0.0318934 -0.0986302 0.309467
v 0.0322579 -0.0996996 0.310146
v 0.0328168 -0.100647 0.310876
v 0.0335701 -0.101449 0.311604
v 0.0344691 -0.102056 0.312334
v 0.035514 -0.102494 0.313013
v 0.0366562 -0.102688 0.313646
v 0.0378711 -0.102688 0.31418
v 0.0390861 -0.102445 0.314618
v 0.0402768 -0.102007 0.314957
v 0.0414189 -0.101352 0.315152
v 0.024725 -0.0817899 0.344871
v 0.0257213 -0.0807216 0.344798
v 0.0265231 -0.0795063 0.344579
v 0.0271307 -0.078194 0.344214
v 0.0274709 -0.0768578 0.343705
v 0.0275923 -0.0755205 0.343097
v 0.0274465 -0.0742333 0.342416
v 0.0270577 -0.073018 0.341639
v 0.026426 -0.0719486 0.340837
v 0.0255998 -0.0710502 0.340011
v 0.0245792 -0.0703696 0.339209
v 0.0233886 -0.0698839 0.338456
v 0.0221249 -0.069665 0.337751
v 0.0207642 -0.069665 0.337144
v 0.0194034 -0.0699318 0.336658
v 0.0180668 -0.0704425 0.336293
v 0.0168033 -0.0711711 0.33605
v 0.0156612 -0.0720945 0.335977
v 0.0146649 -0.0731639 0.33605
v 0.0138387 -0.0743793 0.336293
v 0.0132555 -0.0756915 0.336658
v 0.012891 -0.0770277 0.337144
v 0.0127939 -0.0783639 0.337751
v 0.0129396 -0.0796522 0.338456
v 0.0133285 -0.0808664 0.339209
v 0.0139602 -0.0819358 0.340011
v 0.0147864 -0.0828353 0.340837
v 0.0158071 -0.083516 0.341639
v 0.0169734 -0.0840017 0.342416
v 0.0182612 -0.0842205 0.343097
v 0.0195978 -0.0842205 0.343705
v 0.0209828 -0.0839527 0.344214
v 0.0223193 -0.083443 0.344579
v 0.0235829 -0.0827134 0.344798
v 0.00747221 -0.0636385 0.375027
v 0.0087115 -0.0622772 0.374929
v 0.00970778 -0.0607711 0.374662
v 0.0104611 -0.0591431 0.3742
v 0.0108985 -0.057466 0.373593
v 0.01102 -0.05579 0.37284
v 0.0108499 -0.0541859 0.371965
v 0.0103639 -0.0527038 0.371017
v 0.00958629 -0.0513676 0.37002
v 0.00854139 -0.0502492 0.369
v 0.00725351 -0.0493747 0.36798
v 0.00581983 -0.048791 0.367032
v 0.00421605 -0.0485003 0.366158
v 0.00253938 -0.0485242 0.365404
v 0.000838399 -0.048864 0.364796
v -0.000838283 -0.0494717 0.364335
v -0.00239346 -0.0503712 0.364068
v -0.00382714 -0.0515375 0.36397
v -0.00506642 -0.0528737 0.364068
v -0.00608701 -0.0543798 0.364335
v -0.006816 -0.0560078 0.364796
v -0.0072534 -0.0576849 0.365404
v -0.00739919 -0.0593619 0.366158
v -0.0072291 -0.060966 0.367032
v -0.00671881 -0.0624482 0.36798
v -0.00594122 -0.0637844 0.369
v -0.00492063 -0.0649017 0.37002
v -0.00363274 -0.0657772 0.371017
v -0.00217476 -0.0663599 0.371965
v -0.000595284 -0.0666517 0.37284
v 0.00108139 -0.0666278 0.373593
v 0.00278237 -0.0662869 0.3742
v 0.00445905 -0.0656792 0.374662
v 0.00603853 -0.0647808 0.374929
v 0.00664602 -0.062764 0.374249
v 0.00771521 -0.0615977 0.374152
v 0.00859 -0.0603094 0.373933
v 0.00922179 -0.0589242 0.373544
v 0.00958629 -0.057491 0.37301
v 0.00970778 -0.0560568 0.372354
v 0.00956198 -0.0546716 0.371624
v 0.00914889 -0.0533844 0.370799
v 0.0084685 -0.052266 0.369949
v 0.00756941 -0.0512946 0.369073
v 0.00647592 -0.050565 0.368199
v 0.00523664 -0.0500553 0.367397
v 0.00387586 -0.0498114 0.366643
v 0.00244218 -0.0498114 0.365987
v 0.000984196 -0.0501033 0.365477
v -0.000449489 -0.050638 0.365088
v -0.00181027 -0.0514155 0.364845
v -0.00302526 -0.052388 0.364747
v -0.00409444 -0.0535543 0.364845
v -0.00494492 -0.0548415 0.365088
v -0.00557672 -0.0562267 0.365477
v -0.00596551 -0.0576609 0.365987
v -0.00608701 -0.0590941 0.366643
v -0.00591691 -0.0604793 0.367397
v -0.00550382 -0.0617676 0.368199
v -0.00484773 -0.0629099 0.369073
v -0.00394864 -0.0638573 0.369949
v -0.00285515 -0.0646109 0.370799
v -0.00161587 -0.0650966 0.371624
v -0.000255088 -0.0653634 0.372354
v 0.00120289 -0.0653395 0.37301
v 0.00266087 -0.0650476 0.373544
v 0.00407025 -0.0645129 0.373933
v 0.00543104 -0.0637354 0.374152
v 0.00584414 -0.0618884 0.373447
v 0.00674323 -0.060941 0.373374
v 0.00744791 -0.0598476 0.37318
v 0.00798251 -0.0587053 0.372864
v 0.00829841 -0.057491 0.372427
v 0.0083956 -0.0562997 0.371892
v 0.0082741 -0.0551584 0.37126
v 0.00790961 -0.054089 0.37058
v 0.00735071 -0.0531405 0.369876
v 0.00662173 -0.052339 0.369146
v 0.00569833 -0.0517313 0.368417
v 0.00467775 -0.0512946 0.367737
v 0.00353566 -0.0510997 0.367129
v 0.00232068 -0.0511237 0.36657
v 0.00110569 -0.0513426 0.366133
v -6.06905e-05 -0.0518043 0.365817
v -0.00120277 -0.0524359 0.365623
v -0.00222336 -0.0532625 0.36555
v -0.00309815 -0.0542099 0.365623
v -0.00382714 -0.0553032 0.365817
v -0.00436173 -0.0564696 0.366133
v -0.00467763 -0.0576609 0.36657
v -0.00477483 -0.0588512 0.367129
v -0.00462903 -0.0599936 0.367737
v -0.00428883 -0.061063 0.368417
v -0.00372994 -0.0620104 0.369146
v -0.00297665 -0.0628119 0.369876
v -0.00207757 -0.0634196 0.37058
v -0.00103268 -0.0638573 0.37126
v 0.000109408 -0.0640512 0.371892
v 0.00130009 -0.0640512 0.372427
v 0.00251507 -0.0638083 0.372864
v 0.00370577 -0.0633716 0.37318
v 0.00482355 -0.062715 0.373374
v 0.00504224 -0.0610379 0.37267
v 0.00574693 -0.0602604 0.372597
v 0.00633012 -0.0593859 0.372451
v 0.00674323 -0.0584624 0.372183
v 0.00701052 -0.057515 0.371843
v 0.00708342 -0.0565676 0.371406
v 0.00698621 -0.0556441 0.37092
v 0.00669462 -0.0547936 0.370361
v 0.00625723 -0.05404 0.369803
v 0.00564974 -0.0533844 0.369219
v 0.00492074 -0.0528976 0.368636
v 0.00409456 -0.0525579 0.368102
v 0.00319547 -0.052388 0.367591
v 0.00222348 -0.052412 0.367153
v 0.00125149 -0.0525818 0.366813
v 0.000303805 -0.0529466 0.366547
v -0.000595284 -0.0534574 0.366401
v -0.00142148 -0.054113 0.366352
v -0.00212617 -0.0548905 0.366401
v -0.00270936 -0.055765 0.366547
v -0.00312245 -0.0566884 0.366813
v -0.00336545 -0.057637 0.367153
v -0.00343835 -0.0585844 0.367591
v -0.00334114 -0.0595079 0.368102
v -0.00307385 -0.0603584 0.368636
v -0.00261216 -0.0611359 0.369219
v -0.00202896 -0.0617676 0.369803
v -0.00129998 -0.0622532 0.370361
v -0.000473784 -0.0625941 0.37092
v 0.000449603 -0.062764 0.371406
v 0.00139729 -0.0627389 0.371843
v 0.00236928 -0.0625691 0.372183
v 0.00331697 -0.0622042 0.372451
v 0.00421605 -0.0616946 0.372597
v 0.00424035 -0.0601634 0.371867
v 0.00477495 -0.0595808 0.371843
v 0.00518805 -0.0589481 0.371721
v 0.00550393 -0.0582435 0.371528
v 0.00569833 -0.057539 0.37126
v 0.00577124 -0.0568104 0.37092
v 0.00567403 -0.0561298 0.370555
v 0.00547964 -0.0554742 0.370142
v 0.00513944 -0.0549145 0.36973
v 0.00470205 -0.0544288 0.369292
v 0.00414315 -0.054064 0.368854
v 0.00353566 -0.0538211 0.368441
v 0.00283097 -0.0537002 0.368077
v 0.00212628 -0.0537002 0.367761
v 0.00139729 -0.0538462 0.367494
v 0.0006926 -0.054113 0.367299
v 1.22093e-05 -0.0545017 0.367178
v -0.00061958 -0.0549874 0.367129
v -0.00112987 -0.0555711 0.367178
v -0.00156727 -0.0562028 0.367299
v -0.00188317 -0.0569073 0.367494
v -0.00207757 -0.0576119 0.367761
v -0.00212617 -0.0583415 0.368077
v -0.00205326 -0.0590211 0.368441
v -0.00185886 -0.0596778 0.368854
v -0.00151867 -0.0602364 0.369292
v -0.00105698 -0.0607221 0.36973
v -0.000522386 -0.0610869 0.370142
v 0.000109408 -0.0613298 0.370555
v 0.000789799 -0.0614757 0.37092
v 0.00149449 -0.0614517 0.37126
v 0.00222348 -0.0613058 0.371528
v 0.00295247 -0.0610379 0.371721
v 0.00363286 -0.0606491 0.371843
v 0.00343846 -0.0593129 0.37109
v 0.00377866 -0.0589242 0.371066
v 0.00407025 -0.0584864 0.370969
v 0.00428896 -0.0580257 0.370847
v 0.00441046 -0.057539 0.370677
v 0.00443475 -0.0570772 0.370458
v 0.00438615 -0.0566155 0.370215
v 0.00426465 -0.0561788 0.369923
v 0.00402165 -0.055814 0.369657
v 0.00373006 -0.0554742 0.369365
v 0.00336556 -0.0552303 0.369073
v 0.00295247 -0.0550604 0.368806
v 0.00249078 -0.0549874 0.368538
v 0.00202909 -0.0549874 0.368344
v 0.00154309 -0.0550854 0.36815
v 0.0010571 -0.0552553 0.368029
v 0.000619701 -0.0555221 0.367956
v 0.000206607 -0.0558379 0.367931
v -0.000157889 -0.0562267 0.367956
v -0.000449489 -0.0566645 0.368029
v -0.000643886 -0.0571262 0.36815
v -0.000789681 -0.0576119 0.368344
v -0.000813977 -0.0580737 0.368538
v -0.000765386 -0.0585354 0.368806
v -0.00061958 -0.0589732 0.369073
v -0.000400887 -0.0593619 0.369365
v -0.000109289 -0.0596778 0.369657
v 0.000255205 -0.0599206 0.369923
v 0.0006683 -0.0600905 0.370215
v 0.00112999 -0.0601634 0.370458
v 0.00161599 -0.0601634 0.370677
v 0.00210198 -0.0600665 0.370847
v 0.00256368 -0.0598967 0.370969
v 0.00302537 -0.0596288 0.371066
v 0.00261228 -0.0584385 0.370288
v 0.00280668 -0.0582435 0.370288
v 0.00295247 -0.0580257 0.370239
v 0.00304966 -0.0578069 0.370166
v 0.00312257 -0.057564 0.370093
v 0.00312257 -0.0573201 0.369972
v 0.00309827 -0.0571023 0.369851
v 0.00302537 -0.0568834 0.36973
v 0.00292818 -0.0566884 0.369584
v 0.00278237 -0.0565425 0.369438
v 0.00258797 -0.0563977 0.369292
v 0.00239357 -0.0563247 0.369146
v 0.00215059 -0.0562757 0.369025
v 0.00190759 -0.0562757 0.368927
v 0.00166459 -0.0563247 0.36883
v 0.00144589 -0.0564216 0.368757
v 0.00120289 -0.0565425 0.368733
v 0.0010085 -0.0567135 0.368709
v 0.000838399 -0.0569073 0.368733
v 0.0006926 -0.0571262 0.368757
v 0.000571101 -0.0573451 0.36883
v 0.000522503 -0.057588 0.368927
v 0.000498203 -0.0578308 0.369025
v 0.000522503 -0.0580497 0.369146
v 0.000595401 -0.0582686 0.369292
v 0.0006926 -0.0584624 0.369438
v 0.000862698 -0.0586323 0.369584
v 0.0010328 -0.0587543 0.36973
v 0.00125149 -0.0588272 0.369851
v 0.00147019 -0.0588762 0.369972
v 0.00171319 -0.0588762 0.370093
v 0.00195619 -0.0588272 0.370166
v 0.00219918 -0.0587303 0.370239
v 0.00241788 -0.0586084 0.370288
v 0.00181038 -0.057588 0.369511
f 1 3 2 
f 1 4 3 
f 1 5 4 
f 1 6 5 
f 1 7 6 
f 1 8 7 
f 1 9 8 
f 1 10 9 
f 1 11 10 
f 1 12 11 
f 1 13 12 
f 1 14 13 
f 1 15 14 
f 1 16 15 
f 1 17 16 
f 1 18 17 
f 1 19 18 
f 1 20 19 
f 1 21 20 
f 1 22 21 
f 1 23 22 
f 1 24 23 
f 1 25 24 
f 1 26 25 
f 1 27 26 
f 1 28 27 
f 1 29 28 
f 1 30 29 
f 1 31 30 
f 1 32 31 
f 1 33 32 
f 1 34 33 
f 1 35 34 
f 1 2 35 
f 2 37 36 
f 2 3 37 
f 3 38 37 
f 3 4 38 
f 4 39 38 
f 4 5 39 
f 5 40 39 
f 5 6 40 
f 6 41 40 
f 6 7 41 
f 7 42 41 
f 7 8 42 
f 8 43 42 
f 8 9 43 
f 9 44 43 
f 9 10 44 
f 10 45 44 
f 10 11 45 
f 11 46 45 
f 11 12 46 
f 12 47 46 
f 12 13 47 
f 13 48 47 
f 13 14 48 
f 14 49 48 
f 14 15 49 
f 15 50 49 
f 15 16 50 
f 16 51 50 
f 16 17 51 
f 17 52 51 
f 17 18 52 
f 18 53 52 
f 18 19 53 
f 19 54 53 
f 19 20 54 
f 20 55 54 
f 20 21 55 
f 21 56 55 
f 21 22 56 
f 22 57 56 
f 22 23 57 
f 23 58 57 
f 23 24 58 
f 24 59 58 
f 24 25 59 
f 25 60 59 
f 25 26 60 
f 26 61 60 
f 26 27 61 
f 27 62 61 
f 27 28 62 
f 28 63 62 
f 28 29 63 
f 29 64 63 
f 29 30 64 
f 30 65 64 
f 30 31 65 
f 31 66 65 
f 31 32 66 
f 32 67 66 
f 32 33 67 
f 33 68 67 
f 33 34 68 
f 34 69 68 
f 34 35 69 
f 35 36 69 
f 35 2 36 
f 36 71 70 
f 36 37 71 
f 37 72 71 
f 37 38 72 
f 38 73 72 
f 38 39 73 
f 39 74 73 
f 39 40 74 
f 40 75 74 
f 40 41 75 
f 41 76 75 
f 41 42 76 
f 42 77 76 
f 42 43 77 
f 43 78 77 
f 43 44 78 
f 44 79 78 
f 44 45 79 
f 45 80 79 
f 45 46 80 
f 46 81 80 
f 46 47 81 
f 47 82 81 
f 47 48 82 
f 48 83 82 
f 48 49 83 
f 49 84 83 
f 49 50 84 
f 50 85 84 
f 50 51 85 
f 51 86 85 
f 51 52 86 
f 52 87 86 
f 52 53 87 
f 53 88 87 
f 53 54 88 
f 54 89 88 
f 54 55 89 
f 55 90 89 
f 55 56 90 
f 56 91 90 
f 56 57 91 
f 57 92 91 
f 57 58 92 
f 58 93 92 
f 58 59 93 
f 59 94 93 
f 59 60 94 
f 60 95 94 
f 60 61 95 
f 61 96 95 
f 61 62 96 
f 62 97 96 
f 62 63 97 
f 63 98 97 
f 63 64 98 
f 64 99 98 
f 64 65 99 
f 65 100 99 
f 65 66 100 
f 66 101 100 
f 66 67 101 
f 67 102 101 
f 67 68 102 
f 68 103 102 
f 68 69 103 
f 69 70 103 
f 69 36 70 
f 70 105 104 
f 70 71 105 
f 71 106 105 
f 71 72 106 
f 72 107 106 
f 72 73 107 
f 73 108 107 
f 73 74 108 
f 74 109 108 
f 74 75 109 
f 75 110 109 
f 75 76 110 
f 76 111 110 
f 76 77 111 
f 77 112 111 
f 77 78 112 
f 78 113 112 
f 78 79 113 
f 79 114 113 
f 79 80 114 
f 80 115 114 
f 80 81 115 
f 81 116 115 
f 81 82 116 
f 82 117 116 
f 82 83 117 
f 83 118 117 
f 83 84 118 
f 84 119 118 
f 84 85 119 
f 85 120 119 
f 85 86 120 
f 86 121 120 
f 86 87 121 
f 87 122 121 
f 87 88 122 
f 88 123 122 
f 88 89 123 
f 89 124 123 
f 89 90 124 
f 90 125 124 
f 90 91 125 
f 91 126 125 
f 91 92 126 
f 92 127 126 
f 92 93 127 
f 93 128 127 
f 93 94 128 
f 94 129 128 
f 94 95 129 
f 95 130 129 
f 95 96 130 
f 96 131 130 
f 96 97 131 
f 97 132 131 
f 97 98 132 
f 98 133 132 
f 98 99 133 
f 99 134 133 
f 99 100 134 
f 100 135 134 
f 100 101 135 
f 101 136 135 
f 101 102 136 
f 102 137 136 
f 102 103 137 
f 103 104 137 
f 103 70 104 
f 104 139 138 
f 104 105 139 
f 105 140 139 
f 105 106 140 
f 106 141 140 
f 106 107 141 
f 107 142 141 
f 107 108 142 
f 108 143 142 
f 108 109 143 
f 109 144 143 
f 109 110 144 
f 110 145 144 
f 110 111 145 
f 111 146 145 
f 111 112 146 
f 112 147 146 
f 112 113 147 
f 113 148 147 
f 113 114 148 
f 114 149 148 
f 114 115 149 
f 115 150 149 
f 115 116 150 
f 116 151 150 
f 116 117 151 
f 117 152 151 
f 117 118 152 
f 118 153 152 
f 118 119 153 
f 119 154 153 
f 119 120 154 
f 120 155 154 
f 120 121 155 
f 121 156 155 
f 121 122 156 
f 122 157 156 
f 122 123 157 
f 123 158 157 
f 123 124 158 
f 124 159 158 
f 124 125 159 
f 125 160 159 
f 125 126 160 
f 126 161 160 
f 126 127 161 
f 127 162 161 
f 127 128 162 
f 128 163 162 
f 128 129 163 
f 129 164 163 
f 129 130 164 
f 130 165 164 
f 130 131 165 
f 131 166 165 
f 131 132 166 
f 132 167 166 
f 132 133 167 
f 133 168 167 
f 133 134 168 
f 134 169 168 
f 134 135 169 
f 135 170 169 
f 135 136 170 
f 136 171 170 
f 136 137 171 
f 137 138 171 
f 137 104 138 
f 138 173 172 
f 138 139 173 
f 139 174 173 
f 139 140 174 
f 140 175 174 
f 140 141 175 
f 141 176 175 
f 141 142 176 
f 142 177 176 
f 142 143 177 
f 143 178 177 
f 143 144 178 
f 144 179 178 
f 144 145 179 
f 145 180 179 
f 145 146 180 
f 146 181 180 
f 146 147 181 
f 147 182 181 
f 147 148 182 
f 148 183 182 
f 148 149 183 
f 149 184 183 
f 149 150 184 
f 150 185 184 
f 150 151 185 
f 151 186 185 
f 151 152 186 
f 152 187 186 
f 152 153 187 
f 153 188 187 
f 153 154 188 
f 154 189 188 
f 154 155 189 
f 155 190 189 
f 155 156 190 
f 156 191 190 
f 156 157 191 
f 157 192 191 
f 157 158 192 
f 158 193 192 
f 158 159 193 
f 159 194 193 
f 159 160 194 
f 160 195 194 
f 160 161 195 
f 161 196 195 
f 161 162 196 
f 162 197 196 
f 162 163 197 
f 163 198 197 
f 163 164 198 
f 164 199 198 
f 164 165 199 
f 165 200 199 
f 165 166 200 
f 166 201 200 
f 166 167 201 
f 167 202 201 
f 167 168 202 
f 168 203 202 
f 168 169 203 
f 169 204 203 
f 169 170 204 
f 170 205 204 
f 170 171 205 
f 171 172 205 
f 171 138 172 
f 172 207 206 
f 172 173 207 
f 173 208 207 
f 173 174 208 
f 174 209 208 
f 174 175 209 
f 175 210 209 
f 175 176 210 
f 176 211 210 
f 176 177 211 
f 177 212 211 
f 177 178 212 
f 178 213 212 
f 178 179 213 
f 179 214 213 
f 179 180 214 
f 180 215 214 
f 180 181 215 
f 181 216 215 
f 181 182 216 
f 182 217 216 
f 182 183 217 
f 183 218 217 
f 183 184 218 
f 184 219 218 
f 184 185 219 
f 185 220 219 
f 185 186 220 
f 186 221 220 
f 186 187 221 
f 187 222 221 
f 187 188 222 
f 188 223 222 
f 188 189 223 
f 189 224 223 
f 189 190 224 
f 190 225 224 
f 190 191 225 
f 191 226 225 
f 191 192 226 
f 192 227 226 
f 192 193 227 
f 193 228 227 
f 193 194 228 
f 194 229 228 
f 194 195 229 
f 195 230 229 
f 195 196 230 
f 196 231 230 
f 196 197 231 
f 197 232 231 
f 197 198 232 
f 198 233 232 
f 198 199 233 
f 199 234 233 
f 199 200 234 
f 200 235 234 
f 200 201 235 
f 201 236 235 
f 201 202 236 
f 202 237 236 
f 202 203 237 
f 203 238 237 
f 203 204 238 
f 204 239 238 
f 204 205 239 
f 205 206 239 
f 205 172 206 
f 206 241 240 
f 206 207 241 
f 207 242 241 
f 207 208 242 
f 208 243 242 
f 208 209 243 
f 209 244 243 
f 209 210 244 
f 210 245 244 
f 210 211 245 
f 211 246 245 
f 211 212 246 
f 212 247 246 
f 212 213 247 
f 213 248 247 
f 213 214 248 
f 214 249 248 
f 214 215 249 
f 215 250 249 
f 215 216 250 
f 216 251 250 
f 216 217 251 
f 217 252 251 
f 217 218 252 
f 218 253 252 
f 218 219 253 
f 219 254 253 
f 219 220 254 
f 220 255 254 
f 220 221 255 
f 221 256 255 
f 221 222 256 
f 222 257 256 
f 222 223 257 
f 223 258 257 
f 223 224 258 
f 224 259 258 
f 224 225 259 
f 225 260 259 
f 225 226 260 
f 226 261 260 
f 226 227 261 
f 227 262 261 
f 227 228 262 
f 228 263 262 
f 228 229 263 
f 229 264 263 
f 229 230 264 
f 230 265 264 
f 230 231 265 
f 231 266 265 
f 231 232 266 
f 232 267 266 
f 232 233 267 
f 233 268 267 
f 233 234 268 
f 234 269 268 
f 234 235 269 
f 235 270 269 
f 235 236 270 
f 236 271 270 
f 236 237 271 
f 237 272 271 
f 237 238 272 
f 238 273 272 
f 238 239 273 
f 239 240 273 
f 239 206 240 
f 240 275 274 
f 240 241 275 
f 241 276 275 
f 241 242 276 
f 242 277 276 
f 242 243 277 
f 243 278 277 
f 243 244 278 
f 244 279 278 
f 244 245 279 
f 245 280 279 
f 245 246 280 
f 246 281 280 
f 246 247 281 
f 247 282 281 
f 247 248 282 
f 248 283 282 
f 248 249 283 
f 249 284 283 
f 249 250 284 
f 250 285 284 
f 250 251 285 
f 251 286 285 
f 251 252 286 
f 252 287 286 
f 252 253 287 
f 253 288 287 
f 253 254 288 
f 254 289 288 
f 254 255 289 
f 255 290 289 
f 255 256 290 
f 256 291 290 
f 256 257 291 
f 257 292 291 
f 257 258 292 
f 258 293 292 
f 258 259 293 
f 259 294 293 
f 259 260 294 
f 260 295 294 
f 260 261 295 
f 261 296 295 
f 261 262 296 
f 262 297 296 
f 262 263 297 
f 263 298 297 
f 263 264 298 
f 264 299 298 
f 264 265 299 
f 265 300 299 
f 265 266 300 
f 266 301 300 
f 266 267 301 
f 267 302 301 
f 267 268 302 
f 268 303 302 
f 268 269 303 
f 269 304 303 
f 269 270 304 
f 270 305 304 
f 270 271 305 
f 271 306 305 
f 271 272 306 
f 272 307 306 
f 272 273 307 
f 273 274 307 
f 273 240 274 
f 274 309 308 
f 274 275 309 
f 275 310 309 
f 275 276 310 
f 276 311 310 
f 276 277 311 
f 277 312 311 
f 277 278 312 
f 278 313 312 
f 278 279 313 
f 279 314 313 
f 279 280 314 
f 280 315 314 
f 280 281 315 
f 281 316 315 
f 281 282 316 
f 282 317 316 
f 282 283 317 
f 283 318 317 
f 283 284 318 
f 284 319 318 
f 284 285 319 
f 285 320 319 
f 285 286 320 
f 286 321 320 
f 286 287 321 
f 287 322 321 
f 287 288 322 
f 288 323 322 
f 288 289 323 
f 289 324 323 
f 289 290 324 
f 290 325 324 
f 290 291 325 
f 291 326 325 
f 291 292 326 
f 292 327 326 
f 292 293 327 
f 293 328 327 
f 293 294 328 
f 294 329 328 
f 294 295 329 
f 295 330 329 
f 295 296 330 
f 296 331 330 
f 296 297 331 
f 297 332 331 
f 297 298 332 
f 298 333 332 
f 298 299 333 
f 299 334 333 
f 299 300 334 
f 300 335 334 
f 300 301 335 
f 301 336 335 
f 301 302 336 
f 302 337 336 
f 302 303 337 
f 303 338 337 
f 303 304 338 
f 304 339 338 
f 304 305 339 
f 305 340 339 
f 305 306 340 
f 306 341 340 
f 306 307 341 
f 307 308 341 
f 307 274 308 
f 308 343 342 
f 308 309 343 
f 309 344 343 
f 309 310 344 
f 310 345 344 
f 310 311 345 
f 311 346 345 
f 311 312 346 
f 312 347 346 
f 312 313 347 
f 313 348 347 
f 313 314 348 
f 314 349 348 
f 314 315 349 
f 315 350 349 
f 315 316 350 
f 316 351 350 
f 316 317 351 
f 317 352 351 
f 317 318 352 
f 318 353 352 
f 318 319 353 
f 319 354 353 
f 319 320 354 
f 320 355 354 
f 320 321 355 
f 321 356 355 
f 321 322 356 
f 322 357 356 
f 322 323 357 
f 323 358 357 
f 323 324 358 
f 324 359 358 
f 324 325 359 
f 325 360 359 
f 325 326 360 
f 326 361 360 
f 326 327 361 
f 327 362 361 
f 327 328 362 
f 328 363 362 
f 328 329 363 
f 329 364 363 
f 329 330 364 
f 330 365 364 
f 330 331 365 
f 331 366 365 
f 331 332 366 
f 332 367 366 
f 332 333 367 
f 333 368 367 
f 333 334 368 
f 334 369 368 
f 334 335 369 
f 335 370 369 
f 335 336 370 
f 336 371 370 
f 336 337 371 
f 337 372 371 
f 337 338 372 
f 338 373 372 
f 338 339 373 
f 339 374 373 
f 339 340 374 
f 340 375 374 
f 340 341 375 
f 341 342 375 
f 341 308 342 
f 342 377 376 
f 342 343 377 
f 343 378 377 
f 343 344 378 
f 344 379 378 
f 344 345 379 
f 345 380 379 
f 345 346 380 
f 346 381 380 
f 346 347 381 
f 347 382 381 
f 347 348 382 
f 348 383 382 
f 348 349 383 
f 349 384 383 
f 349 350 384 
f 350 385 384 
f 350 351 385 
f 351 386 385 
f 351 352 386 
f 352 387 386 
f 352 353 387 
f 353 388 387 
f 353 354 388 
f 354 389 388 
f 354 355 389 
f 355 390 389 
f 355 356 390 
f 356 391 390 
f 356 357 391 
f 357 392 391 
f 357 358 392 
f 358 393 392 
f 358 359 393 
f 359 394 393 
f 359 360 394 
f 360 395 394 
f 360 361 395 
f 361 396 395 
f 361 362 396 
f 362 397 396 
f 362 363 397 
f 363 398 397 
f 363 364 398 
f 364 399 398 
f 364 365 399 
f 365 400 399 
f 365 366 400 
f 366 401 400 
f 366 367 401 
f 367 402 401 
f 367 368 402 
f 368 403 402 
f 368 369 403 
f 369 404 403 
f 369 370 404 
f 370 405 404 
f 370 371 405 
f 371 406 405 
f 371 372 406 
f 372 407 406 
f 372 373 407 
f 373 408 407 
f 373 374 408 
f 374 409 408 
f 374 375 409 
f 375 376 409 
f 375 342 376 
f 376 411 410 
f 376 377 411 
f 377 412 411 
f 377 378 412 
f 378 413 412 
f 378 379 413 
f 379 414 413 
f 379 380 414 
f 380 415 414 
f 380 381 415 
f 381 416 415 
f 381 382 416 
f 382 417 416 
f 382 383 417 
f 383 418 417 
f 383 384 418 
f 384 419 418 
f 384 385 419 
f 385 420 419 
f 385 386 420 
f 386 421 420 
f 386 387 421 
f 387 422 421 
f 387 388 422 
f 388 423 422 
f 388 389 423 
f 389 424 423 
f 389 390 424 
f 390 425 424 
f 390 391 425 
f 391 426 425 
f 391 392 426 
f 392 427 426 
f 392 393 427 
f 393 428 427 
f 393 394 428 
f 394 429 428 
f 394 395 429 
f 395 430 429 
f 395 396 430 
f 396 431 430 
f 396 397 431 
f 397 432 431 
f 397 398 432 
f 398 433 432 
f 398 399 433 
f 399 434 433 
f 399 400 434 
f 400 435 434 
f 400 401 435 
f 401 436 435 
f 401 402 436 
f 402 437 436 
f 402 403 437 
f 403 438 437 
f 403 404 438 
f 404 439 438 
f 404 405 439 
f 405 440 439 
f 405 406 440 
f 406 441 440 
f 406 407 441 
f 407 442 441 
f 407 408 442 
f 408 443 442 
f 408 409 443 
f 409 410 443 
f 409 376 410 
f 410 445 444 
f 410 411 445 
f 411 446 445 
f 411 412 446 
f 412 447 446 
f 412 413 447 
f 413 448 447 
f 413 414 448 
f 414 449 448 
f 414 415 449 
f 415 450 449 
f 415 416 450 
f 416 451 450 
f 416 417 451 
f 417 452 451 
f 417 418 452 
f 418 453 452 
f 418 419 453 
f 419 454 453 
f 419 420 454 
f 420 455 454 
f 420 421 455 
f 421 456 455 
f 421 422 456 
f 422 457 456 
f 422 423 457 
f 423 458 457 
f 423 424 458 
f 424 459 458 
f 424 425 459 
f 425 460 459 
f 425 426 460 
f 426 461 460 
f 426 427 461 
f 427 462 461 
f 427 428 462 
f 428 463 462 
f 428 429 463 
f 429 464 463 
f 429 430 464 
f 430 465 464 
f 430 431 465 
f 431 466 465 
f 431 432 466 
f 432 467 466 
f 432 433 467 
f 433 468 467 
f 433 434 468 
f 434 469 468 
f 434 435 469 
f 435 470 469 
f 435 436 470 
f 436 471 470 
f 436 437 471 
f 437 472 471 
f 437 438 472 
f 438 473 472 
f 438 439 473 
f 439 474 473 
f 439 440 474 
f 440 475 474 
f 440 441 475 
f 441 476 475 
f 441 442 476 
f 442 477 476 
f 442 443 477 
f 443 444 477 
f 443 410 444 
f 444 479 478 
f 444 445 479 
f 445 480 479 
f 445 446 480 
f 446 481 480 
f 446 447 481 
f 447 482 481 
f 447 448 482 
f 448 483 482 
f 448 449 483 
f 449 484 483 
f 449 450 484 
f 450 485 484 
f 450 451 485 
f 451 486 485 
f 451 452 486 
f 452 487 486 
f 452 453 487 
f 453 488 487 
f 453 454 488 
f 454 489 488 
f 454 455 489 
f 455 490 489 
f 455 456 490 
f 456 491 490 
f 456 457 491 
f 457 492 491 
f 457 458 492 
f 458 493 492 
f 458 459 493 
f 459 494 493 
f 459 460 494 
f 460 495 494 
f 460 461 495 
f 461 496 495 
f 461 462 496 
f 462 497 496 
f 462 463 497 
f 463 498 497 
f 463 464 498 
f 464 499 498 
f 464 465 499 
f 465 500 499 
f 465 466 500 
f 466 501 500 
f 466 467 501 
f 467 502 501 
f 467 468 502 
f 468 503 502 
f 468 469 503 
f 469 504 503 
f 469 470 504 
f 470 505 504 
f 470 471 505 
f 471 506 505 
f 471 472 506 
f 472 507 506 
f 472 473 507 
f 473 508 507 
f 473 474 508 
f 474 509 508 
f 474 475 509 
f 475 510 509 
f 475 476 510 
f 476 511 510 
f 476 477 511 
f 477 478 511 
f 477 444 478 
f 478 513 512 
f 478 479 513 
f 479 514 513 
f 479 480 514 
f 480 515 514 
f 480 481 515 
f 481 516 515 
f 481 482 516 
f 482 517 516 
f 482 483 517 
f 483 518 517 
f 483 484 518 
f 484 519 518 
f 484 485 519 
f 485 520 519 
f 485 486 520 
f 486 521 520 
f 486 487 521 
f 487 522 521 
f 487 488 522 
f 488 523 522 
f 488 489 523 
f 489 524 523 
f 489 490 524 
f 490 525 524 
f 490 491 525 
f 491 526 525 
f 491 492 526 
f 492 527 526 
f 492 493 527 
f 493 528 527 
f 493 494 528 
f 494 529 528 
f 494 495 529 
f 495 530 529 
f 495 496 530 
f 496 531 530 
f 496 497 531 
f 497 532 531 
f 497 498 532 
f 498 533 532 
f 498 499 533 
f 499 534 533 
f 499 500 534 
f 500 535 534 
f 500 501 535 
f 501 536 535 
f 501 502 536 
f 502 537 536 
f 502 503 537 
f 503 538 537 
f 503 504 538 
f 504 539 538 
f 504 505 539 
f 505 540 539 
f 505 506 540 
f 506 541 540 
f 506 507 541 
f 507 542 541 
f 507 508 542 
f 508 543 542 
f 508 509 543 
f 509 544 543 
f 509 510 544 
f 510 545 544 
f 510 511 545 
f 511 512 545 
f 511 478 512 
f 512 547 546 
f 512 513 547 
f 513 548 547 
f 513 514 548 
f 514 549 548 
f 514 515 549 
f 515 550 549 
f 515 516 550 
f 516 551 550 
f 516 517 551 
f 517 552 551 
f 517 518 552 
f 518 553 552 
f 518 519 553 
f 519 554 553 
f 519 520 554 
f 520 555 554 
f 520 521 555 
f 521 556 555 
f 521 522 556 
f 522 557 556 
f 522 523 557 
f 523 558 557 
f 523 524 558 
f 524 559 558 
f 524 525 559 
f 525 560 559 
f 525 526 560 
f 526 561 560 
f 526 527 561 
f 527 562 561 
f 527 528 562 
f 528 563 562 
f 528 529 563 
f 529 564 563 
f 529 530 564 
f 530 565 564 
f 530 531 565 
f 531 566 565 
f 531 532 566 
f 532 567 566 
f 532 533 567 
f 533 568 567 
f 533 534 568 
f 534 569 568 
f 534 535 569 
f 535 570 569 
f 535 536 570 
f 536 571 570 
f 536 537 571 
f 537 572 571 
f 537 538 572 
f 538 573 572 
f 538 539 573 
f 539 574 573 
f 539 540 574 
f 540 575 574 
f 540 541 575 
f 541 576 575 
f 541 542 576 
f 542 577 576 
f 542 543 577 
f 543 578 577 
f 543 544 578 
f 544 579 578 
f 544 545 579 
f 545 546 579 
f 545 512 546 
f 546 581 580 
f 546 547 581 
f 547 582 581 
f 547 548 582 
f 548 583 582 
f 548 549 583 
f 549 584 583 
f 549 550 584 
f 550 585 584 
f 550 551 585 
f 551 586 585 
f 551 552 586 
f 552 587 586 
f 552 553 587 
f 553 588 587 
f 553 554 588 
f 554 589 588 
f 554 555 589 
f 555 590 589 
f 555 556 590 
f 556 591 590 
f 556 557 591 
f 557 592 591 
f 557 558 592 
f 558 593 592 
f 558 559 593 
f 559 594 593 
f 559 560 594 
f 560 595 594 
f 560 561 595 
f 561 596 595 
f 561 562 596 
f 562 597 596 
f 562 563 597 
f 563 598 597 
f 563 564 598 
f 564 599 598 
f 564 565 599 
f 565 600 599 
f 565 566 600 
f 566 601 600 
f 566 567 601 
f 567 602 601 
f 567 568 602 
f 568 603 602 
f 568 569 603 
f 569 604 603 
f 569 570 604 
f 570 605 604 
f 570 571 605 
f 571 606 605 
f 571 572 606 
f 572 607 606 
f 572 573 607 
f 573 608 607 
f 573 574 608 
f 574 609 608 
f 574 575 609 
f 575 610 609 
f 575 576 610 
f 576 611 610 
f 576 577 611 
f 577 612 611 
f 577 578 612 
f 578 613 612 
f 578 579 613 
f 579 580 613 
f 579 546 580 
f 580 615 614 
f 580 581 615 
f 581 616 615 
f 581 582 616 
f 582 617 616 
f 582 583 617 
f 583 618 617 
f 583 584 618 
f 584 619 618 
f 584 585 619 
f 585 620 619 
f 585 586 620 
f 586 621 620 
f 586 587 621 
f 587 622 621 
f 587 588 622 
f 588 623 622 
f 588 589 623 
f 589 624 623 
f 589 590 624 
f 590 625 624 
f 590 591 625 
f 591 626 625 
f 591 592 626 
f 592 627 626 
f 592 593 627 
f 593 628 627 
f 593 594 628 
f 594 629 628 
f 594 595 629 
f 595 630 629 
f 595 596 630 
f 596 631 630 
f 596 597 631 
f 597 632 631 
f 597 598 632 
f 598 633 632 
f 598 599 633 
f 599 634 633 
f 599 600 634 
f 600 635 634 
f 600 601 635 
f 601 636 635 
f 601 602 636 
f 602 637 636 
f 602 603 637 
f 603 638 637 
f 603 604 638 
f 604 639 638 
f 604 605 639 
f 605 640 639 
f 605 606 640 
f 606 641 640 
f 606 607 641 
f 607 642 641 
f 607 608 642 
f 608 643 642 
f 608 609 643 
f 609 644 643 
f 609 610 644 
f 610 645 644 
f 610 611 645 
f 611 646 645 
f 611 612 646 
f 612 647 646 
f 612 613 647 
f 613 614 647 
f 613 580 614 
f 614 649 648 
f 614 615 649 
f 615 650 649 
f 615 616 650 
f 616 651 650 
f 616 617 651 
f 617 652 651 
f 617 618 652 
f 618 653 652 
f 618 619 653 
f 619 654 653 
f 619 620 654 
f 620 655 654 
f 620 621 655 
f 621 656 655 
f 621 622 656 
f 622 657 656 
f 622 623 657 
f 623 658 657 
f 623 624 658 
f 624 659 658 
f 624 625 659 
f 625 660 659 
f 625 626 660 
f 626 661 660 
f 626 627 661 
f 627 662 661 
f 627 628 662 
f 628 663 662 
f 628 629 663 
f 629 664 663 
f 629 630 664 
f 630 665 664 
f 630 631 665 
f 631 666 665 
f 631 632 666 
f 632 667 666 
f 632 633 667 
f 633 668 667 
f 633 634 668 
f 634 669 668 
f 634 635 669 
f 635 670 669 
f 635 636 670 
f 636 671 670 
f 636 637 671 
f 637 672 671 
f 637 638 672 
f 638 673 672 
f 638 639 673 
f 639 674 673 
f 639 640 674 
f 640 675 674 
f 640 641 675 
f 641 676 675 
f 641 642 676 
f 642 677 676 
f 642 643 677 
f 643 678 677 
f 643 644 678 
f 644 679 678 
f 644 645 679 
f 645 680 679 
f 645 646 680 
f 646 681 680 
f 646 647 681 
f 647 648 681 
f 647 614 648 
f 648 683 682 
f 648 649 683 
f 649 684 683 
f 649 650 684 
f 650 685 684 
f 650 651 685 
f 651 686 685 
f 651 652 686 
f 652 687 686 
f 652 653 687 
f 653 688 687 
f 653 654 688 
f 654 689 688 
f 654 655 689 
f 655 690 689 
f 655 656 690 
f 656 691 690 
f 656 657 691 
f 657 692 691 
f 657 658 692 
f 658 693 692 
f 658 659 693 
f 659 694 693 
f 659 660 694 
f 660 695 694 
f 660 661 695 
f 661 696 695 
f 661 662 696 
f 662 697 696 
f 662 663 697 
f 663 698 697 
f 663 664 698 
f 664 699 698 
f 664 665 699 
f 665 700 699 
f 665 666 700 
f 666 701 700 
f 666 667 701 
f 667 702 701 
f 667 668 702 
f 668 703 702 
f 668 669 703 
f 669 704 703 
f 669 670 704 
f 670 705 704 
f 670 671 705 
f 671 706 705 
f 671 672 706 
f 672 707 706 
f 672 673 707 
f 673 708 707 
f 673 674 708 
f 674 709 708 
f 674 675 709 
f 675 710 709 
f 675 676 710 
f 676 711 710 
f 676 677 711 
f 677 712 711 
f 677 678 712 
f 678 713 712 
f 678 679 713 
f 679 714 713 
f 679 680 714 
f 680 715 714 
f 680 681 715 
f 681 682 715 
f 681 648 682 
f 682 717 716 
f 682 683 717 
f 683 718 717 
f 683 684 718 
f 684 719 718 
f 684 685 719 
f 685 720 719 
f 685 686 720 
f 686 721 720 
f 686 687 721 
f 687 722 721 
f 687 688 722 
f 688 723 722 
f 688 689 723 
f 689 724 723 
f 689 690 724 
f 690 725 724 
f 690 691 725 
f 691 726 725 
f 691 692 726 
f 692 727 726 
f 692 693 727 
f 693 728 727 
f 693 694 728 
f 694 729 728 
f 694 695 729 
f 695 730 729 
f 695 696 730 
f 696 731 730 
f 696 697 731 
f 697 732 731 
f 697 698 732 
f 698 733 732 
f 698 699 733 
f 699 734 733 
f 699 700 734 
f 700 735 734 
f 700 701 735 
f 701 736 735 
f 701 702 736 
f 702 737 736 
f 702 703 737 
f 703 738 737 
f 703 704 738 
f 704 739 738 
f 704 705 739 
f 705 740 739 
f 705 706 740 
f 706 741 740 
f 706 707 741 
f 707 742 741 
f 707 708 742 
f 708 743 742 
f 708 709 743 
f 709 744 743 
f 709 710 744 
f 710 745 744 
f 710 711 745 
f 711 746 745 
f 711 712 746 
f 712 747 746 
f 712 713 747 
f 713 748 747 
f 713 714 748 
f 714 749 748 
f 714 715 749 
f 715 716 749 
f 715 682 716 
f 716 751 750 
f 716 717 751 
f 717 752 751 
f 717 718 752 
f 718 753 752 
f 718 719 753 
f 719 754 753 
f 719 720 754 
f 720 755 754 
f 720 721 755 
f 721 756 755 
f 721 722 756 
f 722 757 756 
f 722 723 757 
f 723 758 757 
f 723 724 758 
f 724 759 758 
f 724 725 759 
f 725 760 759 
f 725 726 760 
f 726 761 760 
f 726 727 761 
f 727 762 761 
f 727 728 762 
f 728 763 762 
f 728 729 763 
f 729 764 763 
f 729 730 764 
f 730 765 764 
f 730 731 765 
f 731 766 765 
f 731 732 766 
f 732 767 766 
f 732 733 767 
f 733 768 767 
f 733 734 768 
f 734 769 768 
f 734 735 769 
f 735 770 769 
f 735 736 770 
f 736 771 770 
f 736 737 771 
f 737 772 771 
f 737 738 772 
f 738 773 772 
f 738 739 773 
f 739 774 773 
f 739 740 774 
f 740 775 774 
f 740 741 775 
f 741 776 775 
f 741 742 776 
f 742 777 776 
f 742 743 777 
f 743 778 777 
f 743 744 778 
f 744 779 778 
f 744 745 779 
f 745 780 779 
f 745 746 780 
f 746 781 780 
f 746 747 781 
f 747 782 781 
f 747 748 782 
f 748 783 782 
f 748 749 783 
f 749 750 783 
f 749 716 750 
f 750 785 784 
f 750 751 785 
f 751 786 785 
f 751 752 786 
f 752 787 786 
f 752 753 787 
f 753 788 787 
f 753 754 788 
f 754 789 788 
f 754 755 789 
f 755 790 789 
f 755 756 790 
f 756 791 790 
f 756 757 791 
f 757 792 791 
f 757 758 792 
f 758 793 792 
f 758 759 793 
f 759 794 793 
f 759 760 794 
f 760 795 794 
f 760 761 795 
f 761 796 795 
f 761 762 796 
f 762 797 796 
f 762 763 797 
f 763 798 797 
f 763 764 798 
f 764 799 798 
f 764 765 799 
f 765 800 799 
f 765 766 800 
f 766 801 800 
f 766 767 801 
f 767 802 801 
f 767 768 802 
f 768 803 802 
f 768 769 803 
f 769 804 803 
f 769 770 804 
f 770 805 804 
f 770 771 805 
f 771 806 805 
f 771 772 806 
f 772 807 806 
f 772 773 807 
f 773 808 807 
f 773 774 808 
f 774 809 808 
f 774 775 809 
f 775 810 809 
f 775 776 810 
f 776 811 810 
f 776 777 811 
f 777 812 811 
f 777 778 812 
f 778 813 812 
f 778 779 813 
f 779 814 813 
f 779 780 814 
f 780 815 814 
f 780 781 815 
f 781 816 815 
f 781 782 816 
f 782 817 816 
f 782 783 817 
f 783 784 817 
f 783 750 784 
f 784 819 818 
f 784 785 819 
f 785 820 819 
f 785 786 820 
f 786 821 820 
f 786 787 821 
f 787 822 821 
f 787 788 822 
f 788 823 822 
f 788 789 823 
f 789 824 823 
f 789 790 824 
f 790 825 824 
f 790 791 825 
f 791 826 825 
f 791 792 826 
f 792 827 826 
f 792 793 827 
f 793 828 827 
f 793 794 828 
f 794 829 828 
f 794 795 829 
f 795 830 829 
f 795 796 830 
f 796 831 830 
f 796 797 831 
f 797 832 831 
f 797 798 832 
f 798 833 832 
f 798 799 833 
f 799 834 833 
f 799 800 834 
f 800 835 834 
f 800 801 835 
f 801 836 835 
f 801 802 836 
f 802 837 836 
f 802 803 837 
f 803 838 837 
f 803 804 838 
f 804 839 838 
f 804 805 839 
f 805 840 839 
f 805 806 840 
f 806 841 840 
f 806 807 841 
f 807 842 841 
f 807 808 842 
f 808 843 842 
f 808 809 843 
f 809 844 843 
f 809 810 844 
f 810 845 844 
f 810 811 845 
f 811 846 845 
f 811 812 846 
f 812 847 846 
f 812 813 847 
f 813 848 847 
f 813 814 848 
f 814 849 848 
f 814 815 849 
f 815 850 849 
f 815 816 850 
f 816 851 850 
f 816 817 851 
f 817 818 851 
f 817 784 818 
f 818 853 852 
f 818 819 853 
f 819 854 853 
f 819 820 854 
f 820 855 854 
f 820 821 855 
f 821 856 855 
f 821 822 856 
f 822 857 856 
f 822 823 857 
f 823 858 857 
f 823 824 858 
f 824 859 858 
f 824 825 859 
f 825 860 859 
f 825 826 860 
f 826 861 860 
f 826 827 861 
f 827 862 861 
f 827 828 862 
f 828 863 862 
f 828 829 863 
f 829 864 863 
f 829 830 864 
f 830 865 864 
f 830 831 865 
f 831 866 865 
f 831 832 866 
f 832 867 866 
f 832 833 867 
f 833 868 867 
f 833 834 868 
f 834 869 868 
f 834 835 869 
f 835 870 869 
f 835 836 870 
f 836 871 870 
f 836 837 871 
f 837 872 871 
f 837 838 872 
f 838 873 872 
f 838 839 873 
f 839 874 873 
f 839 840 874 
f 840 875 874 
f 840 841 875 
f 841 876 875 
f 841 842 876 
f 842 877 876 
f 842 843 877 
f 843 878 877 
f 843 844 878 
f 844 879 878 
f 844 845 879 
f 845 880 879 
f 845 846 880 
f 846 881 880 
f 846 847 881 
f 847 882 881 
f 847 848 882 
f 848 883 882 
f 848 849 883 
f 849 884 883 
f 849 850 884 
f 850 885 884 
f 850 851 885 
f 851 852 885 
f 851 818 852 
f 886 852 853 
f 886 853 854 
f 886 854 855 
f 886 855 856 
f 886 856 857 
f 886 857 858 
f 886 858 859 
f 886 859 860 
f 886 860 861 
f 886 861 862 
f 886 862 863 
f 886 863 864 
f 886 864 865 
f 886 865 866 
f 886 866 867 
f 886 867 868 
f 886 868 869 
f 886 869 870 
f 886 870 871 
f 886 871 872 
f 886 872 873 
f 886 873 874 
f 886 874 875 
f 886 875 876 
f 886 876 877 
f 886 877 878 
f 886 878 879 
f 886 879 880 
f 886 880 881 
f 886 881 882 
f 886 882 883 
f 886 883 884 
f 886 884 885 
f 886 885 852 
