# NV = 8 NF = 12
v 13.4702 -15.1691 -8.3675
v 12.2503 -15.1691 -9.7382
v 13.4702 -15.1691 -9.7382
v 12.2503 -0.09 -8.3675
v 13.4702 -0.09 -8.3675
v 12.2503 -0.09 -9.7382
v 13.4702 -0.09 -9.7382
v 12.2503 -15.1691 -8.3675
f 8 2 3 
f 3 1 8 
f 4 5 7 
f 7 6 4 
f 8 1 5 
f 5 4 8 
f 1 3 7 
f 7 5 1 
f 3 2 6 
f 6 7 3 
f 2 8 4 
f 4 6 2 
