# Exported graph model [Table9] by TopoBlender

# Starting mesh Top
v 0.0109642 0.00381806 0.627554
v 1.25821 0.22374 0.627554
v 1.27745 0.00381806 0.627554
v 1.20106 0.436979 0.627554
v 1.10777 0.637057 0.627554
v 0.981145 0.817894 0.627554
v 0.825039 0.974 0.627554
v 0.644204 1.10062 0.627554
v 0.444126 1.19392 0.627554
v 0.230887 1.25105 0.627554
v 0.0109642 1.27029 0.627554
v -0.208958 1.25105 0.627554
v -0.422197 1.19392 0.627554
v -0.622275 1.10062 0.627554
v -0.803112 0.974 0.627554
v -0.959218 0.817894 0.627554
v -1.08585 0.637057 0.627554
v -1.17914 0.436979 0.627554
v -1.23628 0.22374 0.627554
v -1.25551 0.00381684 0.627554
v -1.23628 -0.216105 0.627554
v -1.17914 -0.429344 0.627554
v -1.08585 -0.629422 0.627554
v -0.959218 -0.810264 0.627554
v -0.803112 -0.966357 0.627554
v -0.622275 -1.09299 0.627554
v -0.422197 -1.18629 0.627554
v -0.208958 -1.24342 0.627554
v 0.0109654 -1.26266 0.627554
v 0.230887 -1.24342 0.627554
v 0.444126 -1.18628 0.627554
v 0.644204 -1.09299 0.627554
v 0.825039 -0.966357 0.627554
v 0.981145 -0.810257 0.627554
v 1.10777 -0.629422 0.627554
v 1.20106 -0.429344 0.627554
v 1.25821 -0.216104 0.627554
v 1.27068 0.225939 0.646738
v 1.29012 0.00381806 0.646738
v 1.21296 0.441311 0.646738
v 1.11874 0.64339 0.646738
v 0.990849 0.826036 0.646738
v 0.833181 0.983697 0.646738
v 0.650537 1.11159 0.646738
v 0.448457 1.20582 0.646738
v 0.233085 1.26352 0.646738
v 0.0109642 1.28296 0.646738
v -0.211158 1.26352 0.646738
v -0.42653 1.20582 0.646738
v -0.628608 1.11159 0.646738
v -0.811255 0.983697 0.646738
v -0.968915 0.826036 0.646738
v -1.09682 0.64339 0.646738
v -1.19104 0.441311 0.646738
v -1.24875 0.225939 0.646738
v -1.26818 0.00381684 0.646738
v -1.24875 -0.218304 0.646738
v -1.19104 -0.433676 0.646738
v -1.0968 -0.635755 0.646738
v -0.968915 -0.818399 0.646738
v -0.811255 -0.97606 0.646738
v -0.628608 -1.10395 0.646738
v -0.426529 -1.19818 0.646738
v -0.211157 -1.25589 0.646738
v 0.0109654 -1.27532 0.646738
v 0.233086 -1.25589 0.646738
v 0.448457 -1.19818 0.646738
v 0.650537 -1.10395 0.646738
v 0.833181 -0.97606 0.646738
v 0.990849 -0.818399 0.646738
v 1.11874 -0.635754 0.646738
v 1.21296 -0.433676 0.646738
v 1.27068 -0.218304 0.646738
v 1.27068 0.225939 0.66621
v 1.29012 0.00381806 0.66621
v 1.21296 0.441311 0.66621
v 1.11874 0.64339 0.66621
v 0.990849 0.826036 0.66621
v 0.833181 0.983697 0.66621
v 0.650537 1.11159 0.66621
v 0.448457 1.20582 0.66621
v 0.233085 1.26352 0.66621
v 0.0109642 1.28296 0.66621
v -0.211158 1.26352 0.66621
v -0.42653 1.20582 0.66621
v -0.628608 1.11159 0.66621
v -0.811255 0.983697 0.66621
v -0.968915 0.826036 0.66621
v -1.09682 0.64339 0.66621
v -1.19104 0.441311 0.66621
v -1.24875 0.225939 0.66621
v -1.26818 0.00381684 0.66621
v -1.24875 -0.218304 0.66621
v -1.19104 -0.433676 0.66621
v -1.0968 -0.635755 0.66621
v -0.968915 -0.818399 0.66621
v -0.811255 -0.97606 0.66621
v -0.628608 -1.10395 0.66621
v -0.426529 -1.19818 0.66621
v -0.211157 -1.25589 0.66621
v 0.0109654 -1.27532 0.66621
v 0.233086 -1.25589 0.66621
v 0.448457 -1.19818 0.66621
v 0.650537 -1.10395 0.66621
v 0.833181 -0.97606 0.66621
v 0.990849 -0.818399 0.66621
v 1.11874 -0.635754 0.66621
v 1.21296 -0.433676 0.66621
v 1.27068 -0.218304 0.66621
v 1.25821 0.22374 0.685395
v 1.27745 0.00381806 0.685395
v 1.20106 0.436979 0.685395
v 1.10777 0.637057 0.685395
v 0.981145 0.817894 0.685395
v 0.825039 0.974 0.685395
v 0.644204 1.10062 0.685395
v 0.444126 1.19392 0.685395
v 0.230887 1.25105 0.685395
v 0.0109642 1.27029 0.685395
v -0.208958 1.25105 0.685395
v -0.422197 1.19392 0.685395
v -0.622275 1.10062 0.685395
v -0.803112 0.974 0.685395
v -0.959218 0.817894 0.685395
v -1.08585 0.637057 0.685395
v -1.17914 0.436979 0.685395
v -1.23628 0.22374 0.685395
v -1.25551 0.00381684 0.685395
v -1.23628 -0.216105 0.685395
v -1.17914 -0.429344 0.685395
v -1.08585 -0.629422 0.685395
v -0.959218 -0.810264 0.685395
v -0.803112 -0.966357 0.685395
v -0.622275 -1.09299 0.685395
v -0.422197 -1.18629 0.685395
v -0.208958 -1.24342 0.685395
v 0.0109654 -1.26266 0.685395
v 0.230887 -1.24342 0.685395
v 0.444126 -1.18628 0.685395
v 0.644204 -1.09299 0.685395
v 0.825039 -0.966357 0.685395
v 0.981145 -0.810257 0.685395
v 1.10777 -0.629422 0.685395
v 1.20106 -0.429344 0.685395
v 1.25821 -0.216104 0.685395
v 0.0109642 0.00381806 0.685395
g Top
f 3 1 2 
f 2 1 4 
f 4 1 5 
f 5 1 6 
f 6 1 7 
f 7 1 8 
f 8 1 9 
f 9 1 10 
f 10 1 11 
f 11 1 12 
f 12 1 13 
f 13 1 14 
f 14 1 15 
f 15 1 16 
f 16 1 17 
f 17 1 18 
f 18 1 19 
f 19 1 20 
f 20 1 21 
f 21 1 22 
f 22 1 23 
f 23 1 24 
f 24 1 25 
f 25 1 26 
f 26 1 27 
f 27 1 28 
f 28 1 29 
f 29 1 30 
f 30 1 31 
f 31 1 32 
f 32 1 33 
f 33 1 34 
f 34 1 35 
f 35 1 36 
f 36 1 37 
f 37 1 3 
f 39 3 38 
f 38 3 2 
f 38 2 40 
f 40 2 4 
f 40 4 41 
f 41 4 5 
f 41 5 42 
f 42 5 6 
f 42 6 43 
f 43 6 7 
f 43 7 44 
f 44 7 8 
f 44 8 45 
f 45 8 9 
f 45 9 46 
f 46 9 10 
f 46 10 47 
f 47 10 11 
f 47 11 48 
f 48 11 12 
f 48 12 49 
f 49 12 13 
f 49 13 50 
f 50 13 14 
f 50 14 51 
f 51 14 15 
f 51 15 52 
f 52 15 16 
f 52 16 53 
f 53 16 17 
f 53 17 54 
f 54 17 18 
f 54 18 55 
f 55 18 19 
f 55 19 56 
f 56 19 20 
f 56 20 57 
f 57 20 21 
f 57 21 58 
f 58 21 22 
f 58 22 59 
f 59 22 23 
f 59 23 60 
f 60 23 24 
f 60 24 61 
f 61 24 25 
f 61 25 62 
f 62 25 26 
f 62 26 63 
f 63 26 27 
f 63 27 64 
f 64 27 28 
f 64 28 65 
f 65 28 29 
f 65 29 66 
f 66 29 30 
f 66 30 67 
f 67 30 31 
f 67 31 68 
f 68 31 32 
f 68 32 69 
f 69 32 33 
f 69 33 70 
f 70 33 34 
f 70 34 71 
f 71 34 35 
f 71 35 72 
f 72 35 36 
f 72 36 73 
f 73 36 37 
f 73 37 39 
f 39 37 3 
f 75 39 74 
f 74 39 38 
f 74 38 76 
f 76 38 40 
f 76 40 77 
f 77 40 41 
f 77 41 78 
f 78 41 42 
f 78 42 79 
f 79 42 43 
f 79 43 80 
f 80 43 44 
f 80 44 81 
f 81 44 45 
f 81 45 82 
f 82 45 46 
f 82 46 83 
f 83 46 47 
f 83 47 84 
f 84 47 48 
f 84 48 85 
f 85 48 49 
f 85 49 86 
f 86 49 50 
f 86 50 87 
f 87 50 51 
f 87 51 88 
f 88 51 52 
f 88 52 89 
f 89 52 53 
f 89 53 90 
f 90 53 54 
f 90 54 91 
f 91 54 55 
f 91 55 92 
f 92 55 56 
f 92 56 93 
f 93 56 57 
f 93 57 94 
f 94 57 58 
f 94 58 95 
f 95 58 59 
f 95 59 96 
f 96 59 60 
f 96 60 97 
f 97 60 61 
f 97 61 98 
f 98 61 62 
f 98 62 99 
f 99 62 63 
f 99 63 100 
f 100 63 64 
f 100 64 101 
f 101 64 65 
f 101 65 102 
f 102 65 66 
f 102 66 103 
f 103 66 67 
f 103 67 104 
f 104 67 68 
f 104 68 105 
f 105 68 69 
f 105 69 106 
f 106 69 70 
f 106 70 107 
f 107 70 71 
f 107 71 108 
f 108 71 72 
f 108 72 109 
f 109 72 73 
f 109 73 75 
f 75 73 39 
f 111 75 110 
f 110 75 74 
f 110 74 112 
f 112 74 76 
f 112 76 113 
f 113 76 77 
f 113 77 114 
f 114 77 78 
f 114 78 115 
f 115 78 79 
f 115 79 116 
f 116 79 80 
f 116 80 117 
f 117 80 81 
f 117 81 118 
f 118 81 82 
f 118 82 119 
f 119 82 83 
f 119 83 120 
f 120 83 84 
f 120 84 121 
f 121 84 85 
f 121 85 122 
f 122 85 86 
f 122 86 123 
f 123 86 87 
f 123 87 124 
f 124 87 88 
f 124 88 125 
f 125 88 89 
f 125 89 126 
f 126 89 90 
f 126 90 127 
f 127 90 91 
f 127 91 128 
f 128 91 92 
f 128 92 129 
f 129 92 93 
f 129 93 130 
f 130 93 94 
f 130 94 131 
f 131 94 95 
f 131 95 132 
f 132 95 96 
f 132 96 133 
f 133 96 97 
f 133 97 134 
f 134 97 98 
f 134 98 135 
f 135 98 99 
f 135 99 136 
f 136 99 100 
f 136 100 137 
f 137 100 101 
f 137 101 138 
f 138 101 102 
f 138 102 139 
f 139 102 103 
f 139 103 140 
f 140 103 104 
f 140 104 141 
f 141 104 105 
f 141 105 142 
f 142 105 106 
f 142 106 143 
f 143 106 107 
f 143 107 144 
f 144 107 108 
f 144 108 145 
f 145 108 109 
f 145 109 111 
f 111 109 75 
f 110 146 111 
f 112 146 110 
f 113 146 112 
f 114 146 113 
f 115 146 114 
f 116 146 115 
f 117 146 116 
f 118 146 117 
f 119 146 118 
f 120 146 119 
f 121 146 120 
f 122 146 121 
f 123 146 122 
f 124 146 123 
f 125 146 124 
f 126 146 125 
f 127 146 126 
f 128 146 127 
f 129 146 128 
f 130 146 129 
f 131 146 130 
f 132 146 131 
f 133 146 132 
f 134 146 133 
f 135 146 134 
f 136 146 135 
f 137 146 136 
f 138 146 137 
f 139 146 138 
f 140 146 139 
f 141 146 140 
f 142 146 141 
f 143 146 142 
f 144 146 143 
f 145 146 144 
f 111 146 145 
# End of mesh Top

# Starting mesh Leg1
v 0.929169 -0.368113 -0.0618319
v 1.03559 -0.41774 -0.0618319
v 0.985961 -0.524162 -0.0618319
v 0.879541 -0.474537 -0.0618319
v 0.879541 -0.474535 0.627554
v 0.929169 -0.368113 0.627554
v 0.985961 -0.524162 0.627554
v 1.03559 -0.41774 0.627554
g Leg1
f 149 147 148 
f 149 150 147 
f 151 147 150 
f 152 147 151 
f 153 150 149 
f 151 150 153 
f 154 149 148 
f 153 149 154 
f 152 148 147 
f 154 148 152 
f 154 151 153 
f 151 154 152 
# End of mesh Leg1

# Starting mesh Leg8
v 0.397688 -0.916073 -0.0618319
v 0.437849 -1.02642 -0.0618319
v 0.327506 -1.06658 -0.0618319
v 0.287346 -0.95624 -0.0618319
v 0.287346 -0.95624 0.627554
v 0.397688 -0.916073 0.627554
v 0.327506 -1.06658 0.627554
v 0.437849 -1.02642 0.627554
g Leg8
f 157 155 156 
f 158 155 157 
f 159 155 158 
f 160 155 159 
f 161 158 157 
f 159 158 161 
f 162 157 156 
f 161 157 162 
f 160 156 155 
f 162 156 160 
f 160 161 162 
f 161 160 159 
# End of mesh Leg8

# Starting mesh Leg7
v -0.365588 -0.927725 -0.0618319
v -0.415213 -1.03414 -0.0618319
v -0.521636 -0.984524 -0.0618319
v -0.47201 -0.878098 -0.0618319
v -0.47201 -0.878098 0.627554
v -0.365588 -0.927725 0.627554
v -0.521637 -0.984524 0.627554
v -0.415213 -1.03414 0.627554
g Leg7
f 165 163 164 
f 166 163 165 
f 167 163 166 
f 168 163 167 
f 169 166 165 
f 167 166 169 
f 170 165 164 
f 169 165 170 
f 168 164 163 
f 170 164 168 
f 168 169 170 
f 169 168 167 
# End of mesh Leg7

# Starting mesh Leg6
v -0.913547 -0.396249 -0.0618307
v -1.02389 -0.436411 -0.0618307
v -1.06405 -0.326068 -0.0618307
v -0.953707 -0.285906 -0.0618307
v -0.953707 -0.285906 0.627554
v -0.913547 -0.396249 0.627554
v -1.06405 -0.326068 0.627554
v -1.02389 -0.436411 0.627554
g Leg6
f 173 171 172 
f 174 171 173 
f 175 171 174 
f 176 171 175 
f 177 174 173 
f 175 174 177 
f 178 173 172 
f 177 173 178 
f 176 172 171 
f 178 172 176 
f 175 178 176 
f 178 175 177 
# End of mesh Leg6

# Starting mesh Leg5
v -1.03163 0.416653 -0.0618307
v -0.981998 0.523075 -0.0618307
v -0.875578 0.473451 -0.0618307
v -0.925199 0.36703 -0.0618307
v -0.875578 0.473451 0.627554
v -0.925199 0.36703 0.627554
v -0.981998 0.523075 0.627554
v -1.03163 0.416653 0.627554
g Leg5
f 181 179 180 
f 182 179 181 
f 183 182 181 
f 184 182 183 
f 185 181 180 
f 183 181 185 
f 186 180 179 
f 185 180 186 
f 184 179 182 
f 186 179 184 
f 183 186 184 
f 186 183 185 
# End of mesh Leg5

# Starting mesh Leg4
v -0.393724 0.914984 -0.0618307
v -0.433886 1.02533 -0.0618307
v -0.323543 1.06549 -0.0618307
v -0.283381 0.95515 -0.0618307
v -0.283381 0.95515 0.627554
v -0.393724 0.914984 0.627554
v -0.323543 1.06549 0.627554
v -0.433886 1.02533 0.627554
g Leg4
f 189 187 188 
f 190 187 189 
f 191 187 190 
f 192 187 191 
f 193 190 189 
f 191 190 193 
f 194 189 188 
f 193 189 194 
f 192 188 187 
f 194 188 192 
f 194 191 193 
f 191 194 192 
# End of mesh Leg4

# Starting mesh Leg3
v 0.525601 0.983435 -0.0618307
v 0.475975 0.877015 -0.0618307
v 0.369553 0.926643 -0.0618307
v 0.419178 1.03306 -0.0618307
v 0.475975 0.877015 0.627554
v 0.369553 0.926643 0.627554
v 0.525601 0.983435 0.627554
v 0.419178 1.03306 0.627554
g Leg3
f 197 195 196 
f 198 195 197 
f 199 197 196 
f 200 197 199 
f 201 196 195 
f 199 196 201 
f 202 195 198 
f 201 195 202 
f 200 198 197 
f 202 198 200 
f 201 200 199 
f 200 201 202 
# End of mesh Leg3

# Starting mesh Leg2
v 1.06801 0.324981 -0.0618319
v 0.95767 0.28482 -0.0618319
v 0.91751 0.395162 -0.0618319
v 1.02785 0.435324 -0.0618319
v 0.95767 0.28482 0.627554
v 0.91751 0.395162 0.627554
v 1.06801 0.324981 0.627554
v 1.02785 0.435324 0.627554
g Leg2
f 205 203 204 
f 206 203 205 
f 207 205 204 
f 208 205 207 
f 209 204 203 
f 207 204 209 
f 210 203 206 
f 209 203 210 
f 208 206 205 
f 210 206 208 
f 210 207 209 
f 207 210 208 
# End of mesh Leg2

# Starting mesh UnderbarB1
v -0.451915 -0.973928 0.0540107
v -0.438956 -0.946142 0.0540107
v 0.975365 -0.454433 0.0540107
v 0.947579 -0.441477 0.0540107
v 0.947579 -0.441477 0.232807
v -0.438956 -0.946142 0.232807
v -0.451915 -0.973928 0.232807
v 0.975365 -0.454433 0.232807
g UnderbarB1
f 211 216 212 
f 211 217 216 
f 218 214 215 
f 218 213 214 
f 211 214 213 
f 211 212 214 
f 216 214 212 
f 215 214 216 
f 218 211 213 
f 217 211 218 
f 215 217 218 
f 216 217 215 
# End of mesh UnderbarB1

# Starting mesh UnderbarB5
v -0.971402 0.453353 0.0540107
v -0.943616 0.440396 0.0540107
v 0.455879 0.972845 0.0540107
v 0.442921 0.945053 0.0540107
v 0.442921 0.945053 0.232807
v -0.943616 0.440396 0.232807
v -0.971402 0.453353 0.232807
v 0.455879 0.972845 0.232807
g UnderbarB5
f 220 224 219 
f 224 225 219 
f 223 222 226 
f 222 221 226 
f 221 220 219 
f 221 222 220 
f 223 220 222 
f 224 220 223 
f 225 221 219 
f 226 221 225 
f 224 226 225 
f 223 226 224 
# End of mesh UnderbarB5

# Starting mesh UnderbarB2
v -0.451915 -0.973928 0.0540107
v -0.971402 0.453353 0.0540107
v -0.943616 0.440396 0.0540107
v -0.438956 -0.946142 0.0540107
v -0.943616 0.440396 0.232807
v -0.438956 -0.946142 0.232807
v -0.451915 -0.973928 0.232807
v -0.971402 0.453353 0.232807
g UnderbarB2
f 233 230 232 
f 233 227 230 
f 228 231 229 
f 228 234 231 
f 229 227 228 
f 230 227 229 
f 231 230 229 
f 232 230 231 
f 233 228 227 
f 234 228 233 
f 233 231 234 
f 233 232 231 
# End of mesh UnderbarB2

# Starting mesh UnderbarB6
v 0.455879 0.972845 0.0540107
v 0.442921 0.945053 0.0540107
v 0.975365 -0.454433 0.0540107
v 0.947579 -0.441477 0.0540107
v 0.442921 0.945053 0.232807
v 0.947579 -0.441477 0.232807
v 0.975365 -0.454433 0.232807
v 0.455879 0.972845 0.232807
g UnderbarB6
f 242 236 239 
f 242 235 236 
f 237 240 238 
f 237 241 240 
f 237 236 235 
f 237 238 236 
f 240 236 238 
f 239 236 240 
f 242 237 235 
f 241 237 242 
f 239 241 242 
f 240 241 239 
# End of mesh UnderbarB6

# Starting mesh UnderbarA1
v -1.00726 -0.367874 0.0540107
v -0.978449 -0.357391 0.0540107
v 0.369315 -1.00978 0.0540107
v 0.358829 -0.980968 0.0540107
v 0.358829 -0.980968 0.232807
v -0.978449 -0.357391 0.232808
v -1.00726 -0.367874 0.232807
v 0.369315 -1.00978 0.232807
g UnderbarA1
f 243 249 244 
f 249 248 244 
f 250 246 247 
f 250 245 246 
f 243 246 245 
f 243 244 246 
f 248 246 244 
f 247 246 248 
f 250 243 245 
f 249 243 250 
f 247 249 250 
f 248 249 247 
# End of mesh UnderbarA1

# Starting mesh UnderbarB4
v -0.365352 1.00869 0.0540107
v -0.354865 0.979885 0.0540107
v 1.01122 0.366791 0.0540107
v 0.982411 0.356304 0.0540107
v 0.982411 0.356304 0.232807
v -0.354865 0.979885 0.232807
v -0.365352 1.00869 0.232807
v 1.01122 0.366791 0.232807
g UnderbarB4
f 257 252 256 
f 257 251 252 
f 255 254 258 
f 254 253 258 
f 253 252 251 
f 253 254 252 
f 255 252 254 
f 256 252 255 
f 257 253 251 
f 258 253 257 
f 256 258 257 
f 255 258 256 
# End of mesh UnderbarB4

# Starting mesh UnderbarB3
v -1.00726 -0.367874 0.0540107
v -0.365352 1.00869 0.0540107
v -0.354865 0.979885 0.0540107
v -0.978449 -0.357391 0.0540107
v -0.354865 0.979885 0.232807
v -0.978449 -0.357391 0.232808
v -1.00726 -0.367874 0.232807
v -0.365352 1.00869 0.232807
g UnderbarB3
f 265 262 264 
f 265 259 262 
f 263 261 266 
f 261 260 266 
f 261 259 260 
f 262 259 261 
f 263 262 261 
f 264 262 263 
f 265 260 259 
f 266 260 265 
f 265 263 266 
f 265 264 263 
# End of mesh UnderbarB3

# Starting mesh UnderbarA4
v 1.01122 0.366791 0.0540107
v 0.982411 0.356304 0.0540107
v 0.369315 -1.00978 0.0540107
v 0.358829 -0.980968 0.0540107
v 0.982411 0.356304 0.232807
v 0.358829 -0.980968 0.232807
v 0.369315 -1.00978 0.232807
v 1.01122 0.366791 0.232807
g UnderbarA4
f 274 268 271 
f 274 267 268 
f 269 272 270 
f 269 273 272 
f 269 268 267 
f 269 270 268 
f 272 268 270 
f 271 268 272 
f 274 269 267 
f 273 269 274 
f 271 273 274 
f 272 273 271 
# End of mesh UnderbarA4

