# 3ds Max Wavefront OBJ Exporter v0.97b - (c)2007 guruware
# File Created: 20.05.2014 14:10:17

#
# object m0
#

v  -65.9168 -20.0000 0.0000
v  164.0832 -20.0000 0.0000
v  -65.9168 20.0000 0.0000
v  164.0832 20.0000 0.0000
v  -65.9168 -20.0000 1.0000
v  164.0832 -20.0000 1.0000
v  -65.9168 20.0000 1.0000
v  164.0832 20.0000 1.0000
# 8 vertices

g m0
f 1 3 4 
f 4 2 1 
f 5 6 8 
f 8 7 5 
f 1 2 6 
f 6 5 1 
f 2 4 8 
f 8 6 2 
f 4 3 7 
f 7 8 4 
f 3 1 5 
f 5 7 3 
# 12 faces

#
# object m1
#

v  -51.3243 -20.0000 30.0000
v  3.6757 -20.0000 30.0000
v  -51.3243 20.0000 30.0000
v  3.6757 20.0000 30.0000
v  -51.3243 -20.0000 31.0000
v  3.6757 -20.0000 31.0000
v  -51.3243 20.0000 31.0000
v  3.6757 20.0000 31.0000
# 8 vertices

g m1
f 9 11 12 
f 12 10 9 
f 13 14 16 
f 16 15 13 
f 9 10 14 
f 14 13 9 
f 10 12 16 
f 16 14 10 
f 12 11 15 
f 15 16 12 
f 11 9 13 
f 13 15 11 
# 12 faces

#
# object s11
#

v  -39.6851 -20.0000 0.5000
v  -38.6851 -20.0000 0.5000
v  -39.6851 20.0000 0.5000
v  -38.6851 20.0000 0.5000
v  -39.6851 -20.0000 30.5000
v  -38.6851 -20.0000 30.5000
v  -39.6851 20.0000 30.5000
v  -38.6851 20.0000 30.5000
# 8 vertices

g s11
f 17 19 20 
f 20 18 17 
f 21 22 24 
f 24 23 21 
f 17 18 22 
f 22 21 17 
f 18 20 24 
f 24 22 18 
f 20 19 23 
f 23 24 20 
f 19 17 21 
f 21 23 19 
# 12 faces

#
# object m3
#

v  10.5629 -20.0000 20.0000
v  90.5629 -20.0000 20.0000
v  10.5629 20.0000 20.0000
v  90.5629 20.0000 20.0000
v  10.5629 -20.0000 21.0000
v  90.5629 -20.0000 21.0000
v  10.5629 20.0000 21.0000
v  90.5629 20.0000 21.0000
# 8 vertices

g m3
f 25 27 28 
f 28 26 25 
f 29 30 32 
f 32 31 29 
f 25 26 30 
f 30 29 25 
f 26 28 32 
f 32 30 26 
f 28 27 31 
f 31 32 28 
f 27 25 29 
f 29 31 27 
# 12 faces

#
# object s32
#

v  49.0000 -20.0000 0.5000
v  50.0000 -20.0000 0.5000
v  49.0000 20.0000 0.5000
v  50.0000 20.0000 0.5000
v  49.0000 -20.0000 20.5000
v  50.0000 -20.0000 20.5000
v  49.0000 20.0000 20.5000
v  50.0000 20.0000 20.5000
# 8 vertices

g s32
f 33 35 36 
f 36 34 33 
f 37 38 40 
f 40 39 37 
f 33 34 38 
f 38 37 33 
f 34 36 40 
f 40 38 34 
f 36 35 39 
f 39 40 36 
f 35 33 37 
f 37 39 35 
# 12 faces

#
# object m4
#

v  16.8995 -20.0000 80.0683
v  46.8995 -20.0000 80.0683
v  16.8995 20.0000 80.0683
v  46.8995 20.0000 80.0683
v  16.8995 -20.0000 81.0683
v  46.8995 -20.0000 81.0683
v  16.8995 20.0000 81.0683
v  46.8995 20.0000 81.0683
# 8 vertices

g m4
f 41 43 44 
f 44 42 41 
f 45 46 48 
f 48 47 45 
f 41 42 46 
f 46 45 41 
f 42 44 48 
f 48 46 42 
f 44 43 47 
f 47 48 44 
f 43 41 45 
f 45 47 43 
# 12 faces

#
# object s12
#

v  -10.1851 -20.0000 0.5000
v  -9.1851 -20.0000 0.5000
v  -10.1851 20.0000 0.5000
v  -9.1851 20.0000 0.5000
v  -10.1851 -20.0000 30.5000
v  -9.1851 -20.0000 30.5000
v  -10.1851 20.0000 30.5000
v  -9.1851 20.0000 30.5000
# 8 vertices

g s12
f 49 51 52 
f 52 50 49 
f 53 54 56 
f 56 55 53 
f 49 50 54 
f 54 53 49 
f 50 52 56 
f 56 54 50 
f 52 51 55 
f 55 56 52 
f 51 49 53 
f 53 55 51 
# 12 faces

#
# object s31
#

v  19.5000 -20.0000 0.5000
v  20.5000 -20.0000 0.5000
v  19.5000 20.0000 0.5000
v  20.5000 20.0000 0.5000
v  19.5000 -20.0000 20.5000
v  20.5000 -20.0000 20.5000
v  19.5000 20.0000 20.5000
v  20.5000 20.0000 20.5000
# 8 vertices

g s31
f 57 59 60 
f 60 58 57 
f 61 62 64 
f 64 63 61 
f 57 58 62 
f 62 61 57 
f 58 60 64 
f 64 62 58 
f 60 59 63 
f 63 64 60 
f 59 57 61 
f 61 63 59 
# 12 faces

#
# object s42
#

v  37.9187 -20.0000 20.5000
v  38.9187 -20.0000 20.5000
v  37.9187 20.0000 20.5000
v  38.9187 20.0000 20.5000
v  37.9187 -20.0000 80.5000
v  38.9187 -20.0000 80.5000
v  37.9187 20.0000 80.5000
v  38.9187 20.0000 80.5000
# 8 vertices

g s42
f 65 67 68 
f 68 66 65 
f 69 70 72 
f 72 71 69 
f 65 66 70 
f 70 69 65 
f 66 68 72 
f 72 70 66 
f 68 67 71 
f 71 72 68 
f 67 65 69 
f 69 71 67 
# 12 faces

#
# object s41
#

v  24.5000 -20.0000 20.5000
v  25.5000 -20.0000 20.5000
v  24.5000 20.0000 20.5000
v  25.5000 20.0000 20.5000
v  24.5000 -20.0000 80.5000
v  25.5000 -20.0000 80.5000
v  24.5000 20.0000 80.5000
v  25.5000 20.0000 80.5000
# 8 vertices

g s41
f 73 75 76 
f 76 74 73 
f 77 78 80 
f 80 79 77 
f 73 74 78 
f 78 77 73 
f 74 76 80 
f 80 78 74 
f 76 75 79 
f 79 80 76 
f 75 73 77 
f 77 79 75 
# 12 faces

#
# object s043
#

v  79.3692 -20.0000 0.5000
v  80.3692 -20.0000 0.5000
v  79.3692 20.0000 0.5000
v  80.3692 20.0000 0.5000
v  79.3692 -20.0000 20.5000
v  80.3692 -20.0000 20.5000
v  79.3692 20.0000 20.5000
v  80.3692 20.0000 20.5000
# 8 vertices

g s043
f 81 83 84 
f 84 82 81 
f 85 86 88 
f 88 87 85 
f 81 82 86 
f 86 85 81 
f 82 84 88 
f 88 86 82 
f 84 83 87 
f 87 88 84 
f 83 81 85 
f 85 87 83 
# 12 faces

#
# object s044
#

v  72.5478 -20.0000 20.5000
v  73.5478 -20.0000 20.5000
v  72.5478 20.0000 20.5000
v  73.5478 20.0000 20.5000
v  72.5478 -20.0000 80.5000
v  73.5478 -20.0000 80.5000
v  72.5478 20.0000 80.5000
v  73.5478 20.0000 80.5000
# 8 vertices

g s044
f 89 91 92 
f 92 90 89 
f 93 94 96 
f 96 95 93 
f 89 90 94 
f 94 93 89 
f 90 92 96 
f 96 94 90 
f 92 91 95 
f 95 96 92 
f 91 89 93 
f 93 95 91 
# 12 faces

#
# object s045
#

v  59.1291 -20.0000 20.5000
v  60.1291 -20.0000 20.5000
v  59.1291 20.0000 20.5000
v  60.1291 20.0000 20.5000
v  59.1291 -20.0000 80.5000
v  60.1291 -20.0000 80.5000
v  59.1291 20.0000 80.5000
v  60.1291 20.0000 80.5000
# 8 vertices

g s045
f 97 99 100 
f 100 98 97 
f 101 102 104 
f 104 103 101 
f 97 98 102 
f 102 101 97 
f 98 100 104 
f 104 102 98 
f 100 99 103 
f 103 104 100 
f 99 97 101 
f 101 103 99 
# 12 faces

#
# object m005
#

v  51.5286 -20.0000 80.0683
v  81.5286 -20.0000 80.0683
v  51.5286 20.0000 80.0683
v  81.5286 20.0000 80.0683
v  51.5286 -20.0000 81.0683
v  81.5286 -20.0000 81.0683
v  51.5286 20.0000 81.0683
v  81.5286 20.0000 81.0683
# 8 vertices

g m005
f 105 107 108 
f 108 106 105 
f 109 110 112 
f 112 111 109 
f 105 106 110 
f 110 109 105 
f 106 108 112 
f 112 110 106 
f 108 107 111 
f 111 112 108 
f 107 105 109 
f 109 111 107 
# 12 faces

#
# object s046
#

v  136.9069 -20.0000 0.5000
v  137.9069 -20.0000 0.5000
v  136.9069 20.0000 0.5000
v  137.9069 20.0000 0.5000
v  136.9069 -20.0000 30.5000
v  137.9069 -20.0000 30.5000
v  136.9069 20.0000 30.5000
v  137.9069 20.0000 30.5000
# 8 vertices

g s046
f 113 115 116 
f 116 114 113 
f 117 118 120 
f 120 119 117 
f 113 114 118 
f 118 117 113 
f 114 116 120 
f 120 118 114 
f 116 115 119 
f 119 120 116 
f 115 113 117 
f 117 119 115 
# 12 faces

#
# object m006
#

v  95.7677 -20.0000 30.0000
v  150.7677 -20.0000 30.0000
v  95.7677 20.0000 30.0000
v  150.7677 20.0000 30.0000
v  95.7677 -20.0000 31.0000
v  150.7677 -20.0000 31.0000
v  95.7677 20.0000 31.0000
v  150.7677 20.0000 31.0000
# 8 vertices

g m006
f 121 123 124 
f 124 122 121 
f 125 126 128 
f 128 127 125 
f 121 122 126 
f 126 125 121 
f 122 124 128 
f 128 126 122 
f 124 123 127 
f 127 128 124 
f 123 121 125 
f 125 127 123 
# 12 faces

#
# object s047
#

v  107.4069 -20.0000 0.5000
v  108.4069 -20.0000 0.5000
v  107.4069 20.0000 0.5000
v  108.4069 20.0000 0.5000
v  107.4069 -20.0000 30.5000
v  108.4069 -20.0000 30.5000
v  107.4069 20.0000 30.5000
v  108.4069 20.0000 30.5000
# 8 vertices

g s047
f 129 131 132 
f 132 130 129 
f 133 134 136 
f 136 135 133 
f 129 130 134 
f 134 133 129 
f 130 132 136 
f 136 134 130 
f 132 131 135 
f 135 136 132 
f 131 129 133 
f 133 135 131 
# 12 faces

