# NV = 38 NF = 72
v -0.305405 -0.305087 -0.00473449
v -0.30445 -0.301451 -0.00501889
v -0.302277 -0.298384 -0.00528297
v -0.299209 -0.29621 -0.00544548
v -0.295553 -0.295235 -0.00552674
v -0.291795 -0.29554 -0.00550642
v -0.288382 -0.297124 -0.00538454
v -0.285701 -0.299785 -0.00516109
v -0.284096 -0.303178 -0.00487669
v -0.28375 -0.306936 -0.00457198
v -0.284726 -0.310572 -0.00428759
v -0.286879 -0.313639 -0.00404382
v -0.289967 -0.315813 -0.00386099
v -0.293603 -0.316788 -0.00377974
v -0.297361 -0.316483 -0.00380005
v -0.300794 -0.314899 -0.00394225
v -0.303475 -0.312238 -0.00414539
v -0.294578 -0.306001 -0.00465324
v -0.294578 -0.255602 0.615877
v -0.30508 -0.258446 0.616101
v -0.305405 -0.254688 0.615796
v -0.30445 -0.251052 0.615491
v -0.302297 -0.247985 0.615248
v -0.299209 -0.245811 0.615065
v -0.295553 -0.244816 0.615004
v -0.291795 -0.245141 0.615024
v -0.288382 -0.246725 0.615146
v -0.285701 -0.249386 0.615369
v -0.284096 -0.252779 0.615633
v -0.28375 -0.256537 0.615938
v -0.284726 -0.260173 0.616243
v -0.286879 -0.26324 0.616487
v -0.289967 -0.265414 0.61667
v -0.293603 -0.266389 0.616751
v -0.297361 -0.266084 0.61673
v -0.300794 -0.2645 0.616588
v -0.303475 -0.261839 0.616385
v -0.30508 -0.308845 -0.00442978
f 19 21 20 
f 19 22 21 
f 19 23 22 
f 19 24 23 
f 19 25 24 
f 19 26 25 
f 19 27 26 
f 19 28 27 
f 19 29 28 
f 19 30 29 
f 19 31 30 
f 19 32 31 
f 19 33 32 
f 19 34 33 
f 19 35 34 
f 19 36 35 
f 19 37 36 
f 19 20 37 
f 20 1 38 
f 20 21 1 
f 21 2 1 
f 21 22 2 
f 22 3 2 
f 22 23 3 
f 23 4 3 
f 23 24 4 
f 24 5 4 
f 24 25 5 
f 25 6 5 
f 25 26 6 
f 26 7 6 
f 26 27 7 
f 27 8 7 
f 27 28 8 
f 28 9 8 
f 28 29 9 
f 29 10 9 
f 29 30 10 
f 30 11 10 
f 30 31 11 
f 31 12 11 
f 31 32 12 
f 32 13 12 
f 32 33 13 
f 33 14 13 
f 33 34 14 
f 34 15 14 
f 34 35 15 
f 35 16 15 
f 35 36 16 
f 36 17 16 
f 36 37 17 
f 37 38 17 
f 37 20 38 
f 18 38 1 
f 18 1 2 
f 18 2 3 
f 18 3 4 
f 18 4 5 
f 18 5 6 
f 18 6 7 
f 18 7 8 
f 18 8 9 
f 18 9 10 
f 18 10 11 
f 18 11 12 
f 18 12 13 
f 18 13 14 
f 18 14 15 
f 18 15 16 
f 18 16 17 
f 18 17 38 
