# NV = 248 NF = 492
v 0.261761 -0.402168 0.558775
v 0.261964 -0.402208 0.558978
v 0.262086 -0.402269 0.559201
v 0.262126 -0.40233 0.559486
v 0.262126 -0.403691 0.565052
v 0.262086 -0.403752 0.565316
v 0.261964 -0.403813 0.56556
v 0.261761 -0.403854 0.565742
v 0.261517 -0.403894 0.565864
v 0.261253 -0.403894 0.565925
v -0.263701 -0.403894 0.565925
v -0.263985 -0.403894 0.565864
v -0.264229 -0.403854 0.565742
v -0.264432 -0.403813 0.56556
v -0.264554 -0.403752 0.565316
v -0.264594 -0.403691 0.565052
v -0.264594 -0.40233 0.559486
v -0.264554 -0.402269 0.559201
v -0.264432 -0.402208 0.558978
v -0.264229 -0.402168 0.558775
v -0.263985 -0.402127 0.558653
v -0.263701 -0.402127 0.558612
v 0.261253 -0.401538 0.557942
v 0.261761 -0.401558 0.558023
v 0.262228 -0.401619 0.558247
v 0.262614 -0.4017 0.558612
v 0.262858 -0.401822 0.559059
v 0.262939 -0.401944 0.559567
v 0.262939 -0.403305 0.565153
v 0.262858 -0.403427 0.565661
v 0.262614 -0.403529 0.566108
v 0.262228 -0.40361 0.566474
v 0.261761 -0.403671 0.566717
v 0.261253 -0.403691 0.566799
v -0.263701 -0.403691 0.566799
v -0.264229 -0.403671 0.566717
v -0.264696 -0.40361 0.566474
v -0.265062 -0.403529 0.566108
v -0.265305 -0.403427 0.565661
v -0.265387 -0.403305 0.565153
v -0.265387 -0.401944 0.559567
v -0.265305 -0.401822 0.559059
v -0.265062 -0.4017 0.558612
v -0.264696 -0.401619 0.558247
v -0.264229 -0.401558 0.558023
v -0.263701 -0.401538 0.557942
v 0.261253 -0.400766 0.557475
v 0.261964 -0.400807 0.557576
v 0.262614 -0.400888 0.557901
v 0.263122 -0.40101 0.558389
v 0.263447 -0.401152 0.559019
v 0.263569 -0.401314 0.559729
v 0.263569 -0.402675 0.565296
v 0.263447 -0.402858 0.566007
v 0.263122 -0.403001 0.566616
v 0.262614 -0.403122 0.567124
v 0.261964 -0.403204 0.567449
v 0.261253 -0.403224 0.56755
v -0.263701 -0.403224 0.56755
v -0.264432 -0.403204 0.567449
v -0.265062 -0.403122 0.567124
v -0.26559 -0.403001 0.566616
v -0.265915 -0.402858 0.566007
v -0.266037 -0.402675 0.565296
v -0.266037 -0.401314 0.559729
v -0.265915 -0.401152 0.559019
v -0.26559 -0.40101 0.558389
v -0.265062 -0.400888 0.557901
v -0.264432 -0.400807 0.557576
v -0.263701 -0.400766 0.557475
v 0.261253 -0.399892 0.557251
v 0.262086 -0.399933 0.557393
v 0.262858 -0.400014 0.557759
v 0.263447 -0.400177 0.558348
v 0.263833 -0.400339 0.5591
v 0.263975 -0.400543 0.559912
v 0.263975 -0.401904 0.565499
v 0.263833 -0.402107 0.566311
v 0.263447 -0.40229 0.567043
v 0.262858 -0.402432 0.567632
v 0.262086 -0.402513 0.568018
v 0.261253 -0.402554 0.568139
v -0.263701 -0.402554 0.568139
v -0.264554 -0.402513 0.568018
v -0.265305 -0.402432 0.567632
v -0.265915 -0.40229 0.567043
v -0.266301 -0.402107 0.566311
v -0.266443 -0.401904 0.565499
v -0.266443 -0.400543 0.559912
v -0.266301 -0.400339 0.5591
v -0.265915 -0.400177 0.558348
v -0.265305 -0.400014 0.557759
v -0.264554 -0.399933 0.557393
v -0.263701 -0.399892 0.557251
v 0.261253 -0.398999 0.557332
v 0.262126 -0.399039 0.557475
v 0.262939 -0.399141 0.557861
v 0.263569 -0.399283 0.55849
v 0.263975 -0.399466 0.559262
v 0.264117 -0.399689 0.560115
v 0.264117 -0.40103 0.565702
v 0.263975 -0.401254 0.566555
v 0.263569 -0.401436 0.567347
v 0.262939 -0.401579 0.567957
v 0.262126 -0.40168 0.568343
v 0.261253 -0.401721 0.568485
v -0.263701 -0.401721 0.568485
v -0.264594 -0.40168 0.568343
v -0.265387 -0.401579 0.567957
v -0.266037 -0.401436 0.567347
v -0.266443 -0.401254 0.566555
v -0.266585 -0.40103 0.565702
v -0.266585 -0.399689 0.560115
v -0.266443 -0.399466 0.559262
v -0.266037 -0.399283 0.55849
v -0.265387 -0.399141 0.557861
v -0.264594 -0.399039 0.557475
v -0.263701 -0.398999 0.557332
v 0.261253 -0.334583 0.572995
v 0.262126 -0.334603 0.573137
v 0.262939 -0.334705 0.573523
v 0.263569 -0.334867 0.574152
v 0.263975 -0.33505 0.574924
v 0.264117 -0.335253 0.575798
v 0.264117 -0.336614 0.581364
v 0.263975 -0.336818 0.582217
v 0.263569 -0.337021 0.583009
v 0.262939 -0.337163 0.583619
v 0.262126 -0.337265 0.584025
v 0.261253 -0.337285 0.584147
v -0.263701 -0.337285 0.584147
v -0.264594 -0.337265 0.584025
v -0.265387 -0.337163 0.583619
v -0.266037 -0.337021 0.583009
v -0.266443 -0.336818 0.582217
v -0.266585 -0.336614 0.581364
v -0.266585 -0.335253 0.575798
v -0.266443 -0.33505 0.574924
v -0.266037 -0.334867 0.574152
v -0.265387 -0.334705 0.573523
v -0.264594 -0.334603 0.573137
v -0.263701 -0.334583 0.572995
v 0.261253 -0.33375 0.57334
v 0.262086 -0.333791 0.573482
v 0.262858 -0.333872 0.573848
v 0.263447 -0.334014 0.574437
v 0.263833 -0.334197 0.575168
v 0.263975 -0.3344 0.576001
v 0.263975 -0.335761 0.581567
v 0.263833 -0.335944 0.5824
v 0.263447 -0.336127 0.583131
v 0.262858 -0.336269 0.58372
v 0.262086 -0.336371 0.584086
v 0.261253 -0.336391 0.584228
v -0.263701 -0.336391 0.584228
v -0.264554 -0.336371 0.584086
v -0.265305 -0.336269 0.58372
v -0.265915 -0.336127 0.583131
v -0.266301 -0.335944 0.5824
v -0.266443 -0.335761 0.581567
v -0.266443 -0.3344 0.576001
v -0.266301 -0.334197 0.575168
v -0.265915 -0.334014 0.574437
v -0.265305 -0.333872 0.573848
v -0.264554 -0.333791 0.573482
v -0.263701 -0.33375 0.57334
v 0.261253 -0.33308 0.573929
v 0.261964 -0.3331 0.574051
v 0.262614 -0.333181 0.574356
v 0.263122 -0.333303 0.574863
v 0.263447 -0.333446 0.575493
v 0.263569 -0.333628 0.576184
v 0.263569 -0.334969 0.58177
v 0.263447 -0.335152 0.582461
v 0.263122 -0.335294 0.583091
v 0.262614 -0.335416 0.583578
v 0.261964 -0.335497 0.583903
v 0.261253 -0.335518 0.584025
v -0.263701 -0.335518 0.584025
v -0.264432 -0.335497 0.583903
v -0.265062 -0.335416 0.583578
v -0.26559 -0.335294 0.583091
v -0.265915 -0.335152 0.582461
v -0.266037 -0.334969 0.58177
v -0.266037 -0.333628 0.576184
v -0.265915 -0.333446 0.575493
v -0.26559 -0.333303 0.574863
v -0.265062 -0.333181 0.574356
v -0.264432 -0.3331 0.574051
v -0.263701 -0.33308 0.573929
v 0.261253 -0.332613 0.574701
v 0.261761 -0.332613 0.574782
v 0.262228 -0.332674 0.575006
v 0.262614 -0.332775 0.575371
v 0.262858 -0.332877 0.575838
v 0.262939 -0.332999 0.576346
v 0.262939 -0.33436 0.581912
v 0.262858 -0.334482 0.58242
v 0.262614 -0.334583 0.582867
v 0.262228 -0.334685 0.583233
v 0.261761 -0.334746 0.583477
v 0.261253 -0.334766 0.583558
v -0.263701 -0.334746 0.583558
v -0.264229 -0.334746 0.583477
v -0.264696 -0.334685 0.583233
v -0.265062 -0.334583 0.582867
v -0.265305 -0.334482 0.58242
v -0.265387 -0.33436 0.581912
v -0.265387 -0.332999 0.576346
v -0.265305 -0.332877 0.575838
v -0.265062 -0.332775 0.575371
v -0.264696 -0.332674 0.575006
v -0.264229 -0.332613 0.574782
v -0.263701 -0.332613 0.574701
v 0.261253 -0.332389 0.575574
v 0.261517 -0.33241 0.575615
v 0.261761 -0.33243 0.575737
v 0.261964 -0.332491 0.57592
v 0.262086 -0.332531 0.576163
v 0.262126 -0.332613 0.576428
v 0.262126 -0.333953 0.582014
v 0.262086 -0.334035 0.582278
v 0.261964 -0.334075 0.582522
v 0.261761 -0.334136 0.582705
v 0.261517 -0.334157 0.582826
v 0.261253 -0.334177 0.582867
v -0.263701 -0.334177 0.582867
v -0.263985 -0.334157 0.582826
v -0.264229 -0.334136 0.582705
v -0.264432 -0.334075 0.582522
v -0.264554 -0.334035 0.582278
v -0.264594 -0.333953 0.582014
v -0.264594 -0.332613 0.576428
v -0.264554 -0.332531 0.576163
v -0.264432 -0.332491 0.57592
v -0.264229 -0.33243 0.575737
v -0.263985 -0.33241 0.575615
v -0.263701 -0.332389 0.575574
v -0.263701 -0.333831 0.582034
v 0.261253 -0.333831 0.582034
v -0.263701 -0.33247 0.576468
v 0.261253 -0.33247 0.576468
v 0.261253 -0.402472 0.559445
v -0.263701 -0.402472 0.559445
v 0.261253 -0.403833 0.565011
v -0.263701 -0.403833 0.565011
v 0.261253 -0.402127 0.558612
v 0.261517 -0.402127 0.558653
f 243 245 246 
f 243 246 244 
f 243 247 248 
f 243 248 1 
f 243 1 2 
f 243 2 3 
f 243 3 4 
f 243 4 5 
f 243 5 245 
f 245 5 6 
f 245 6 7 
f 245 7 8 
f 245 8 9 
f 245 9 10 
f 245 10 11 
f 245 11 246 
f 246 11 12 
f 246 12 13 
f 246 13 14 
f 246 14 15 
f 246 15 16 
f 246 16 17 
f 246 17 244 
f 244 17 18 
f 244 18 19 
f 244 19 20 
f 244 20 21 
f 244 21 22 
f 244 22 247 
f 244 247 243 
f 247 23 24 
f 247 24 248 
f 248 24 25 
f 248 25 1 
f 1 25 26 
f 1 26 2 
f 2 26 27 
f 2 27 3 
f 3 27 28 
f 3 28 4 
f 4 28 29 
f 4 29 5 
f 5 29 30 
f 5 30 6 
f 6 30 31 
f 6 31 7 
f 7 31 32 
f 7 32 8 
f 8 32 33 
f 8 33 9 
f 9 33 34 
f 9 34 10 
f 10 34 35 
f 10 35 11 
f 11 35 36 
f 11 36 12 
f 12 36 37 
f 12 37 13 
f 13 37 38 
f 13 38 14 
f 14 38 39 
f 14 39 15 
f 15 39 40 
f 15 40 16 
f 16 40 41 
f 16 41 17 
f 17 41 42 
f 17 42 18 
f 18 42 43 
f 18 43 19 
f 19 43 44 
f 19 44 20 
f 20 44 45 
f 20 45 21 
f 21 45 46 
f 21 46 22 
f 22 46 23 
f 22 23 247 
f 23 47 48 
f 23 48 24 
f 24 48 49 
f 24 49 25 
f 25 49 50 
f 25 50 26 
f 26 50 51 
f 26 51 27 
f 27 51 52 
f 27 52 28 
f 28 52 53 
f 28 53 29 
f 29 53 54 
f 29 54 30 
f 30 54 55 
f 30 55 31 
f 31 55 56 
f 31 56 32 
f 32 56 57 
f 32 57 33 
f 33 57 58 
f 33 58 34 
f 34 58 59 
f 34 59 35 
f 35 59 60 
f 35 60 36 
f 36 60 61 
f 36 61 37 
f 37 61 62 
f 37 62 38 
f 38 62 63 
f 38 63 39 
f 39 63 64 
f 39 64 40 
f 40 64 65 
f 40 65 41 
f 41 65 66 
f 41 66 42 
f 42 66 67 
f 42 67 43 
f 43 67 68 
f 43 68 44 
f 44 68 69 
f 44 69 45 
f 45 69 70 
f 45 70 46 
f 46 70 47 
f 46 47 23 
f 47 71 72 
f 47 72 48 
f 48 72 73 
f 48 73 49 
f 49 73 74 
f 49 74 50 
f 50 74 75 
f 50 75 51 
f 51 75 76 
f 51 76 52 
f 52 76 77 
f 52 77 53 
f 53 77 78 
f 53 78 54 
f 54 78 79 
f 54 79 55 
f 55 79 80 
f 55 80 56 
f 56 80 81 
f 56 81 57 
f 57 81 82 
f 57 82 58 
f 58 82 83 
f 58 83 59 
f 59 83 84 
f 59 84 60 
f 60 84 85 
f 60 85 61 
f 61 85 86 
f 61 86 62 
f 62 86 87 
f 62 87 63 
f 63 87 88 
f 63 88 64 
f 64 88 89 
f 64 89 65 
f 65 89 90 
f 65 90 66 
f 66 90 91 
f 66 91 67 
f 67 91 92 
f 67 92 68 
f 68 92 93 
f 68 93 69 
f 69 93 94 
f 69 94 70 
f 70 94 71 
f 70 71 47 
f 71 95 96 
f 71 96 72 
f 72 96 97 
f 72 97 73 
f 73 97 98 
f 73 98 74 
f 74 98 99 
f 74 99 75 
f 75 99 100 
f 75 100 76 
f 76 100 101 
f 76 101 77 
f 77 101 102 
f 77 102 78 
f 78 102 103 
f 78 103 79 
f 79 103 104 
f 79 104 80 
f 80 104 105 
f 80 105 81 
f 81 105 106 
f 81 106 82 
f 82 106 107 
f 82 107 83 
f 83 107 108 
f 83 108 84 
f 84 108 109 
f 84 109 85 
f 85 109 110 
f 85 110 86 
f 86 110 111 
f 86 111 87 
f 87 111 112 
f 87 112 88 
f 88 112 113 
f 88 113 89 
f 89 113 114 
f 89 114 90 
f 90 114 115 
f 90 115 91 
f 91 115 116 
f 91 116 92 
f 92 116 117 
f 92 117 93 
f 93 117 118 
f 93 118 94 
f 94 118 95 
f 94 95 71 
f 95 119 120 
f 95 120 96 
f 96 120 121 
f 96 121 97 
f 97 121 122 
f 97 122 98 
f 98 122 123 
f 98 123 99 
f 99 123 124 
f 99 124 100 
f 100 124 125 
f 100 125 101 
f 101 125 126 
f 101 126 102 
f 102 126 127 
f 102 127 103 
f 103 127 128 
f 103 128 104 
f 104 128 129 
f 104 129 105 
f 105 129 130 
f 105 130 106 
f 106 130 131 
f 106 131 107 
f 107 131 132 
f 107 132 108 
f 108 132 133 
f 108 133 109 
f 109 133 134 
f 109 134 110 
f 110 134 135 
f 110 135 111 
f 111 135 136 
f 111 136 112 
f 112 136 137 
f 112 137 113 
f 113 137 138 
f 113 138 114 
f 114 138 139 
f 114 139 115 
f 115 139 140 
f 115 140 116 
f 116 140 141 
f 116 141 117 
f 117 141 142 
f 117 142 118 
f 118 142 119 
f 118 119 95 
f 119 143 144 
f 119 144 120 
f 120 144 145 
f 120 145 121 
f 121 145 146 
f 121 146 122 
f 122 146 147 
f 122 147 123 
f 123 147 148 
f 123 148 124 
f 124 148 149 
f 124 149 125 
f 125 149 150 
f 125 150 126 
f 126 150 151 
f 126 151 127 
f 127 151 152 
f 127 152 128 
f 128 152 153 
f 128 153 129 
f 129 153 154 
f 129 154 130 
f 130 154 155 
f 130 155 131 
f 131 155 156 
f 131 156 132 
f 132 156 157 
f 132 157 133 
f 133 157 158 
f 133 158 134 
f 134 158 159 
f 134 159 135 
f 135 159 160 
f 135 160 136 
f 136 160 161 
f 136 161 137 
f 137 161 162 
f 137 162 138 
f 138 162 163 
f 138 163 139 
f 139 163 164 
f 139 164 140 
f 140 164 165 
f 140 165 141 
f 141 165 166 
f 141 166 142 
f 142 166 143 
f 142 143 119 
f 143 167 168 
f 143 168 144 
f 144 168 169 
f 144 169 145 
f 145 169 170 
f 145 170 146 
f 146 170 171 
f 146 171 147 
f 147 171 172 
f 147 172 148 
f 148 172 173 
f 148 173 149 
f 149 173 174 
f 149 174 150 
f 150 174 175 
f 150 175 151 
f 151 175 176 
f 151 176 152 
f 152 176 177 
f 152 177 153 
f 153 177 178 
f 153 178 154 
f 154 178 179 
f 154 179 155 
f 155 179 180 
f 155 180 156 
f 156 180 181 
f 156 181 157 
f 157 181 182 
f 157 182 158 
f 158 182 183 
f 158 183 159 
f 159 183 184 
f 159 184 160 
f 160 184 185 
f 160 185 161 
f 161 185 186 
f 161 186 162 
f 162 186 187 
f 162 187 163 
f 163 187 188 
f 163 188 164 
f 164 188 189 
f 164 189 165 
f 165 189 190 
f 165 190 166 
f 166 190 167 
f 166 167 143 
f 167 191 192 
f 167 192 168 
f 168 192 193 
f 168 193 169 
f 169 193 194 
f 169 194 170 
f 170 194 195 
f 170 195 171 
f 171 195 196 
f 171 196 172 
f 172 196 197 
f 172 197 173 
f 173 197 198 
f 173 198 174 
f 174 198 199 
f 174 199 175 
f 175 199 200 
f 175 200 176 
f 176 200 201 
f 176 201 177 
f 177 201 202 
f 177 202 178 
f 178 202 203 
f 178 203 179 
f 179 203 204 
f 179 204 180 
f 180 204 205 
f 180 205 181 
f 181 205 206 
f 181 206 182 
f 182 206 207 
f 182 207 183 
f 183 207 208 
f 183 208 184 
f 184 208 209 
f 184 209 185 
f 185 209 210 
f 185 210 186 
f 186 210 211 
f 186 211 187 
f 187 211 212 
f 187 212 188 
f 188 212 213 
f 188 213 189 
f 189 213 214 
f 189 214 190 
f 190 214 191 
f 190 191 167 
f 191 215 216 
f 191 216 192 
f 192 216 217 
f 192 217 193 
f 193 217 218 
f 193 218 194 
f 194 218 219 
f 194 219 195 
f 195 219 220 
f 195 220 196 
f 196 220 221 
f 196 221 197 
f 197 221 222 
f 197 222 198 
f 198 222 223 
f 198 223 199 
f 199 223 224 
f 199 224 200 
f 200 224 225 
f 200 225 201 
f 201 225 226 
f 201 226 202 
f 202 226 227 
f 202 227 203 
f 203 227 228 
f 203 228 204 
f 204 228 229 
f 204 229 205 
f 205 229 230 
f 205 230 206 
f 206 230 231 
f 206 231 207 
f 207 231 232 
f 207 232 208 
f 208 232 233 
f 208 233 209 
f 209 233 234 
f 209 234 210 
f 210 234 235 
f 210 235 211 
f 211 235 236 
f 211 236 212 
f 212 236 237 
f 212 237 213 
f 213 237 238 
f 213 238 214 
f 214 238 215 
f 214 215 191 
f 215 242 216 
f 216 242 217 
f 217 242 218 
f 218 242 219 
f 219 242 220 
f 220 242 240 
f 220 240 221 
f 221 240 222 
f 222 240 223 
f 223 240 224 
f 224 240 225 
f 225 240 226 
f 226 240 239 
f 226 239 227 
f 227 239 228 
f 228 239 229 
f 229 239 230 
f 230 239 231 
f 231 239 232 
f 232 239 241 
f 232 241 233 
f 233 241 234 
f 234 241 235 
f 235 241 236 
f 236 241 237 
f 237 241 238 
f 238 241 242 
f 238 242 215 
f 241 239 240 
f 241 240 242 
