# NV = 248 NF = 492
v 0.263975 0.167355 0.579109
v 0.263975 0.167111 0.579272
v 0.263975 0.166847 0.579332
v 0.263975 0.166583 0.579312
v 0.263569 0.101639 0.565275
v 0.263569 0.101151 0.565072
v 0.263569 0.100745 0.564747
v 0.263569 0.100461 0.5643
v 0.263569 0.100339 0.563792
v 0.263569 0.100379 0.563264
v 0.263569 0.101659 0.557678
v 0.263569 0.101842 0.55719
v 0.263569 0.102187 0.556784
v 0.263569 0.102634 0.55652
v 0.263569 0.103142 0.556378
v 0.263569 0.10367 0.556418
v 0.263569 0.168431 0.571227
v 0.263569 0.168919 0.57143
v 0.263569 0.169325 0.571755
v 0.263569 0.169589 0.572202
v 0.263569 0.169731 0.57273
v 0.263569 0.169691 0.573238
v 0.263569 0.168411 0.578825
v 0.263569 0.168208 0.579312
v 0.263569 0.167883 0.579718
v 0.263569 0.167436 0.580003
v 0.263569 0.166928 0.580125
v 0.263569 0.1664 0.580084
v 0.262939 0.101497 0.565905
v 0.262939 0.100826 0.565621
v 0.262939 0.100278 0.565153
v 0.262939 0.0998919 0.564544
v 0.262939 0.099709 0.563853
v 0.262939 0.09977 0.563122
v 0.262939 0.101029 0.557536
v 0.262939 0.101314 0.556865
v 0.262939 0.101781 0.556317
v 0.262939 0.10239 0.555931
v 0.262939 0.103081 0.555748
v 0.262939 0.103812 0.555809
v 0.262939 0.168573 0.570618
v 0.262939 0.169244 0.570882
v 0.262939 0.169792 0.571349
v 0.262939 0.170178 0.571958
v 0.262939 0.170361 0.572669
v 0.262939 0.1703 0.57338
v 0.262939 0.169041 0.578967
v 0.262939 0.168756 0.579637
v 0.262939 0.168289 0.580206
v 0.262939 0.16768 0.580592
v 0.262939 0.166989 0.580754
v 0.262939 0.166258 0.580714
v 0.262126 0.101415 0.566291
v 0.262126 0.100623 0.565966
v 0.262126 0.0999731 0.565438
v 0.262126 0.0995059 0.564706
v 0.262126 0.0993028 0.563874
v 0.262126 0.0993637 0.563041
v 0.262126 0.100643 0.557454
v 0.262126 0.100948 0.556662
v 0.262126 0.101497 0.556012
v 0.262126 0.102228 0.555545
v 0.262126 0.103061 0.555342
v 0.262126 0.103894 0.555403
v 0.262126 0.168655 0.570211
v 0.262126 0.169447 0.570537
v 0.262126 0.170097 0.571085
v 0.262126 0.170544 0.571796
v 0.262126 0.170767 0.572629
v 0.262126 0.170706 0.573482
v 0.262126 0.169427 0.579068
v 0.262126 0.169102 0.57984
v 0.262126 0.168573 0.580511
v 0.262126 0.167842 0.580958
v 0.262126 0.167009 0.581161
v 0.262126 0.166176 0.5811
v 0.261253 0.101375 0.566433
v 0.261253 0.100542 0.566088
v 0.261253 0.0998512 0.565519
v 0.261253 0.099384 0.564767
v 0.261253 0.0991606 0.563894
v 0.261253 0.0992215 0.563
v 0.261253 0.100501 0.557414
v 0.261253 0.100847 0.556581
v 0.261253 0.101415 0.55591
v 0.261253 0.102167 0.555423
v 0.261253 0.103041 0.555199
v 0.261253 0.103934 0.55526
v 0.261253 0.168695 0.57009
v 0.261253 0.169528 0.570415
v 0.261253 0.170198 0.570983
v 0.261253 0.170686 0.571755
v 0.261253 0.170909 0.572609
v 0.261253 0.170849 0.573502
v 0.261253 0.169569 0.579089
v 0.261253 0.169223 0.579922
v 0.261253 0.168655 0.580612
v 0.261253 0.167903 0.581079
v 0.261253 0.167029 0.581303
v 0.261253 0.166136 0.581242
v -0.263721 0.101375 0.566433
v -0.263721 0.100542 0.566088
v -0.263721 0.0998512 0.565519
v -0.263721 0.099384 0.564767
v -0.263721 0.0991606 0.563894
v -0.263721 0.0992215 0.563
v -0.263721 0.100501 0.557414
v -0.263721 0.100847 0.556581
v -0.263721 0.101415 0.55591
v -0.263721 0.102167 0.555423
v -0.263721 0.103041 0.555199
v -0.263721 0.103934 0.55526
v -0.263721 0.168695 0.57009
v -0.263721 0.169528 0.570415
v -0.263721 0.170198 0.570983
v -0.263721 0.170686 0.571755
v -0.263721 0.170909 0.572609
v -0.263721 0.170849 0.573502
v -0.263721 0.169569 0.579089
v -0.263721 0.169223 0.579922
v -0.263721 0.168655 0.580612
v -0.263721 0.167903 0.581079
v -0.263721 0.167029 0.581303
v -0.263721 0.166136 0.581242
v -0.264594 0.101415 0.566291
v -0.264594 0.100623 0.565966
v -0.264594 0.0999731 0.565438
v -0.264594 0.0995059 0.564706
v -0.264594 0.0993028 0.563874
v -0.264594 0.0993637 0.563041
v -0.264594 0.100643 0.557454
v -0.264594 0.100948 0.556662
v -0.264594 0.101497 0.556012
v -0.264594 0.102228 0.555545
v -0.264594 0.103061 0.555342
v -0.264594 0.103894 0.555403
v -0.264594 0.168655 0.570211
v -0.264594 0.169447 0.570537
v -0.264594 0.170097 0.571085
v -0.264594 0.170544 0.571796
v -0.264594 0.170767 0.572629
v -0.264594 0.170706 0.573482
v -0.264594 0.169427 0.579068
v -0.264594 0.169102 0.57984
v -0.264594 0.168573 0.580511
v -0.264594 0.167842 0.580958
v -0.264594 0.167009 0.581161
v -0.264594 0.166176 0.5811
v -0.265387 0.101497 0.565905
v -0.265387 0.100826 0.565621
v -0.265387 0.100278 0.565153
v -0.265387 0.0998919 0.564544
v -0.265387 0.099709 0.563853
v -0.265387 0.09977 0.563122
v -0.265387 0.101029 0.557536
v -0.265387 0.101314 0.556865
v -0.265387 0.101781 0.556317
v -0.265387 0.10239 0.555931
v -0.265387 0.103081 0.555748
v -0.265387 0.103812 0.555809
v -0.265387 0.168573 0.570618
v -0.265387 0.169244 0.570882
v -0.265387 0.169792 0.571349
v -0.265387 0.170178 0.571958
v -0.265387 0.170361 0.572669
v -0.265387 0.1703 0.57338
v -0.265387 0.169041 0.578967
v -0.265387 0.168756 0.579637
v -0.265387 0.168289 0.580206
v -0.265387 0.16768 0.580592
v -0.265387 0.166989 0.580754
v -0.265387 0.166258 0.580714
v -0.266037 0.101639 0.565275
v -0.266037 0.101151 0.565072
v -0.266037 0.100745 0.564747
v -0.266037 0.100461 0.5643
v -0.266037 0.100339 0.563792
v -0.266037 0.100379 0.563264
v -0.266037 0.101659 0.557678
v -0.266037 0.101842 0.55719
v -0.266037 0.102187 0.556784
v -0.266037 0.102634 0.55652
v -0.266037 0.103142 0.556378
v -0.266037 0.10367 0.556418
v -0.266037 0.168431 0.571227
v -0.266037 0.168919 0.57143
v -0.266037 0.169325 0.571776
v -0.266037 0.169589 0.572202
v -0.266037 0.169731 0.57273
v -0.266037 0.169691 0.573238
v -0.266037 0.168411 0.578825
v -0.266037 0.168208 0.579312
v -0.266037 0.167883 0.579718
v -0.266037 0.167436 0.580003
v -0.266037 0.166928 0.580125
v -0.266037 0.1664 0.580084
v -0.266443 0.101822 0.564503
v -0.266443 0.101558 0.564402
v -0.266443 0.101354 0.564219
v -0.266443 0.101212 0.563995
v -0.266443 0.101131 0.563711
v -0.266443 0.101151 0.563447
v -0.266443 0.102431 0.557861
v -0.266443 0.102533 0.557596
v -0.266443 0.102715 0.557393
v -0.266443 0.102939 0.557251
v -0.266443 0.103223 0.55717
v -0.266443 0.103487 0.55719
v -0.266443 0.168248 0.572019
v -0.266443 0.168512 0.572121
v -0.266443 0.168716 0.572284
v -0.266443 0.168858 0.572527
v -0.266443 0.168939 0.572791
v -0.266443 0.168919 0.573076
v -0.266443 0.167639 0.578642
v -0.266443 0.167537 0.578906
v -0.266443 0.167355 0.579109
v -0.266443 0.167111 0.579272
v -0.266443 0.166847 0.579332
v -0.266443 0.166583 0.579312
v -0.266585 0.168045 0.572873
v -0.266585 0.103284 0.558064
v -0.266585 0.166765 0.578459
v -0.266585 0.102025 0.56363
v 0.264117 0.102025 0.56363
v 0.264117 0.166765 0.578459
v 0.264117 0.103284 0.558064
v 0.264117 0.168045 0.572873
v 0.263975 0.101822 0.564503
v 0.263975 0.101558 0.564402
v 0.263975 0.101354 0.564219
v 0.263975 0.101212 0.563995
v 0.263975 0.101131 0.563711
v 0.263975 0.101151 0.563447
v 0.263975 0.102431 0.557861
v 0.263975 0.102533 0.557596
v 0.263975 0.102715 0.557393
v 0.263975 0.102939 0.557251
v 0.263975 0.103223 0.55717
v 0.263975 0.103487 0.55719
v 0.263975 0.168248 0.572019
v 0.263975 0.168512 0.572121
v 0.263975 0.168716 0.572284
v 0.263975 0.168858 0.572527
v 0.263975 0.168939 0.572791
v 0.263975 0.168919 0.573076
v 0.263975 0.167639 0.578642
v 0.263975 0.167537 0.578906
f 225 227 228 
f 225 228 226 
f 225 229 230 
f 225 230 231 
f 225 231 232 
f 225 232 233 
f 225 233 234 
f 225 234 235 
f 225 235 227 
f 227 235 236 
f 227 236 237 
f 227 237 238 
f 227 238 239 
f 227 239 240 
f 227 240 241 
f 227 241 228 
f 228 241 242 
f 228 242 243 
f 228 243 244 
f 228 244 245 
f 228 245 246 
f 228 246 247 
f 228 247 226 
f 226 247 248 
f 226 248 1 
f 226 1 2 
f 226 2 3 
f 226 3 4 
f 226 4 229 
f 226 229 225 
f 229 5 6 
f 229 6 230 
f 230 6 7 
f 230 7 231 
f 231 7 8 
f 231 8 232 
f 232 8 9 
f 232 9 233 
f 233 9 10 
f 233 10 234 
f 234 10 11 
f 234 11 235 
f 235 11 12 
f 235 12 236 
f 236 12 13 
f 236 13 237 
f 237 13 14 
f 237 14 238 
f 238 14 15 
f 238 15 239 
f 239 15 16 
f 239 16 240 
f 240 16 17 
f 240 17 241 
f 241 17 18 
f 241 18 242 
f 242 18 19 
f 242 19 243 
f 243 19 20 
f 243 20 244 
f 244 20 21 
f 244 21 245 
f 245 21 22 
f 245 22 246 
f 246 22 23 
f 246 23 247 
f 247 23 24 
f 247 24 248 
f 248 24 25 
f 248 25 1 
f 1 25 26 
f 1 26 2 
f 2 26 27 
f 2 27 3 
f 3 27 28 
f 3 28 4 
f 4 28 5 
f 4 5 229 
f 5 29 30 
f 5 30 6 
f 6 30 31 
f 6 31 7 
f 7 31 32 
f 7 32 8 
f 8 32 33 
f 8 33 9 
f 9 33 34 
f 9 34 10 
f 10 34 35 
f 10 35 11 
f 11 35 36 
f 11 36 12 
f 12 36 37 
f 12 37 13 
f 13 37 38 
f 13 38 14 
f 14 38 39 
f 14 39 15 
f 15 39 40 
f 15 40 16 
f 16 40 41 
f 16 41 17 
f 17 41 42 
f 17 42 18 
f 18 42 43 
f 18 43 19 
f 19 43 44 
f 19 44 20 
f 20 44 45 
f 20 45 21 
f 21 45 46 
f 21 46 22 
f 22 46 47 
f 22 47 23 
f 23 47 48 
f 23 48 24 
f 24 48 49 
f 24 49 25 
f 25 49 50 
f 25 50 26 
f 26 50 51 
f 26 51 27 
f 27 51 52 
f 27 52 28 
f 28 52 29 
f 28 29 5 
f 29 53 54 
f 29 54 30 
f 30 54 55 
f 30 55 31 
f 31 55 56 
f 31 56 32 
f 32 56 57 
f 32 57 33 
f 33 57 58 
f 33 58 34 
f 34 58 59 
f 34 59 35 
f 35 59 60 
f 35 60 36 
f 36 60 61 
f 36 61 37 
f 37 61 62 
f 37 62 38 
f 38 62 63 
f 38 63 39 
f 39 63 64 
f 39 64 40 
f 40 64 65 
f 40 65 41 
f 41 65 66 
f 41 66 42 
f 42 66 67 
f 42 67 43 
f 43 67 68 
f 43 68 44 
f 44 68 69 
f 44 69 45 
f 45 69 70 
f 45 70 46 
f 46 70 71 
f 46 71 47 
f 47 71 72 
f 47 72 48 
f 48 72 73 
f 48 73 49 
f 49 73 74 
f 49 74 50 
f 50 74 75 
f 50 75 51 
f 51 75 76 
f 51 76 52 
f 52 76 53 
f 52 53 29 
f 53 77 78 
f 53 78 54 
f 54 78 79 
f 54 79 55 
f 55 79 80 
f 55 80 56 
f 56 80 81 
f 56 81 57 
f 57 81 82 
f 57 82 58 
f 58 82 83 
f 58 83 59 
f 59 83 84 
f 59 84 60 
f 60 84 85 
f 60 85 61 
f 61 85 86 
f 61 86 62 
f 62 86 87 
f 62 87 63 
f 63 87 88 
f 63 88 64 
f 64 88 89 
f 64 89 65 
f 65 89 90 
f 65 90 66 
f 66 90 91 
f 66 91 67 
f 67 91 92 
f 67 92 68 
f 68 92 93 
f 68 93 69 
f 69 93 94 
f 69 94 70 
f 70 94 95 
f 70 95 71 
f 71 95 96 
f 71 96 72 
f 72 96 97 
f 72 97 73 
f 73 97 98 
f 73 98 74 
f 74 98 99 
f 74 99 75 
f 75 99 100 
f 75 100 76 
f 76 100 77 
f 76 77 53 
f 77 101 102 
f 77 102 78 
f 78 102 103 
f 78 103 79 
f 79 103 104 
f 79 104 80 
f 80 104 105 
f 80 105 81 
f 81 105 106 
f 81 106 82 
f 82 106 107 
f 82 107 83 
f 83 107 108 
f 83 108 84 
f 84 108 109 
f 84 109 85 
f 85 109 110 
f 85 110 86 
f 86 110 111 
f 86 111 87 
f 87 111 112 
f 87 112 88 
f 88 112 113 
f 88 113 89 
f 89 113 114 
f 89 114 90 
f 90 114 115 
f 90 115 91 
f 91 115 116 
f 91 116 92 
f 92 116 117 
f 92 117 93 
f 93 117 118 
f 93 118 94 
f 94 118 119 
f 94 119 95 
f 95 119 120 
f 95 120 96 
f 96 120 121 
f 96 121 97 
f 97 121 122 
f 97 122 98 
f 98 122 123 
f 98 123 99 
f 99 123 124 
f 99 124 100 
f 100 124 101 
f 100 101 77 
f 101 125 126 
f 101 126 102 
f 102 126 127 
f 102 127 103 
f 103 127 128 
f 103 128 104 
f 104 128 129 
f 104 129 105 
f 105 129 130 
f 105 130 106 
f 106 130 131 
f 106 131 107 
f 107 131 132 
f 107 132 108 
f 108 132 133 
f 108 133 109 
f 109 133 134 
f 109 134 110 
f 110 134 135 
f 110 135 111 
f 111 135 136 
f 111 136 112 
f 112 136 137 
f 112 137 113 
f 113 137 138 
f 113 138 114 
f 114 138 139 
f 114 139 115 
f 115 139 140 
f 115 140 116 
f 116 140 141 
f 116 141 117 
f 117 141 142 
f 117 142 118 
f 118 142 143 
f 118 143 119 
f 119 143 144 
f 119 144 120 
f 120 144 145 
f 120 145 121 
f 121 145 146 
f 121 146 122 
f 122 146 147 
f 122 147 123 
f 123 147 148 
f 123 148 124 
f 124 148 125 
f 124 125 101 
f 125 149 150 
f 125 150 126 
f 126 150 151 
f 126 151 127 
f 127 151 152 
f 127 152 128 
f 128 152 153 
f 128 153 129 
f 129 153 154 
f 129 154 130 
f 130 154 155 
f 130 155 131 
f 131 155 156 
f 131 156 132 
f 132 156 157 
f 132 157 133 
f 133 157 158 
f 133 158 134 
f 134 158 159 
f 134 159 135 
f 135 159 160 
f 135 160 136 
f 136 160 161 
f 136 161 137 
f 137 161 162 
f 137 162 138 
f 138 162 163 
f 138 163 139 
f 139 163 164 
f 139 164 140 
f 140 164 165 
f 140 165 141 
f 141 165 166 
f 141 166 142 
f 142 166 167 
f 142 167 143 
f 143 167 168 
f 143 168 144 
f 144 168 169 
f 144 169 145 
f 145 169 170 
f 145 170 146 
f 146 170 171 
f 146 171 147 
f 147 171 172 
f 147 172 148 
f 148 172 149 
f 148 149 125 
f 149 173 174 
f 149 174 150 
f 150 174 175 
f 150 175 151 
f 151 175 176 
f 151 176 152 
f 152 176 177 
f 152 177 153 
f 153 177 178 
f 153 178 154 
f 154 178 179 
f 154 179 155 
f 155 179 180 
f 155 180 156 
f 156 180 181 
f 156 181 157 
f 157 181 182 
f 157 182 158 
f 158 182 183 
f 158 183 159 
f 159 183 184 
f 159 184 160 
f 160 184 185 
f 160 185 161 
f 161 185 186 
f 161 186 162 
f 162 186 187 
f 162 187 163 
f 163 187 188 
f 163 188 164 
f 164 188 189 
f 164 189 165 
f 165 189 190 
f 165 190 166 
f 166 190 191 
f 166 191 167 
f 167 191 192 
f 167 192 168 
f 168 192 193 
f 168 193 169 
f 169 193 194 
f 169 194 170 
f 170 194 195 
f 170 195 171 
f 171 195 196 
f 171 196 172 
f 172 196 173 
f 172 173 149 
f 173 197 198 
f 173 198 174 
f 174 198 199 
f 174 199 175 
f 175 199 200 
f 175 200 176 
f 176 200 201 
f 176 201 177 
f 177 201 202 
f 177 202 178 
f 178 202 203 
f 178 203 179 
f 179 203 204 
f 179 204 180 
f 180 204 205 
f 180 205 181 
f 181 205 206 
f 181 206 182 
f 182 206 207 
f 182 207 183 
f 183 207 208 
f 183 208 184 
f 184 208 209 
f 184 209 185 
f 185 209 210 
f 185 210 186 
f 186 210 211 
f 186 211 187 
f 187 211 212 
f 187 212 188 
f 188 212 213 
f 188 213 189 
f 189 213 214 
f 189 214 190 
f 190 214 215 
f 190 215 191 
f 191 215 216 
f 191 216 192 
f 192 216 217 
f 192 217 193 
f 193 217 218 
f 193 218 194 
f 194 218 219 
f 194 219 195 
f 195 219 220 
f 195 220 196 
f 196 220 197 
f 196 197 173 
f 197 224 198 
f 198 224 199 
f 199 224 200 
f 200 224 201 
f 201 224 202 
f 202 224 222 
f 202 222 203 
f 203 222 204 
f 204 222 205 
f 205 222 206 
f 206 222 207 
f 207 222 208 
f 208 222 221 
f 208 221 209 
f 209 221 210 
f 210 221 211 
f 211 221 212 
f 212 221 213 
f 213 221 214 
f 214 221 223 
f 214 223 215 
f 215 223 216 
f 216 223 217 
f 217 223 218 
f 218 223 219 
f 219 223 220 
f 220 223 224 
f 220 224 197 
f 223 221 222 
f 223 222 224 
