# 3ds Max Wavefront OBJ Exporter v0.97b - (c)2007 guruware
# File Created: 03.06.2014 14:31:48

#
# object Box001
#

v  -26.6295 17.1168 10.7487
v  2.0324 17.1553 10.7487
v  -26.6521 33.9768 10.7487
v  2.0098 34.0152 10.7487
v  -26.6295 17.1168 11.3107
v  2.0324 17.1553 11.3107
v  -26.6521 33.9768 11.3107
v  2.0098 34.0152 11.3107
# 8 vertices

g Box001
f 1 3 4 
f 4 2 1 
f 5 6 8 
f 8 7 5 
f 1 2 6 
f 6 5 1 
f 2 4 8 
f 8 6 2 
f 4 3 7 
f 7 8 4 
f 3 1 5 
f 5 7 3 
# 12 faces

#
# object Box002
#

v  -26.6295 17.1168 -0.2103
v  -26.0675 17.1176 -0.2103
v  -26.6521 33.9768 -0.2103
v  -26.0901 33.9776 -0.2103
v  -26.6295 17.1168 11.0297
v  -26.0675 17.1176 11.0297
v  -26.6521 33.9768 11.0297
v  -26.0901 33.9776 11.0297
# 8 vertices

g Box002
f 9 11 12 
f 12 10 9 
f 13 14 16 
f 16 15 13 
f 9 10 14 
f 14 13 9 
f 10 12 16 
f 16 14 10 
f 12 11 15 
f 15 16 12 
f 11 9 13 
f 13 15 11 
# 12 faces

#
# object Box003
#

v  2.0324 17.1553 -0.2103
v  1.4704 17.1545 -0.2103
v  2.0098 34.0152 -0.2103
v  1.4478 34.0145 -0.2103
v  2.0324 17.1553 11.0297
v  1.4704 17.1545 11.0297
v  2.0098 34.0152 11.0297
v  1.4478 34.0145 11.0297
# 8 vertices

g Box003
f 20 19 17 
f 17 18 20 
f 24 22 21 
f 21 23 24 
f 22 18 17 
f 17 21 22 
f 24 20 18 
f 18 22 24 
f 23 19 20 
f 20 24 23 
f 21 17 19 
f 19 23 21 
# 12 faces

#
# object Box004
#

v  -26.6514 33.4148 -0.2103
v  2.0106 33.4532 -0.2103
v  -26.6521 33.9768 -0.2103
v  2.0098 34.0152 -0.2103
v  -26.6514 33.4148 11.0297
v  2.0106 33.4532 11.0297
v  -26.6521 33.9768 11.0297
v  2.0098 34.0152 11.0297
# 8 vertices

g Box004
f 25 27 28 
f 28 26 25 
f 29 30 32 
f 32 31 29 
f 25 26 30 
f 30 29 25 
f 26 28 32 
f 32 30 26 
f 28 27 31 
f 31 32 28 
f 27 25 29 
f 29 31 27 
# 12 faces

#
# object Box006
#

v  -26.6371 22.7368 11.0297
v  -26.0751 22.7376 11.0297
v  -26.6521 33.9768 11.0297
v  -26.0901 33.9776 11.0297
v  -26.6371 22.7368 25.0797
v  -26.0751 22.7376 25.0797
v  -26.6521 33.9768 25.0797
v  -26.0901 33.9776 25.0797
# 8 vertices

g Box006
f 33 35 36 
f 36 34 33 
f 37 38 40 
f 40 39 37 
f 33 34 38 
f 38 37 33 
f 34 36 40 
f 40 38 34 
f 36 35 39 
f 39 40 36 
f 35 33 37 
f 37 39 35 
# 12 faces

#
# object Box007
#

v  1.4629 22.7745 11.0297
v  2.0249 22.7752 11.0297
v  1.4478 34.0145 11.0297
v  2.0098 34.0152 11.0297
v  1.4629 22.7745 25.0797
v  2.0249 22.7752 25.0797
v  1.4478 34.0145 25.0797
v  2.0098 34.0152 25.0797
# 8 vertices

g Box007
f 41 43 44 
f 44 42 41 
f 45 46 48 
f 48 47 45 
f 41 42 46 
f 46 45 41 
f 42 44 48 
f 48 46 42 
f 44 43 47 
f 47 48 44 
f 43 41 45 
f 45 47 43 
# 12 faces

#
# object Box008
#

v  -12.5871 22.7557 11.0297
v  -12.0251 22.7564 11.0297
v  -12.6021 33.9956 11.0297
v  -12.0401 33.9964 11.0297
v  -12.5871 22.7557 25.0797
v  -12.0251 22.7564 25.0797
v  -12.6021 33.9956 25.0797
v  -12.0401 33.9964 25.0797
# 8 vertices

g Box008
f 49 51 52 
f 52 50 49 
f 53 54 56 
f 56 55 53 
f 49 50 54 
f 54 53 49 
f 50 52 56 
f 56 54 50 
f 52 51 55 
f 55 56 52 
f 51 49 53 
f 53 55 51 
# 12 faces

#
# object Box009
#

v  -26.6371 22.7368 25.0797
v  2.0249 22.7752 25.0797
v  -26.6521 33.9768 25.0797
v  2.0098 34.0152 25.0797
v  -26.6371 22.7368 25.6417
v  2.0249 22.7752 25.6417
v  -26.6521 33.9768 25.6417
v  2.0098 34.0152 25.6417
# 8 vertices

g Box009
f 57 59 60 
f 60 58 57 
f 61 62 64 
f 64 63 61 
f 57 58 62 
f 62 61 57 
f 58 60 64 
f 64 62 58 
f 60 59 63 
f 63 64 60 
f 59 57 61 
f 61 63 59 
# 12 faces

#
# object Box010
#

v  -26.6371 22.7368 16.6497
v  2.0249 22.7752 16.6497
v  -26.6521 33.9768 16.6497
v  2.0098 34.0152 16.6497
v  -26.6371 22.7368 17.2117
v  2.0249 22.7752 17.2117
v  -26.6521 33.9768 17.2117
v  2.0098 34.0152 17.2117
# 8 vertices

g Box010
f 65 67 68 
f 68 66 65 
f 69 70 72 
f 72 71 69 
f 65 66 70 
f 70 69 65 
f 66 68 72 
f 72 70 66 
f 68 67 71 
f 71 72 68 
f 67 65 69 
f 69 71 67 
# 12 faces

#
# object top
#

v  -23.0745 -4.8194 9.9409
v  9.4255 -4.8194 9.9409
v  -23.0745 5.8485 9.9409
v  9.4255 5.8485 9.9409
v  -23.0745 -4.8194 10.4409
v  9.4255 -4.8194 10.4409
v  -23.0745 5.8485 10.4409
v  9.4255 5.8485 10.4409
# 8 vertices

g top
f 73 75 76 
f 76 74 73 
f 77 78 80 
f 80 79 77 
f 73 74 78 
f 78 77 73 
f 74 76 80 
f 80 78 74 
f 76 75 79 
f 79 80 76 
f 75 73 77 
f 77 79 75 
# 12 faces

#
# object right
#

v  0.8629 -4.8194 9.8240
v  5.3004 -4.8194 0.3078
v  0.8629 5.8485 9.8240
v  5.3004 5.8485 0.3078
v  1.3161 -4.8194 10.0354
v  5.7536 -4.8194 0.5191
v  1.3161 5.8485 10.0354
v  5.7536 5.8485 0.5191
# 8 vertices

g right
f 81 83 84 
f 84 82 81 
f 85 86 88 
f 88 87 85 
f 81 82 86 
f 86 85 81 
f 82 84 88 
f 88 86 82 
f 84 83 87 
f 87 88 84 
f 83 81 85 
f 85 87 83 
# 12 faces

#
# object middle
#

v  -19.3245 0.3367 0.3686
v  5.6755 0.3367 0.3686
v  -19.3245 0.6923 0.3686
v  5.6755 0.6923 0.3686
v  -19.3245 0.3367 10.3686
v  5.6755 0.3367 10.3686
v  -19.3245 0.6923 10.3686
v  5.6755 0.6923 10.3686
# 8 vertices

g middle
f 89 91 92 
f 92 90 89 
f 93 94 96 
f 96 95 93 
f 89 90 94 
f 94 93 89 
f 90 92 96 
f 96 94 90 
f 92 91 95 
f 95 96 92 
f 91 89 93 
f 93 95 91 
# 12 faces

#
# object right001
#

v  -14.5147 -4.8194 9.8240
v  -18.9522 -4.8194 0.3078
v  -14.5147 5.8485 9.8240
v  -18.9522 5.8485 0.3078
v  -14.9679 -4.8194 10.0354
v  -19.4054 -4.8194 0.5191
v  -14.9679 5.8485 10.0354
v  -19.4054 5.8485 0.5191
# 8 vertices

g right001
f 100 99 97 
f 97 98 100 
f 104 102 101 
f 101 103 104 
f 102 98 97 
f 97 101 102 
f 104 100 98 
f 98 102 104 
f 103 99 100 
f 100 104 103 
f 101 97 99 
f 99 103 101 
# 12 faces

#
# object s043
#

v  25.4181 -14.7335 0.2401
v  25.4149 -15.1007 0.2401
v  34.9097 -14.9306 0.2401
v  34.9066 -15.2978 0.2401
v  25.4181 -14.7335 7.5844
v  25.4149 -15.1007 7.5844
v  34.9097 -14.9306 7.5844
v  34.9066 -15.2978 7.5844
# 8 vertices

g s043
f 105 107 108 
f 108 106 105 
f 109 110 112 
f 112 111 109 
f 105 106 110 
f 110 109 105 
f 106 108 112 
f 112 110 106 
f 108 107 111 
f 111 112 108 
f 107 105 109 
f 109 111 107 
# 12 faces

#
# object s044
#

v  25.4398 -12.2288 7.5844
v  25.4366 -12.5960 7.5844
v  34.9315 -12.4259 7.5844
v  34.9283 -12.7931 7.5844
v  25.4398 -12.2288 29.6170
v  25.4366 -12.5960 29.6170
v  34.9315 -12.4259 29.6170
v  34.9283 -12.7931 29.6170
# 8 vertices

g s044
f 113 115 116 
f 116 114 113 
f 117 118 120 
f 120 119 117 
f 113 114 118 
f 118 117 113 
f 114 116 120 
f 120 118 114 
f 116 115 119 
f 119 120 116 
f 115 113 117 
f 117 119 115 
# 12 faces

#
# object m0
#

v  25.8459 34.6039 0.0565
v  25.3683 -20.4728 0.0565
v  35.3376 34.4068 0.0565
v  34.8600 -20.6699 0.0565
v  25.8459 34.6039 0.4237
v  25.3683 -20.4728 0.4237
v  35.3376 34.4068 0.4237
v  34.8600 -20.6699 0.4237
# 8 vertices

g m0
f 121 123 124 
f 124 122 121 
f 125 126 128 
f 128 127 125 
f 121 122 126 
f 126 125 121 
f 122 124 128 
f 128 126 122 
f 124 123 127 
f 127 128 124 
f 123 121 125 
f 125 127 123 
# 12 faces

#
# object m1
#

v  25.8302 32.7940 11.0729
v  25.6551 12.5992 11.0729
v  35.3219 32.5969 11.0729
v  35.1468 12.4022 11.0729
v  25.8302 32.7940 11.4401
v  25.6551 12.5992 11.4401
v  35.3219 32.5969 11.4401
v  35.1468 12.4022 11.4401
# 8 vertices

g m1
f 129 131 132 
f 132 130 129 
f 133 134 136 
f 136 135 133 
f 129 130 134 
f 134 133 129 
f 130 132 136 
f 136 134 130 
f 132 131 135 
f 135 136 132 
f 131 129 133 
f 133 135 131 
# 12 faces

#
# object m3
#

v  25.6389 10.7373 7.4008
v  25.3842 -18.6369 7.4008
v  35.1306 10.5402 7.4008
v  34.8759 -18.8340 7.4008
v  25.6389 10.7373 7.7680
v  25.3842 -18.6369 7.7680
v  35.1306 10.5402 7.7680
v  34.8759 -18.8340 7.7680
# 8 vertices

g m3
f 137 139 140 
f 140 138 137 
f 141 142 144 
f 144 143 141 
f 137 138 142 
f 142 141 137 
f 138 140 144 
f 144 142 138 
f 140 139 143 
f 143 144 140 
f 139 137 141 
f 141 143 139 
# 12 faces

#
# object s12
#

v  25.6992 17.6887 0.2401
v  25.6960 17.3215 0.2401
v  35.1909 17.4916 0.2401
v  35.1877 17.1244 0.2401
v  25.6992 17.6887 11.2565
v  25.6960 17.3215 11.2565
v  35.1909 17.4916 11.2565
v  35.1877 17.1244 11.2565
# 8 vertices

g s12
f 145 147 148 
f 148 146 145 
f 149 150 152 
f 152 151 149 
f 145 146 150 
f 150 149 145 
f 146 148 152 
f 152 150 146 
f 148 147 151 
f 151 152 148 
f 147 145 149 
f 149 151 147 
# 12 faces

#
# object s11
#

v  25.7932 28.5204 0.2401
v  25.7900 28.1532 0.2401
v  35.2848 28.3233 0.2401
v  35.2816 27.9561 0.2401
v  25.7932 28.5204 11.2565
v  25.7900 28.1532 11.2565
v  35.2848 28.3233 11.2565
v  35.2816 27.9561 11.2565
# 8 vertices

g s11
f 153 155 156 
f 156 154 153 
f 157 158 160 
f 160 159 157 
f 153 154 158 
f 158 157 153 
f 154 156 160 
f 160 158 154 
f 156 155 159 
f 159 160 156 
f 155 153 157 
f 157 159 155 
# 12 faces

#
# object s32
#

v  25.5148 -3.5826 0.2401
v  25.5116 -3.9498 0.2401
v  35.0064 -3.7797 0.2401
v  35.0033 -4.1469 0.2401
v  25.5148 -3.5826 7.5844
v  25.5116 -3.9498 7.5844
v  35.0064 -3.7797 7.5844
v  35.0033 -4.1469 7.5844
# 8 vertices

g s32
f 161 163 164 
f 164 162 161 
f 165 166 168 
f 168 167 165 
f 161 162 166 
f 166 165 161 
f 162 164 168 
f 168 166 162 
f 164 163 167 
f 167 168 164 
f 163 161 165 
f 165 167 163 
# 12 faces

#
# object s31
#

v  25.6087 7.2491 0.2401
v  25.6055 6.8820 0.2401
v  35.1004 7.0521 0.2401
v  35.0972 6.6849 0.2401
v  25.6087 7.2491 7.5844
v  25.6055 6.8820 7.5844
v  35.1004 7.0521 7.5844
v  35.0972 6.6849 7.5844
# 8 vertices

g s31
f 169 171 172 
f 172 170 169 
f 173 174 176 
f 176 175 173 
f 169 170 174 
f 174 173 169 
f 170 172 176 
f 176 174 170 
f 172 171 175 
f 175 176 172 
f 171 169 173 
f 173 175 171 
# 12 faces

#
# object s045
#

v  25.7198 -7.3067 7.5844
v  25.7166 -7.6739 7.5844
v  34.9742 -7.4989 7.5844
v  34.9710 -7.8660 7.5844
v  25.7198 -7.3067 29.6170
v  25.7166 -7.6739 29.6170
v  34.9742 -7.4989 29.6170
v  34.9710 -7.8660 29.6170
# 8 vertices

g s045
f 177 179 180 
f 180 178 177 
f 181 182 184 
f 184 183 181 
f 177 178 182 
f 182 181 177 
f 178 180 184 
f 184 182 178 
f 180 179 183 
f 183 184 180 
f 179 177 181 
f 181 183 179 
# 12 faces

#
# object s42
#

v  25.5501 0.4862 7.5844
v  25.5469 0.1190 7.5844
v  34.8044 0.2940 7.5844
v  34.8012 -0.0731 7.5844
v  25.5501 0.4862 29.6170
v  25.5469 0.1190 29.6170
v  34.8044 0.2940 29.6170
v  34.8012 -0.0731 29.6170
# 8 vertices

g s42
f 185 187 188 
f 188 186 185 
f 189 190 192 
f 192 191 189 
f 185 186 190 
f 190 189 185 
f 186 188 192 
f 192 190 186 
f 188 187 191 
f 191 192 188 
f 187 185 189 
f 189 191 187 
# 12 faces

#
# object s41
#

v  25.5928 5.4132 7.5844
v  25.5896 5.0461 7.5844
v  35.0844 5.2162 7.5844
v  35.0813 4.8490 7.5844
v  25.5928 5.4132 29.6170
v  25.5896 5.0461 29.6170
v  35.0844 5.2162 29.6170
v  35.0813 4.8490 29.6170
# 8 vertices

g s41
f 193 195 196 
f 196 194 193 
f 197 198 200 
f 200 199 197 
f 193 194 198 
f 198 197 193 
f 194 196 200 
f 200 198 194 
f 196 195 199 
f 199 200 196 
f 195 193 197 
f 197 199 195 
# 12 faces

#
# object m005
#

v  25.6115 7.5695 29.4585
v  25.4204 -14.4612 29.4585
v  35.1031 7.3724 29.4585
v  34.9121 -14.6582 29.4585
v  25.6115 7.5695 29.8257
v  25.4204 -14.4612 29.8257
v  35.1031 7.3724 29.8257
v  34.9121 -14.6582 29.8257
# 8 vertices

g m005
f 201 203 204 
f 204 202 201 
f 205 206 208 
f 208 207 205 
f 201 202 206 
f 206 205 201 
f 202 204 208 
f 208 206 202 
f 204 203 207 
f 207 208 204 
f 203 201 205 
f 205 207 203 
# 12 faces

#
# object Box014
#

v  -32.0855 -42.3662 39.5222
v  38.2691 -42.3662 39.5222
v  -32.0855 38.0121 39.5222
v  38.2691 38.0121 39.5222
v  -32.0855 -42.3662 40.5222
v  38.2691 -42.3662 40.5222
v  -32.0855 38.0121 40.5222
v  38.2691 38.0121 40.5222
# 8 vertices

g Box014
f 209 211 212 
f 212 210 209 
f 213 214 216 
f 216 215 213 
f 209 210 214 
f 214 213 209 
f 210 212 216 
f 216 214 210 
f 212 211 215 
f 215 216 212 
f 211 209 213 
f 213 215 211 
# 12 faces

#
# object Box015
#

v  -32.0855 -42.3662 -0.2907
v  38.2691 -42.3662 -0.2907
v  -32.0855 38.0121 -0.2907
v  38.2691 38.0121 -0.2907
v  -32.0855 -42.3662 0.7093
v  38.2691 -42.3662 0.7093
v  -32.0855 38.0121 0.7093
v  38.2691 38.0121 0.7093
# 8 vertices

g Box015
f 217 219 220 
f 220 218 217 
f 221 222 224 
f 224 223 221 
f 217 218 222 
f 222 221 217 
f 218 220 224 
f 224 222 218 
f 220 219 223 
f 223 224 220 
f 219 217 221 
f 221 223 219 
# 12 faces

#
# object Box016
#

v  -31.7551 -42.2295 0.0000
v  -31.4551 -42.2295 0.0000
v  -31.7551 -40.2295 0.0000
v  -31.4551 -40.2295 0.0000
v  -31.7551 -42.2295 39.9338
v  -31.4551 -42.2295 39.9338
v  -31.7551 -40.2295 39.9338
v  -31.4551 -40.2295 39.9338
# 8 vertices

g Box016
f 225 227 228 
f 228 226 225 
f 229 230 232 
f 232 231 229 
f 225 226 230 
f 230 229 225 
f 226 228 232 
f 232 230 226 
f 228 227 231 
f 231 232 228 
f 227 225 229 
f 229 231 227 
# 12 faces

#
# object Box017
#

v  -31.7551 35.9263 0.0000
v  -31.4551 35.9263 0.0000
v  -31.7551 37.9263 0.0000
v  -31.4551 37.9263 0.0000
v  -31.7551 35.9263 39.9338
v  -31.4551 35.9263 39.9338
v  -31.7551 37.9263 39.9338
v  -31.4551 37.9263 39.9338
# 8 vertices

g Box017
f 233 235 236 
f 236 234 233 
f 237 238 240 
f 240 239 237 
f 233 234 238 
f 238 237 233 
f 234 236 240 
f 240 238 234 
f 236 235 239 
f 239 240 236 
f 235 233 237 
f 237 239 235 
# 12 faces

#
# object Box018
#

v  37.9543 -42.2295 0.0000
v  38.2543 -42.2295 0.0000
v  37.9543 -40.2295 0.0000
v  38.2543 -40.2295 0.0000
v  37.9543 -42.2295 39.9338
v  38.2543 -42.2295 39.9338
v  37.9543 -40.2295 39.9338
v  38.2543 -40.2295 39.9338
# 8 vertices

g Box018
f 241 243 244 
f 244 242 241 
f 245 246 248 
f 248 247 245 
f 241 242 246 
f 246 245 241 
f 242 244 248 
f 248 246 242 
f 244 243 247 
f 247 248 244 
f 243 241 245 
f 245 247 243 
# 12 faces

#
# object Box019
#

v  37.9543 35.9263 0.0000
v  38.2543 35.9263 0.0000
v  37.9543 37.9263 0.0000
v  38.2543 37.9263 0.0000
v  37.9543 35.9263 39.9338
v  38.2543 35.9263 39.9338
v  37.9543 37.9263 39.9338
v  38.2543 37.9263 39.9338
# 8 vertices

g Box019
f 249 251 252 
f 252 250 249 
f 253 254 256 
f 256 255 253 
f 249 250 254 
f 254 253 249 
f 250 252 256 
f 256 254 250 
f 252 251 255 
f 255 256 252 
f 251 249 253 
f 253 255 251 
# 12 faces

#
# object top001
#

v  -23.2996 -31.0970 9.9409
v  9.2004 -31.0970 9.9409
v  -23.2996 -20.4315 9.9409
v  9.2004 -20.4315 9.9409
v  -23.2996 -31.0970 10.4409
v  9.2004 -31.0970 10.4409
v  -23.2996 -20.4315 10.4409
v  9.2004 -20.4315 10.4409
# 8 vertices

g top001
f 257 259 260 
f 260 258 257 
f 261 262 264 
f 264 263 261 
f 257 258 262 
f 262 261 257 
f 258 260 264 
f 264 262 258 
f 260 259 263 
f 263 264 260 
f 259 257 261 
f 261 263 259 
# 12 faces

#
# object right002
#

v  0.6378 -31.0970 9.8240
v  5.0753 -31.0970 0.3078
v  0.6378 -20.4315 9.8240
v  5.0753 -20.4315 0.3078
v  1.0909 -31.0970 10.0354
v  5.5284 -31.0970 0.5191
v  1.0909 -20.4315 10.0354
v  5.5284 -20.4315 0.5191
# 8 vertices

g right002
f 265 267 268 
f 268 266 265 
f 269 270 272 
f 272 271 269 
f 265 266 270 
f 270 269 265 
f 266 268 272 
f 272 270 266 
f 268 267 271 
f 271 272 268 
f 267 265 269 
f 269 271 267 
# 12 faces

#
# object middle001
#

v  -19.5496 -25.9420 0.3686
v  5.4504 -25.9420 0.3686
v  -19.5496 -25.5865 0.3686
v  5.4504 -25.5865 0.3686
v  -19.5496 -25.9420 10.3686
v  5.4504 -25.9420 10.3686
v  -19.5496 -25.5865 10.3686
v  5.4504 -25.5865 10.3686
# 8 vertices

g middle001
f 273 275 276 
f 276 274 273 
f 277 278 280 
f 280 279 277 
f 273 274 278 
f 278 277 273 
f 274 276 280 
f 280 278 274 
f 276 275 279 
f 279 280 276 
f 275 273 277 
f 277 279 275 
# 12 faces

#
# object right003
#

v  -14.7399 -31.0970 9.8240
v  -19.1774 -31.0970 0.3078
v  -14.7399 -20.4315 9.8240
v  -19.1774 -20.4315 0.3078
v  -15.1930 -31.0970 10.0354
v  -19.6305 -31.0970 0.5191
v  -15.1930 -20.4315 10.0354
v  -19.6305 -20.4315 0.5191
# 8 vertices

g right003
f 284 283 281 
f 281 282 284 
f 288 286 285 
f 285 287 288 
f 286 282 281 
f 281 285 286 
f 288 284 282 
f 282 286 288 
f 287 283 284 
f 284 288 287 
f 285 281 283 
f 283 287 285 
# 12 faces

