# NV = 26 NF = 48
v -0.579689 0.432119 0.00392292
v -0.585675 0.555841 0.00655938
v -0.443692 0.432117 0.00655918
v -0.442236 0.448167 0.00655918
v -0.420854 0.432117 0.00655918
v -0.420854 0.561024 0.00655918
v -0.59258 0.561024 0.00655938
v -0.59258 0.432119 0.00655938
v -0.420854 0.432117 -0.0285672
v -0.420854 0.561024 -0.0285672
v -0.59258 0.561024 -0.0285672
v -0.59258 0.432119 -0.0285672
v -0.566733 0.163913 0.000633206
v -0.585737 0.555208 0.0195937
v -0.585737 0.164149 0.0861921
v -0.46811 0.163913 0.000633206
v -0.432349 0.555208 0.0195937
v -0.432349 0.164149 0.0861921
v -0.432349 0.557116 0.00655918
v -0.585737 0.557116 0.00655938
v -0.535223 0.557116 0.00655938
v -0.579665 0.432119 0.000310591
v -0.443776 0.432117 0.000310591
v -0.475288 0.432117 0.000310591
v -0.562031 0.432119 0.000310591
v -0.579709 0.432119 0.00655938
f 16 3 17 
f 4 17 3 
f 17 4 19 
f 23 3 16 
f 21 6 7 
f 7 20 21 
f 19 4 6 
f 6 21 19 
f 5 6 4 
f 20 7 2 
f 8 2 7 
f 8 26 2 
f 3 5 4 
f 25 9 24 
f 8 1 26 
f 9 5 23 
f 23 24 9 
f 3 23 5 
f 2 14 20 
f 26 13 14 
f 14 2 26 
f 26 1 13 
f 13 1 22 
f 22 1 8 
f 12 22 8 
f 25 22 12 
f 9 25 12 
f 13 22 25 
f 25 24 13 
f 23 16 24 
f 13 24 16 
f 14 21 20 
f 21 14 17 
f 21 17 19 
f 18 16 17 
f 13 15 14 
f 16 18 15 
f 13 16 15 
f 18 17 14 
f 15 18 14 
f 11 10 9 
f 12 11 9 
f 12 8 7 
f 11 12 7 
f 11 7 6 
f 10 11 6 
f 10 6 5 
f 9 10 5 
