# 3ds Max Wavefront OBJ Exporter v0.97b - (c)2007 guruware
# File Created: 04.01.2015 15:17:25

#
# object Box001
#

v  -18.0000 -25.0000 0.0000
v  -2.0000 -25.0000 0.0000
v  -18.0000 29.0000 0.0000
v  -2.0000 29.0000 0.0000
v  -18.0000 -25.0000 4.0000
v  -2.0000 -25.0000 4.0000
v  -18.0000 29.0000 4.0000
v  -2.0000 29.0000 4.0000
# 8 vertices

g Box001
f 1 3 4 
f 4 2 1 
f 5 6 8 
f 8 7 5 
f 1 2 6 
f 6 5 1 
f 2 4 8 
f 8 6 2 
f 4 3 7 
f 7 8 4 
f 3 1 5 
f 5 7 3 
# 12 faces

#
# object Box013
#

v  2.0000 -25.0000 0.0000
v  18.0000 -25.0000 0.0000
v  2.0000 29.0000 0.0000
v  18.0000 29.0000 0.0000
v  2.0000 -25.0000 4.0000
v  18.0000 -25.0000 4.0000
v  2.0000 29.0000 4.0000
v  18.0000 29.0000 4.0000
# 8 vertices

g Box013
f 9 11 12 
f 12 10 9 
f 13 14 16 
f 16 15 13 
f 9 10 14 
f 14 13 9 
f 10 12 16 
f 16 14 10 
f 12 11 15 
f 15 16 12 
f 11 9 13 
f 13 15 11 
# 12 faces

#
# object Box011
#

v  -26.0000 -25.0000 0.0000
v  -22.0000 -25.0000 0.0000
v  -26.0000 29.0000 0.0000
v  -22.0000 29.0000 0.0000
v  -26.0000 -25.0000 20.0000
v  -22.0000 -25.0000 20.0000
v  -26.0000 29.0000 20.0000
v  -22.0000 29.0000 20.0000
# 8 vertices

g Box011
f 17 19 20 
f 20 18 17 
f 21 22 24 
f 24 23 21 
f 17 18 22 
f 22 21 17 
f 18 20 24 
f 24 22 18 
f 20 19 23 
f 23 24 20 
f 19 17 21 
f 21 23 19 
# 12 faces

#
# object Cylinder026
#

v  0.0000 10.8305 -0.0222
v  0.0000 10.8305 1.9778
v  -0.6840 10.8305 1.8572
v  -1.2856 10.8305 1.5099
v  -1.7320 10.8305 0.9778
v  -1.9696 10.8305 0.3251
v  -1.9696 10.8305 -0.3695
v  -1.7320 10.8305 -1.0222
v  -1.2856 10.8305 -1.5543
v  -0.6840 10.8305 -1.9016
v  0.0000 10.8305 -2.0222
v  0.6840 10.8305 -1.9016
v  1.2856 10.8305 -1.5543
v  1.7321 10.8305 -1.0222
v  1.9696 10.8305 -0.3695
v  1.9696 10.8305 0.3251
v  1.7321 10.8305 0.9778
v  1.2856 10.8305 1.5099
v  0.6840 10.8305 1.8572
v  0.0000 7.3145 1.9778
v  -0.6840 7.3145 1.8572
v  -1.2856 7.3145 1.5099
v  -1.7320 7.3145 0.9778
v  -1.9696 7.3145 0.3251
v  -1.9696 7.3145 -0.3695
v  -1.7320 7.3145 -1.0222
v  -1.2856 7.3145 -1.5543
v  -0.6840 7.3145 -1.9016
v  0.0000 7.3145 -2.0222
v  0.6840 7.3145 -1.9016
v  1.2856 7.3145 -1.5543
v  1.7321 7.3145 -1.0222
v  1.9696 7.3145 -0.3695
v  1.9696 7.3145 0.3251
v  1.7321 7.3145 0.9778
v  1.2856 7.3145 1.5099
v  0.6840 7.3145 1.8572
v  0.0000 3.7985 1.9778
v  -0.6840 3.7985 1.8572
v  -1.2856 3.7985 1.5099
v  -1.7320 3.7985 0.9778
v  -1.9696 3.7985 0.3251
v  -1.9696 3.7985 -0.3695
v  -1.7320 3.7985 -1.0222
v  -1.2856 3.7985 -1.5543
v  -0.6840 3.7985 -1.9016
v  0.0000 3.7985 -2.0222
v  0.6840 3.7985 -1.9016
v  1.2856 3.7985 -1.5543
v  1.7321 3.7985 -1.0222
v  1.9696 3.7985 -0.3695
v  1.9696 3.7985 0.3251
v  1.7321 3.7985 0.9778
v  1.2856 3.7985 1.5099
v  0.6840 3.7985 1.8572
v  0.0000 0.2825 1.9778
v  -0.6840 0.2825 1.8572
v  -1.2856 0.2825 1.5099
v  -1.7320 0.2825 0.9778
v  -1.9696 0.2825 0.3251
v  -1.9696 0.2825 -0.3695
v  -1.7320 0.2825 -1.0222
v  -1.2856 0.2825 -1.5543
v  -0.6840 0.2825 -1.9016
v  0.0000 0.2825 -2.0222
v  0.6840 0.2825 -1.9016
v  1.2856 0.2825 -1.5543
v  1.7321 0.2825 -1.0222
v  1.9696 0.2825 -0.3695
v  1.9696 0.2825 0.3251
v  1.7321 0.2825 0.9778
v  1.2856 0.2825 1.5099
v  0.6840 0.2825 1.8572
v  0.0000 -3.2335 1.9778
v  -0.6840 -3.2335 1.8572
v  -1.2856 -3.2335 1.5099
v  -1.7320 -3.2335 0.9778
v  -1.9696 -3.2335 0.3251
v  -1.9696 -3.2335 -0.3695
v  -1.7320 -3.2335 -1.0222
v  -1.2856 -3.2335 -1.5543
v  -0.6840 -3.2335 -1.9016
v  0.0000 -3.2335 -2.0222
v  0.6840 -3.2335 -1.9016
v  1.2856 -3.2335 -1.5543
v  1.7321 -3.2335 -1.0222
v  1.9696 -3.2335 -0.3695
v  1.9696 -3.2335 0.3251
v  1.7321 -3.2335 0.9778
v  1.2856 -3.2335 1.5099
v  0.6840 -3.2335 1.8572
v  0.0000 -6.7495 1.9778
v  -0.6840 -6.7495 1.8572
v  -1.2856 -6.7495 1.5099
v  -1.7320 -6.7495 0.9778
v  -1.9696 -6.7495 0.3251
v  -1.9696 -6.7495 -0.3695
v  -1.7320 -6.7495 -1.0222
v  -1.2856 -6.7495 -1.5543
v  -0.6840 -6.7495 -1.9016
v  0.0000 -6.7495 -2.0222
v  0.6840 -6.7495 -1.9016
v  1.2856 -6.7495 -1.5543
v  1.7321 -6.7495 -1.0222
v  1.9696 -6.7495 -0.3695
v  1.9696 -6.7495 0.3251
v  1.7321 -6.7495 0.9778
v  1.2856 -6.7495 1.5099
v  0.6840 -6.7495 1.8572
v  0.0000 -6.7495 -0.0222
# 110 vertices

g Cylinder026
f 25 27 26 
f 25 28 27 
f 25 29 28 
f 25 30 29 
f 25 31 30 
f 25 32 31 
f 25 33 32 
f 25 34 33 
f 25 35 34 
f 25 36 35 
f 25 37 36 
f 25 38 37 
f 25 39 38 
f 25 40 39 
f 25 41 40 
f 25 42 41 
f 25 43 42 
f 25 26 43 
f 26 45 44 
f 26 27 45 
f 27 46 45 
f 27 28 46 
f 28 47 46 
f 28 29 47 
f 29 48 47 
f 29 30 48 
f 30 49 48 
f 30 31 49 
f 31 50 49 
f 31 32 50 
f 32 51 50 
f 32 33 51 
f 33 52 51 
f 33 34 52 
f 34 53 52 
f 34 35 53 
f 35 54 53 
f 35 36 54 
f 36 55 54 
f 36 37 55 
f 37 56 55 
f 37 38 56 
f 38 57 56 
f 38 39 57 
f 39 58 57 
f 39 40 58 
f 40 59 58 
f 40 41 59 
f 41 60 59 
f 41 42 60 
f 42 61 60 
f 42 43 61 
f 43 44 61 
f 43 26 44 
f 44 63 62 
f 44 45 63 
f 45 64 63 
f 45 46 64 
f 46 65 64 
f 46 47 65 
f 47 66 65 
f 47 48 66 
f 48 67 66 
f 48 49 67 
f 49 68 67 
f 49 50 68 
f 50 69 68 
f 50 51 69 
f 51 70 69 
f 51 52 70 
f 52 71 70 
f 52 53 71 
f 53 72 71 
f 53 54 72 
f 54 73 72 
f 54 55 73 
f 55 74 73 
f 55 56 74 
f 56 75 74 
f 56 57 75 
f 57 76 75 
f 57 58 76 
f 58 77 76 
f 58 59 77 
f 59 78 77 
f 59 60 78 
f 60 79 78 
f 60 61 79 
f 61 62 79 
f 61 44 62 
f 62 81 80 
f 62 63 81 
f 63 82 81 
f 63 64 82 
f 64 83 82 
f 64 65 83 
f 65 84 83 
f 65 66 84 
f 66 85 84 
f 66 67 85 
f 67 86 85 
f 67 68 86 
f 68 87 86 
f 68 69 87 
f 69 88 87 
f 69 70 88 
f 70 89 88 
f 70 71 89 
f 71 90 89 
f 71 72 90 
f 72 91 90 
f 72 73 91 
f 73 92 91 
f 73 74 92 
f 74 93 92 
f 74 75 93 
f 75 94 93 
f 75 76 94 
f 76 95 94 
f 76 77 95 
f 77 96 95 
f 77 78 96 
f 78 97 96 
f 78 79 97 
f 79 80 97 
f 79 62 80 
f 80 99 98 
f 80 81 99 
f 81 100 99 
f 81 82 100 
f 82 101 100 
f 82 83 101 
f 83 102 101 
f 83 84 102 
f 84 103 102 
f 84 85 103 
f 85 104 103 
f 85 86 104 
f 86 105 104 
f 86 87 105 
f 87 106 105 
f 87 88 106 
f 88 107 106 
f 88 89 107 
f 89 108 107 
f 89 90 108 
f 90 109 108 
f 90 91 109 
f 91 110 109 
f 91 92 110 
f 92 111 110 
f 92 93 111 
f 93 112 111 
f 93 94 112 
f 94 113 112 
f 94 95 113 
f 95 114 113 
f 95 96 114 
f 96 115 114 
f 96 97 115 
f 97 98 115 
f 97 80 98 
f 98 117 116 
f 98 99 117 
f 99 118 117 
f 99 100 118 
f 100 119 118 
f 100 101 119 
f 101 120 119 
f 101 102 120 
f 102 121 120 
f 102 103 121 
f 103 122 121 
f 103 104 122 
f 104 123 122 
f 104 105 123 
f 105 124 123 
f 105 106 124 
f 106 125 124 
f 106 107 125 
f 107 126 125 
f 107 108 126 
f 108 127 126 
f 108 109 127 
f 109 128 127 
f 109 110 128 
f 110 129 128 
f 110 111 129 
f 111 130 129 
f 111 112 130 
f 112 131 130 
f 112 113 131 
f 113 132 131 
f 113 114 132 
f 114 133 132 
f 114 115 133 
f 115 116 133 
f 115 98 116 
f 134 116 117 
f 134 117 118 
f 134 118 119 
f 134 119 120 
f 134 120 121 
f 134 121 122 
f 134 122 123 
f 134 123 124 
f 134 124 125 
f 134 125 126 
f 134 126 127 
f 134 127 128 
f 134 128 129 
f 134 129 130 
f 134 130 131 
f 134 131 132 
f 134 132 133 
f 134 133 116 
# 216 faces

#
# object chain012
#

v  2.0000 10.8305 3.9778
v  2.0000 -6.7495 3.9778
v  -2.0000 10.8305 3.9778
v  -2.0000 -6.7495 3.9778
v  2.0000 10.8305 -0.0222
v  2.0000 -6.7495 -0.0222
v  -2.0000 10.8305 -0.0222
v  -2.0000 -6.7495 -0.0222
# 8 vertices

g chain012
f 135 137 138 
f 138 136 135 
f 139 140 142 
f 142 141 139 
f 135 136 140 
f 140 139 135 
f 136 138 142 
f 142 140 136 
f 138 137 141 
f 141 142 138 
f 137 135 139 
f 139 141 137 
# 12 faces

#
# object Cylinder027
#

v  0.0000 28.4105 -0.0222
v  0.0000 28.4105 1.0178
v  -0.3557 28.4105 0.9551
v  -0.6685 28.4105 0.7745
v  -0.9007 28.4105 0.4978
v  -1.0242 28.4105 0.1584
v  -1.0242 28.4105 -0.2028
v  -0.9007 28.4105 -0.5422
v  -0.6685 28.4105 -0.8189
v  -0.3557 28.4105 -0.9995
v  0.0000 28.4105 -1.0622
v  0.3557 28.4105 -0.9995
v  0.6685 28.4105 -0.8189
v  0.9007 28.4105 -0.5422
v  1.0242 28.4105 -0.2028
v  1.0242 28.4105 0.1584
v  0.9007 28.4105 0.4978
v  0.6685 28.4105 0.7745
v  0.3557 28.4105 0.9551
v  0.0000 24.8359 1.0178
v  -0.3557 24.8359 0.9551
v  -0.6685 24.8359 0.7745
v  -0.9007 24.8359 0.4978
v  -1.0242 24.8359 0.1584
v  -1.0242 24.8359 -0.2028
v  -0.9007 24.8359 -0.5422
v  -0.6685 24.8359 -0.8189
v  -0.3557 24.8359 -0.9995
v  0.0000 24.8359 -1.0622
v  0.3557 24.8359 -0.9995
v  0.6685 24.8359 -0.8189
v  0.9007 24.8359 -0.5422
v  1.0242 24.8359 -0.2028
v  1.0242 24.8359 0.1584
v  0.9007 24.8359 0.4978
v  0.6685 24.8359 0.7745
v  0.3557 24.8359 0.9551
v  0.0000 21.2613 1.0178
v  -0.3557 21.2613 0.9551
v  -0.6685 21.2613 0.7745
v  -0.9007 21.2613 0.4978
v  -1.0242 21.2613 0.1584
v  -1.0242 21.2613 -0.2028
v  -0.9007 21.2613 -0.5422
v  -0.6685 21.2613 -0.8189
v  -0.3557 21.2613 -0.9995
v  0.0000 21.2613 -1.0622
v  0.3557 21.2613 -0.9995
v  0.6685 21.2613 -0.8189
v  0.9007 21.2613 -0.5422
v  1.0242 21.2613 -0.2028
v  1.0242 21.2613 0.1584
v  0.9007 21.2613 0.4978
v  0.6685 21.2613 0.7745
v  0.3557 21.2613 0.9551
v  0.0000 17.6867 1.0178
v  -0.3557 17.6867 0.9551
v  -0.6685 17.6867 0.7745
v  -0.9007 17.6867 0.4978
v  -1.0242 17.6867 0.1584
v  -1.0242 17.6867 -0.2028
v  -0.9007 17.6867 -0.5422
v  -0.6685 17.6867 -0.8189
v  -0.3557 17.6867 -0.9995
v  0.0000 17.6867 -1.0622
v  0.3557 17.6867 -0.9995
v  0.6685 17.6867 -0.8189
v  0.9007 17.6867 -0.5422
v  1.0242 17.6867 -0.2028
v  1.0242 17.6867 0.1584
v  0.9007 17.6867 0.4978
v  0.6685 17.6867 0.7745
v  0.3557 17.6867 0.9551
v  0.0000 14.1121 1.0178
v  -0.3557 14.1121 0.9551
v  -0.6685 14.1121 0.7745
v  -0.9007 14.1121 0.4978
v  -1.0242 14.1121 0.1584
v  -1.0242 14.1121 -0.2028
v  -0.9007 14.1121 -0.5422
v  -0.6685 14.1121 -0.8189
v  -0.3557 14.1121 -0.9995
v  0.0000 14.1121 -1.0622
v  0.3557 14.1121 -0.9995
v  0.6685 14.1121 -0.8189
v  0.9007 14.1121 -0.5422
v  1.0242 14.1121 -0.2028
v  1.0242 14.1121 0.1584
v  0.9007 14.1121 0.4978
v  0.6685 14.1121 0.7745
v  0.3557 14.1121 0.9551
v  0.0000 10.5375 1.0178
v  -0.3557 10.5375 0.9551
v  -0.6685 10.5375 0.7745
v  -0.9007 10.5375 0.4978
v  -1.0242 10.5375 0.1584
v  -1.0242 10.5375 -0.2028
v  -0.9007 10.5375 -0.5422
v  -0.6685 10.5375 -0.8189
v  -0.3557 10.5375 -0.9995
v  0.0000 10.5375 -1.0622
v  0.3557 10.5375 -0.9995
v  0.6685 10.5375 -0.8189
v  0.9007 10.5375 -0.5422
v  1.0242 10.5375 -0.2028
v  1.0242 10.5375 0.1584
v  0.9007 10.5375 0.4978
v  0.6685 10.5375 0.7745
v  0.3557 10.5375 0.9551
v  0.0000 10.5375 -0.0222
# 110 vertices

g Cylinder027
f 143 145 144 
f 143 146 145 
f 143 147 146 
f 143 148 147 
f 143 149 148 
f 143 150 149 
f 143 151 150 
f 143 152 151 
f 143 153 152 
f 143 154 153 
f 143 155 154 
f 143 156 155 
f 143 157 156 
f 143 158 157 
f 143 159 158 
f 143 160 159 
f 143 161 160 
f 143 144 161 
f 144 163 162 
f 144 145 163 
f 145 164 163 
f 145 146 164 
f 146 165 164 
f 146 147 165 
f 147 166 165 
f 147 148 166 
f 148 167 166 
f 148 149 167 
f 149 168 167 
f 149 150 168 
f 150 169 168 
f 150 151 169 
f 151 170 169 
f 151 152 170 
f 152 171 170 
f 152 153 171 
f 153 172 171 
f 153 154 172 
f 154 173 172 
f 154 155 173 
f 155 174 173 
f 155 156 174 
f 156 175 174 
f 156 157 175 
f 157 176 175 
f 157 158 176 
f 158 177 176 
f 158 159 177 
f 159 178 177 
f 159 160 178 
f 160 179 178 
f 160 161 179 
f 161 162 179 
f 161 144 162 
f 162 181 180 
f 162 163 181 
f 163 182 181 
f 163 164 182 
f 164 183 182 
f 164 165 183 
f 165 184 183 
f 165 166 184 
f 166 185 184 
f 166 167 185 
f 167 186 185 
f 167 168 186 
f 168 187 186 
f 168 169 187 
f 169 188 187 
f 169 170 188 
f 170 189 188 
f 170 171 189 
f 171 190 189 
f 171 172 190 
f 172 191 190 
f 172 173 191 
f 173 192 191 
f 173 174 192 
f 174 193 192 
f 174 175 193 
f 175 194 193 
f 175 176 194 
f 176 195 194 
f 176 177 195 
f 177 196 195 
f 177 178 196 
f 178 197 196 
f 178 179 197 
f 179 180 197 
f 179 162 180 
f 180 199 198 
f 180 181 199 
f 181 200 199 
f 181 182 200 
f 182 201 200 
f 182 183 201 
f 183 202 201 
f 183 184 202 
f 184 203 202 
f 184 185 203 
f 185 204 203 
f 185 186 204 
f 186 205 204 
f 186 187 205 
f 187 206 205 
f 187 188 206 
f 188 207 206 
f 188 189 207 
f 189 208 207 
f 189 190 208 
f 190 209 208 
f 190 191 209 
f 191 210 209 
f 191 192 210 
f 192 211 210 
f 192 193 211 
f 193 212 211 
f 193 194 212 
f 194 213 212 
f 194 195 213 
f 195 214 213 
f 195 196 214 
f 196 215 214 
f 196 197 215 
f 197 198 215 
f 197 180 198 
f 198 217 216 
f 198 199 217 
f 199 218 217 
f 199 200 218 
f 200 219 218 
f 200 201 219 
f 201 220 219 
f 201 202 220 
f 202 221 220 
f 202 203 221 
f 203 222 221 
f 203 204 222 
f 204 223 222 
f 204 205 223 
f 205 224 223 
f 205 206 224 
f 206 225 224 
f 206 207 225 
f 207 226 225 
f 207 208 226 
f 208 227 226 
f 208 209 227 
f 209 228 227 
f 209 210 228 
f 210 229 228 
f 210 211 229 
f 211 230 229 
f 211 212 230 
f 212 231 230 
f 212 213 231 
f 213 232 231 
f 213 214 232 
f 214 233 232 
f 214 215 233 
f 215 216 233 
f 215 198 216 
f 216 235 234 
f 216 217 235 
f 217 236 235 
f 217 218 236 
f 218 237 236 
f 218 219 237 
f 219 238 237 
f 219 220 238 
f 220 239 238 
f 220 221 239 
f 221 240 239 
f 221 222 240 
f 222 241 240 
f 222 223 241 
f 223 242 241 
f 223 224 242 
f 224 243 242 
f 224 225 243 
f 225 244 243 
f 225 226 244 
f 226 245 244 
f 226 227 245 
f 227 246 245 
f 227 228 246 
f 228 247 246 
f 228 229 247 
f 229 248 247 
f 229 230 248 
f 230 249 248 
f 230 231 249 
f 231 250 249 
f 231 232 250 
f 232 251 250 
f 232 233 251 
f 233 234 251 
f 233 216 234 
f 252 234 235 
f 252 235 236 
f 252 236 237 
f 252 237 238 
f 252 238 239 
f 252 239 240 
f 252 240 241 
f 252 241 242 
f 252 242 243 
f 252 243 244 
f 252 244 245 
f 252 245 246 
f 252 246 247 
f 252 247 248 
f 252 248 249 
f 252 249 250 
f 252 250 251 
f 252 251 234 
# 216 faces

#
# object Cylinder028
#

v  0.0000 -6.7488 -0.0222
v  0.0000 -6.7488 1.0178
v  -0.3557 -6.7488 0.9551
v  -0.6685 -6.7488 0.7745
v  -0.9007 -6.7488 0.4978
v  -1.0242 -6.7488 0.1584
v  -1.0242 -6.7488 -0.2028
v  -0.9007 -6.7488 -0.5422
v  -0.6685 -6.7488 -0.8189
v  -0.3557 -6.7488 -0.9995
v  0.0000 -6.7488 -1.0622
v  0.3557 -6.7488 -0.9995
v  0.6685 -6.7488 -0.8189
v  0.9007 -6.7488 -0.5422
v  1.0242 -6.7488 -0.2028
v  1.0242 -6.7488 0.1584
v  0.9007 -6.7488 0.4978
v  0.6685 -6.7488 0.7745
v  0.3557 -6.7488 0.9551
v  0.0000 -10.3234 1.0178
v  -0.3557 -10.3234 0.9551
v  -0.6685 -10.3234 0.7745
v  -0.9007 -10.3234 0.4978
v  -1.0242 -10.3234 0.1584
v  -1.0242 -10.3234 -0.2028
v  -0.9007 -10.3234 -0.5422
v  -0.6685 -10.3234 -0.8189
v  -0.3557 -10.3234 -0.9995
v  0.0000 -10.3234 -1.0622
v  0.3557 -10.3234 -0.9995
v  0.6685 -10.3234 -0.8189
v  0.9007 -10.3234 -0.5422
v  1.0242 -10.3234 -0.2028
v  1.0242 -10.3234 0.1584
v  0.9007 -10.3234 0.4978
v  0.6685 -10.3234 0.7745
v  0.3557 -10.3234 0.9551
v  0.0000 -13.8980 1.0178
v  -0.3557 -13.8980 0.9551
v  -0.6685 -13.8980 0.7745
v  -0.9007 -13.8980 0.4978
v  -1.0242 -13.8980 0.1584
v  -1.0242 -13.8980 -0.2028
v  -0.9007 -13.8980 -0.5422
v  -0.6685 -13.8980 -0.8189
v  -0.3557 -13.8980 -0.9995
v  0.0000 -13.8980 -1.0622
v  0.3557 -13.8980 -0.9995
v  0.6685 -13.8980 -0.8189
v  0.9007 -13.8980 -0.5422
v  1.0242 -13.8980 -0.2028
v  1.0242 -13.8980 0.1584
v  0.9007 -13.8980 0.4978
v  0.6685 -13.8980 0.7745
v  0.3557 -13.8980 0.9551
v  0.0000 -17.4726 1.0178
v  -0.3557 -17.4726 0.9551
v  -0.6685 -17.4726 0.7745
v  -0.9007 -17.4726 0.4978
v  -1.0242 -17.4726 0.1584
v  -1.0242 -17.4726 -0.2028
v  -0.9007 -17.4726 -0.5422
v  -0.6685 -17.4726 -0.8189
v  -0.3557 -17.4726 -0.9995
v  0.0000 -17.4726 -1.0622
v  0.3557 -17.4726 -0.9995
v  0.6685 -17.4726 -0.8189
v  0.9007 -17.4726 -0.5422
v  1.0242 -17.4726 -0.2028
v  1.0242 -17.4726 0.1584
v  0.9007 -17.4726 0.4978
v  0.6685 -17.4726 0.7745
v  0.3557 -17.4726 0.9551
v  0.0000 -21.0472 1.0178
v  -0.3557 -21.0472 0.9551
v  -0.6685 -21.0472 0.7745
v  -0.9007 -21.0472 0.4978
v  -1.0242 -21.0472 0.1584
v  -1.0242 -21.0472 -0.2028
v  -0.9007 -21.0472 -0.5422
v  -0.6685 -21.0472 -0.8189
v  -0.3557 -21.0472 -0.9995
v  0.0000 -21.0472 -1.0622
v  0.3557 -21.0472 -0.9995
v  0.6685 -21.0472 -0.8189
v  0.9007 -21.0472 -0.5422
v  1.0242 -21.0472 -0.2028
v  1.0242 -21.0472 0.1584
v  0.9007 -21.0472 0.4978
v  0.6685 -21.0472 0.7745
v  0.3557 -21.0472 0.9551
v  0.0000 -24.6218 1.0178
v  -0.3557 -24.6218 0.9551
v  -0.6685 -24.6218 0.7745
v  -0.9007 -24.6218 0.4978
v  -1.0242 -24.6218 0.1584
v  -1.0242 -24.6218 -0.2028
v  -0.9007 -24.6218 -0.5422
v  -0.6685 -24.6218 -0.8189
v  -0.3557 -24.6218 -0.9995
v  0.0000 -24.6218 -1.0622
v  0.3557 -24.6218 -0.9995
v  0.6685 -24.6218 -0.8189
v  0.9007 -24.6218 -0.5422
v  1.0242 -24.6218 -0.2028
v  1.0242 -24.6218 0.1584
v  0.9007 -24.6218 0.4978
v  0.6685 -24.6218 0.7745
v  0.3557 -24.6218 0.9551
v  0.0000 -24.6218 -0.0222
# 110 vertices

g Cylinder028
f 253 255 254 
f 253 256 255 
f 253 257 256 
f 253 258 257 
f 253 259 258 
f 253 260 259 
f 253 261 260 
f 253 262 261 
f 253 263 262 
f 253 264 263 
f 253 265 264 
f 253 266 265 
f 253 267 266 
f 253 268 267 
f 253 269 268 
f 253 270 269 
f 253 271 270 
f 253 254 271 
f 254 273 272 
f 254 255 273 
f 255 274 273 
f 255 256 274 
f 256 275 274 
f 256 257 275 
f 257 276 275 
f 257 258 276 
f 258 277 276 
f 258 259 277 
f 259 278 277 
f 259 260 278 
f 260 279 278 
f 260 261 279 
f 261 280 279 
f 261 262 280 
f 262 281 280 
f 262 263 281 
f 263 282 281 
f 263 264 282 
f 264 283 282 
f 264 265 283 
f 265 284 283 
f 265 266 284 
f 266 285 284 
f 266 267 285 
f 267 286 285 
f 267 268 286 
f 268 287 286 
f 268 269 287 
f 269 288 287 
f 269 270 288 
f 270 289 288 
f 270 271 289 
f 271 272 289 
f 271 254 272 
f 272 291 290 
f 272 273 291 
f 273 292 291 
f 273 274 292 
f 274 293 292 
f 274 275 293 
f 275 294 293 
f 275 276 294 
f 276 295 294 
f 276 277 295 
f 277 296 295 
f 277 278 296 
f 278 297 296 
f 278 279 297 
f 279 298 297 
f 279 280 298 
f 280 299 298 
f 280 281 299 
f 281 300 299 
f 281 282 300 
f 282 301 300 
f 282 283 301 
f 283 302 301 
f 283 284 302 
f 284 303 302 
f 284 285 303 
f 285 304 303 
f 285 286 304 
f 286 305 304 
f 286 287 305 
f 287 306 305 
f 287 288 306 
f 288 307 306 
f 288 289 307 
f 289 290 307 
f 289 272 290 
f 290 309 308 
f 290 291 309 
f 291 310 309 
f 291 292 310 
f 292 311 310 
f 292 293 311 
f 293 312 311 
f 293 294 312 
f 294 313 312 
f 294 295 313 
f 295 314 313 
f 295 296 314 
f 296 315 314 
f 296 297 315 
f 297 316 315 
f 297 298 316 
f 298 317 316 
f 298 299 317 
f 299 318 317 
f 299 300 318 
f 300 319 318 
f 300 301 319 
f 301 320 319 
f 301 302 320 
f 302 321 320 
f 302 303 321 
f 303 322 321 
f 303 304 322 
f 304 323 322 
f 304 305 323 
f 305 324 323 
f 305 306 324 
f 306 325 324 
f 306 307 325 
f 307 308 325 
f 307 290 308 
f 308 327 326 
f 308 309 327 
f 309 328 327 
f 309 310 328 
f 310 329 328 
f 310 311 329 
f 311 330 329 
f 311 312 330 
f 312 331 330 
f 312 313 331 
f 313 332 331 
f 313 314 332 
f 314 333 332 
f 314 315 333 
f 315 334 333 
f 315 316 334 
f 316 335 334 
f 316 317 335 
f 317 336 335 
f 317 318 336 
f 318 337 336 
f 318 319 337 
f 319 338 337 
f 319 320 338 
f 320 339 338 
f 320 321 339 
f 321 340 339 
f 321 322 340 
f 322 341 340 
f 322 323 341 
f 323 342 341 
f 323 324 342 
f 324 343 342 
f 324 325 343 
f 325 326 343 
f 325 308 326 
f 326 345 344 
f 326 327 345 
f 327 346 345 
f 327 328 346 
f 328 347 346 
f 328 329 347 
f 329 348 347 
f 329 330 348 
f 330 349 348 
f 330 331 349 
f 331 350 349 
f 331 332 350 
f 332 351 350 
f 332 333 351 
f 333 352 351 
f 333 334 352 
f 334 353 352 
f 334 335 353 
f 335 354 353 
f 335 336 354 
f 336 355 354 
f 336 337 355 
f 337 356 355 
f 337 338 356 
f 338 357 356 
f 338 339 357 
f 339 358 357 
f 339 340 358 
f 340 359 358 
f 340 341 359 
f 341 360 359 
f 341 342 360 
f 342 361 360 
f 342 343 361 
f 343 344 361 
f 343 326 344 
f 362 344 345 
f 362 345 346 
f 362 346 347 
f 362 347 348 
f 362 348 349 
f 362 349 350 
f 362 350 351 
f 362 351 352 
f 362 352 353 
f 362 353 354 
f 362 354 355 
f 362 355 356 
f 362 356 357 
f 362 357 358 
f 362 358 359 
f 362 359 360 
f 362 360 361 
f 362 361 344 
# 216 faces

#
# object chain013
#

v  2.0000 28.9978 3.9778
v  2.0000 11.4178 3.9778
v  0.0000 28.9978 3.9778
v  0.0000 11.4178 3.9778
v  2.0000 28.9978 -0.0222
v  2.0000 11.4178 -0.0222
v  0.0000 28.9978 1.2578
v  0.0000 25.5882 1.2578
v  1.2606 25.5882 -0.0222
v  1.2606 28.9978 -0.0222
v  1.2606 28.9978 0.2001
v  1.1085 28.9978 0.6178
v  0.8228 28.9978 0.9583
v  0.4378 28.9978 1.1806
v  0.0000 21.9550 1.2578
v  1.2606 21.9550 -0.0222
v  0.0000 18.3218 1.2578
v  1.2606 18.3218 -0.0222
v  0.0000 14.6886 1.2578
v  1.2606 14.6886 -0.0222
v  0.0000 11.4178 1.2578
v  1.2606 11.4178 -0.0222
v  1.2606 11.4178 0.2001
v  1.1085 11.4178 0.6178
v  0.8228 11.4178 0.9583
v  0.4378 11.4178 1.1806
v  1.2606 25.5882 0.2001
v  1.1085 25.5882 0.6178
v  0.8228 25.5882 0.9583
v  0.4378 25.5882 1.1806
v  1.2606 21.9550 0.2001
v  1.1085 21.9550 0.6178
v  0.8228 21.9550 0.9583
v  0.4378 21.9550 1.1806
v  1.2606 18.3218 0.2001
v  1.1085 18.3218 0.6178
v  0.8228 18.3218 0.9583
v  0.4378 18.3218 1.1806
v  1.2606 14.6886 0.2001
v  1.1085 14.6886 0.6178
v  0.8228 14.6886 0.9583
v  0.4378 14.6886 1.1806
# 42 vertices

g chain013
f 363 365 366 
f 366 364 363 
f 368 384 382 
f 368 382 380 
f 368 380 378 
f 368 378 371 
f 367 368 371 
f 367 371 372 
f 363 364 368 
f 368 367 363 
f 365 369 370 
f 366 365 370 
f 366 370 377 
f 366 377 379 
f 366 379 381 
f 366 381 383 
f 367 372 373 
f 376 369 365 
f 375 376 365 
f 374 375 365 
f 373 374 365 
f 373 365 363 
f 367 373 363 
f 368 364 366 
f 366 383 388 
f 366 388 387 
f 366 387 386 
f 368 366 386 
f 368 386 385 
f 384 368 385 
f 370 369 376 
f 376 392 370 
f 389 393 394 
f 394 390 389 
f 390 394 395 
f 395 391 390 
f 391 395 396 
f 396 392 391 
f 392 396 377 
f 377 370 392 
f 393 397 398 
f 398 394 393 
f 394 398 399 
f 399 395 394 
f 395 399 400 
f 400 396 395 
f 396 400 379 
f 379 377 396 
f 397 401 402 
f 402 398 397 
f 398 402 403 
f 403 399 398 
f 399 403 404 
f 404 400 399 
f 400 404 381 
f 381 379 400 
f 393 389 371 
f 371 378 393 
f 397 393 378 
f 378 380 397 
f 382 384 385 
f 385 401 382 
f 401 397 380 
f 380 382 401 
f 402 386 387 
f 387 403 402 
f 401 385 386 
f 386 402 401 
f 404 388 383 
f 383 381 404 
f 403 387 388 
f 388 404 403 
f 372 371 389 
f 389 373 372 
f 390 374 373 
f 373 389 390 
f 391 375 374 
f 374 390 391 
f 392 376 375 
f 375 391 392 
# 80 faces

#
# object chain014
#

v  -2.0000 28.9978 3.9778
v  -2.0000 11.4178 3.9778
v  -0.0000 28.9978 3.9778
v  0.0000 11.4178 3.9778
v  -2.0000 28.9978 -0.0222
v  -2.0000 11.4178 -0.0222
v  0.0000 28.9978 1.2578
v  0.0000 25.5882 1.2578
v  -1.2606 25.5882 -0.0222
v  -1.2606 28.9978 -0.0222
v  -1.2606 28.9978 0.2001
v  -1.1085 28.9978 0.6178
v  -0.8228 28.9978 0.9583
v  -0.4378 28.9978 1.1806
v  0.0000 21.9550 1.2578
v  -1.2605 21.9550 -0.0222
v  0.0000 18.3218 1.2578
v  -1.2605 18.3218 -0.0222
v  0.0000 14.6886 1.2578
v  -1.2605 14.6886 -0.0222
v  0.0000 11.4178 1.2578
v  -1.2605 11.4178 -0.0222
v  -1.2605 11.4178 0.2001
v  -1.1085 11.4178 0.6178
v  -0.8228 11.4178 0.9583
v  -0.4378 11.4178 1.1806
v  -1.2606 25.5882 0.2001
v  -1.1085 25.5882 0.6178
v  -0.8228 25.5882 0.9583
v  -0.4378 25.5882 1.1806
v  -1.2606 21.9550 0.2001
v  -1.1085 21.9550 0.6178
v  -0.8228 21.9550 0.9583
v  -0.4378 21.9550 1.1806
v  -1.2605 18.3218 0.2001
v  -1.1085 18.3218 0.6178
v  -0.8228 18.3218 0.9583
v  -0.4378 18.3218 1.1806
v  -1.2605 14.6886 0.2001
v  -1.1085 14.6886 0.6178
v  -0.8228 14.6886 0.9583
v  -0.4378 14.6886 1.1806
# 42 vertices

g chain014
f 408 407 405 
f 405 406 408 
f 424 426 410 
f 422 424 410 
f 420 422 410 
f 413 420 410 
f 413 410 409 
f 414 413 409 
f 410 406 405 
f 405 409 410 
f 412 411 407 
f 412 407 408 
f 419 412 408 
f 421 419 408 
f 423 421 408 
f 425 423 408 
f 415 414 409 
f 407 411 418 
f 407 418 417 
f 407 417 416 
f 407 416 415 
f 405 407 415 
f 405 415 409 
f 408 406 410 
f 430 425 408 
f 429 430 408 
f 428 429 408 
f 428 408 410 
f 427 428 410 
f 427 410 426 
f 418 411 412 
f 412 434 418 
f 436 435 431 
f 431 432 436 
f 437 436 432 
f 432 433 437 
f 438 437 433 
f 433 434 438 
f 419 438 434 
f 434 412 419 
f 440 439 435 
f 435 436 440 
f 441 440 436 
f 436 437 441 
f 442 441 437 
f 437 438 442 
f 421 442 438 
f 438 419 421 
f 444 443 439 
f 439 440 444 
f 445 444 440 
f 440 441 445 
f 446 445 441 
f 441 442 446 
f 423 446 442 
f 442 421 423 
f 413 431 435 
f 435 420 413 
f 420 435 439 
f 439 422 420 
f 427 426 424 
f 424 443 427 
f 422 439 443 
f 443 424 422 
f 429 428 444 
f 444 445 429 
f 428 427 443 
f 443 444 428 
f 425 430 446 
f 446 423 425 
f 430 429 445 
f 445 446 430 
f 431 413 414 
f 414 415 431 
f 415 416 432 
f 432 431 415 
f 416 417 433 
f 433 432 416 
f 417 418 434 
f 434 433 417 
# 80 faces

#
# object Cylinder029
#

v  0.0000 28.9965 1.9778
v  -0.6840 28.9965 1.8572
v  -1.2856 28.9965 1.5099
v  -1.7320 28.9965 0.9778
v  -1.9696 28.9965 0.3251
v  -1.9696 28.9965 -0.3695
v  -1.7320 28.9965 -1.0222
v  -1.2856 28.9965 -1.5543
v  -0.6840 28.9965 -1.9016
v  0.0000 28.9965 -2.0222
v  0.6840 28.9965 -1.9016
v  1.2856 28.9965 -1.5543
v  1.7321 28.9965 -1.0222
v  1.9696 28.9965 -0.3695
v  1.9696 28.9965 0.3251
v  1.7321 28.9965 0.9778
v  1.2856 28.9965 1.5099
v  0.6840 28.9965 1.8572
v  0.0000 25.4805 1.9778
v  -0.6840 25.4805 1.8572
v  -1.2856 25.4805 1.5099
v  -1.7320 25.4805 0.9778
v  -1.9696 25.4805 0.3251
v  -1.9696 25.4805 -0.3695
v  -1.7320 25.4805 -1.0222
v  -1.2856 25.4805 -1.5543
v  -0.6840 25.4805 -1.9016
v  0.0000 25.4805 -2.0222
v  0.6840 25.4805 -1.9016
v  1.2856 25.4805 -1.5543
v  1.7321 25.4805 -1.0222
v  1.9696 25.4805 -0.3695
v  1.9696 25.4805 0.3251
v  1.7321 25.4805 0.9778
v  1.2856 25.4805 1.5099
v  0.6840 25.4805 1.8572
v  0.0000 21.9645 1.9778
v  -0.6840 21.9645 1.8572
v  -1.2856 21.9645 1.5099
v  -1.7320 21.9645 0.9778
v  -1.9696 21.9645 0.3251
v  -1.9696 21.9645 -0.3695
v  -1.7320 21.9645 -1.0222
v  -1.2856 21.9645 -1.5543
v  -0.6840 21.9645 -1.9016
v  0.0000 21.9645 -2.0222
v  0.6840 21.9645 -1.9016
v  1.2856 21.9645 -1.5543
v  1.7321 21.9645 -1.0222
v  1.9696 21.9645 -0.3695
v  1.9696 21.9645 0.3251
v  1.7321 21.9645 0.9778
v  1.2856 21.9645 1.5099
v  0.6840 21.9645 1.8572
v  0.0000 18.4485 1.9778
v  -0.6840 18.4485 1.8572
v  -1.2856 18.4485 1.5099
v  -1.7320 18.4485 0.9778
v  -1.9696 18.4485 0.3251
v  -1.9696 18.4485 -0.3695
v  -1.7320 18.4485 -1.0222
v  -1.2856 18.4485 -1.5543
v  -0.6840 18.4485 -1.9016
v  0.0000 18.4485 -2.0222
v  0.6840 18.4485 -1.9016
v  1.2856 18.4485 -1.5543
v  1.7321 18.4485 -1.0222
v  1.9696 18.4485 -0.3695
v  1.9696 18.4485 0.3251
v  1.7321 18.4485 0.9778
v  1.2856 18.4485 1.5099
v  0.6840 18.4485 1.8572
v  0.0000 14.9325 1.9778
v  -0.6840 14.9325 1.8572
v  -1.2856 14.9325 1.5099
v  -1.7320 14.9325 0.9778
v  -1.9696 14.9325 0.3251
v  -1.9696 14.9325 -0.3695
v  -1.7320 14.9325 -1.0222
v  -1.2856 14.9325 -1.5543
v  -0.6840 14.9325 -1.9016
v  0.0000 14.9325 -2.0222
v  0.6840 14.9325 -1.9016
v  1.2856 14.9325 -1.5543
v  1.7321 14.9325 -1.0222
v  1.9696 14.9325 -0.3695
v  1.9696 14.9325 0.3251
v  1.7321 14.9325 0.9778
v  1.2856 14.9325 1.5099
v  0.6840 14.9325 1.8572
v  0.0000 11.4165 1.9778
v  -0.6840 11.4165 1.8572
v  -1.2856 11.4165 1.5099
v  -1.7320 11.4165 0.9778
v  -1.9696 11.4165 0.3251
v  -1.9696 11.4165 -0.3695
v  -1.7320 11.4165 -1.0222
v  -1.2856 11.4165 -1.5543
v  -0.6840 11.4165 -1.9016
v  0.0000 11.4165 -2.0222
v  0.6840 11.4165 -1.9016
v  1.2856 11.4165 -1.5543
v  1.7321 11.4165 -1.0222
v  1.9696 11.4165 -0.3695
v  1.9696 11.4165 0.3251
v  1.7321 11.4165 0.9778
v  1.2856 11.4165 1.5099
v  0.6840 11.4165 1.8572
v  0.0000 28.9965 1.2578
v  -0.4378 28.9965 1.1806
v  -0.8228 28.9965 0.9583
v  -1.1085 28.9965 0.6178
v  -1.2606 28.9965 0.2001
v  -1.2606 28.9965 -0.2445
v  -1.1085 28.9965 -0.6622
v  -0.8228 28.9965 -1.0027
v  -0.4378 28.9965 -1.2250
v  0.0000 28.9965 -1.3022
v  0.4378 28.9965 -1.2250
v  0.8228 28.9965 -1.0027
v  1.1085 28.9965 -0.6622
v  1.2606 28.9965 -0.2445
v  1.2606 28.9965 0.2001
v  1.1085 28.9965 0.6178
v  0.8228 28.9965 0.9583
v  0.4378 28.9965 1.1806
v  -0.4378 11.4165 1.1806
v  0.0000 11.4165 1.2578
v  -0.8228 11.4165 0.9583
v  -1.1085 11.4165 0.6178
v  -1.2606 11.4165 0.2001
v  -1.2606 11.4165 -0.2445
v  -1.1085 11.4165 -0.6622
v  -0.8228 11.4165 -1.0027
v  -0.4378 11.4165 -1.2250
v  0.0000 11.4165 -1.3022
v  0.4378 11.4165 -1.2250
v  0.8228 11.4165 -1.0027
v  1.1085 11.4165 -0.6622
v  1.2606 11.4165 -0.2445
v  1.2606 11.4165 0.2001
v  1.1085 11.4165 0.6178
v  0.8228 11.4165 0.9583
v  0.4378 11.4165 1.1806
v  0.0000 25.3633 1.2578
v  -0.4378 25.3633 1.1806
v  -0.8228 25.3633 0.9583
v  -1.1085 25.3633 0.6178
v  -1.2606 25.3633 0.2001
v  -1.2606 25.3633 -0.2445
v  -1.1085 25.3633 -0.6622
v  -0.8228 25.3633 -1.0027
v  -0.4378 25.3633 -1.2250
v  0.0000 25.3633 -1.3022
v  0.4378 25.3633 -1.2250
v  0.8228 25.3633 -1.0027
v  1.1085 25.3633 -0.6622
v  1.2606 25.3633 -0.2445
v  1.2606 25.3633 0.2001
v  1.1085 25.3633 0.6178
v  0.8228 25.3633 0.9583
v  0.4378 25.3633 1.1806
v  0.0000 21.7301 1.2578
v  -0.4378 21.7301 1.1806
v  -0.8228 21.7301 0.9583
v  -1.1085 21.7301 0.6178
v  -1.2606 21.7301 0.2001
v  -1.2606 21.7301 -0.2445
v  -1.1085 21.7301 -0.6622
v  -0.8228 21.7301 -1.0027
v  -0.4378 21.7301 -1.2250
v  0.0000 21.7301 -1.3022
v  0.4378 21.7301 -1.2250
v  0.8228 21.7301 -1.0027
v  1.1085 21.7301 -0.6622
v  1.2606 21.7301 -0.2445
v  1.2606 21.7301 0.2001
v  1.1085 21.7301 0.6178
v  0.8228 21.7301 0.9583
v  0.4378 21.7301 1.1806
v  0.0000 18.0969 1.2578
v  -0.4378 18.0969 1.1806
v  -0.8228 18.0969 0.9583
v  -1.1085 18.0969 0.6178
v  -1.2606 18.0969 0.2001
v  -1.2606 18.0969 -0.2445
v  -1.1085 18.0969 -0.6622
v  -0.8228 18.0969 -1.0027
v  -0.4378 18.0969 -1.2250
v  0.0000 18.0969 -1.3022
v  0.4378 18.0969 -1.2250
v  0.8228 18.0969 -1.0027
v  1.1085 18.0969 -0.6622
v  1.2606 18.0969 -0.2445
v  1.2606 18.0969 0.2001
v  1.1085 18.0969 0.6178
v  0.8228 18.0969 0.9583
v  0.4378 18.0969 1.1806
v  0.0000 14.4637 1.2578
v  -0.4378 14.4637 1.1806
v  -0.8228 14.4637 0.9583
v  -1.1085 14.4637 0.6178
v  -1.2606 14.4637 0.2001
v  -1.2606 14.4637 -0.2445
v  -1.1085 14.4637 -0.6622
v  -0.8228 14.4637 -1.0027
v  -0.4378 14.4637 -1.2250
v  0.0000 14.4637 -1.3022
v  0.4378 14.4637 -1.2250
v  0.8228 14.4637 -1.0027
v  1.1085 14.4637 -0.6622
v  1.2606 14.4637 -0.2445
v  1.2606 14.4637 0.2001
v  1.1085 14.4637 0.6178
v  0.8228 14.4637 0.9583
v  0.4378 14.4637 1.1806
# 216 vertices

g Cylinder029
f 447 448 466 
f 466 465 447 
f 448 449 467 
f 467 466 448 
f 449 450 468 
f 468 467 449 
f 450 451 469 
f 469 468 450 
f 451 452 470 
f 470 469 451 
f 452 453 471 
f 471 470 452 
f 453 454 472 
f 472 471 453 
f 454 455 473 
f 473 472 454 
f 455 456 474 
f 474 473 455 
f 456 457 475 
f 475 474 456 
f 457 458 476 
f 476 475 457 
f 458 459 477 
f 477 476 458 
f 459 460 478 
f 478 477 459 
f 460 461 479 
f 479 478 460 
f 461 462 480 
f 480 479 461 
f 462 463 481 
f 481 480 462 
f 463 464 482 
f 482 481 463 
f 464 447 465 
f 465 482 464 
f 465 466 484 
f 484 483 465 
f 466 467 485 
f 485 484 466 
f 467 468 486 
f 486 485 467 
f 468 469 487 
f 487 486 468 
f 469 470 488 
f 488 487 469 
f 470 471 489 
f 489 488 470 
f 471 472 490 
f 490 489 471 
f 472 473 491 
f 491 490 472 
f 473 474 492 
f 492 491 473 
f 474 475 493 
f 493 492 474 
f 475 476 494 
f 494 493 475 
f 476 477 495 
f 495 494 476 
f 477 478 496 
f 496 495 477 
f 478 479 497 
f 497 496 478 
f 479 480 498 
f 498 497 479 
f 480 481 499 
f 499 498 480 
f 481 482 500 
f 500 499 481 
f 482 465 483 
f 483 500 482 
f 483 484 502 
f 502 501 483 
f 484 485 503 
f 503 502 484 
f 485 486 504 
f 504 503 485 
f 486 487 505 
f 505 504 486 
f 487 488 506 
f 506 505 487 
f 488 489 507 
f 507 506 488 
f 489 490 508 
f 508 507 489 
f 490 491 509 
f 509 508 490 
f 491 492 510 
f 510 509 491 
f 492 493 511 
f 511 510 492 
f 493 494 512 
f 512 511 493 
f 494 495 513 
f 513 512 494 
f 495 496 514 
f 514 513 495 
f 496 497 515 
f 515 514 496 
f 497 498 516 
f 516 515 497 
f 498 499 517 
f 517 516 498 
f 499 500 518 
f 518 517 499 
f 500 483 501 
f 501 518 500 
f 501 502 520 
f 520 519 501 
f 502 503 521 
f 521 520 502 
f 503 504 522 
f 522 521 503 
f 504 505 523 
f 523 522 504 
f 505 506 524 
f 524 523 505 
f 506 507 525 
f 525 524 506 
f 507 508 526 
f 526 525 507 
f 508 509 527 
f 527 526 508 
f 509 510 528 
f 528 527 509 
f 510 511 529 
f 529 528 510 
f 511 512 530 
f 530 529 511 
f 512 513 531 
f 531 530 512 
f 513 514 532 
f 532 531 513 
f 514 515 533 
f 533 532 514 
f 515 516 534 
f 534 533 515 
f 516 517 535 
f 535 534 516 
f 517 518 536 
f 536 535 517 
f 518 501 519 
f 519 536 518 
f 519 520 538 
f 538 537 519 
f 520 521 539 
f 539 538 520 
f 521 522 540 
f 540 539 521 
f 522 523 541 
f 541 540 522 
f 523 524 542 
f 542 541 523 
f 524 525 543 
f 543 542 524 
f 525 526 544 
f 544 543 525 
f 526 527 545 
f 545 544 526 
f 527 528 546 
f 546 545 527 
f 528 529 547 
f 547 546 528 
f 529 530 548 
f 548 547 529 
f 530 531 549 
f 549 548 530 
f 531 532 550 
f 550 549 531 
f 532 533 551 
f 551 550 532 
f 533 534 552 
f 552 551 533 
f 534 535 553 
f 553 552 534 
f 535 536 554 
f 554 553 535 
f 536 519 537 
f 537 554 536 
f 571 572 462 
f 570 571 462 
f 569 570 462 
f 568 569 462 
f 567 568 462 
f 567 462 461 
f 566 567 461 
f 566 461 460 
f 565 566 460 
f 565 460 459 
f 564 565 459 
f 564 459 458 
f 563 564 458 
f 563 458 457 
f 562 563 457 
f 562 457 456 
f 561 562 456 
f 561 456 455 
f 560 561 455 
f 560 455 454 
f 559 560 454 
f 559 454 453 
f 558 559 453 
f 558 453 452 
f 557 558 452 
f 557 452 451 
f 556 557 451 
f 556 451 450 
f 556 450 449 
f 449 448 447 
f 556 449 447 
f 447 464 463 
f 556 447 463 
f 555 556 463 
f 555 463 462 
f 555 462 572 
f 574 590 552 
f 574 552 553 
f 574 553 554 
f 554 537 538 
f 574 554 538 
f 538 539 540 
f 574 538 540 
f 573 574 540 
f 573 540 541 
f 575 573 541 
f 575 541 542 
f 576 575 542 
f 576 542 543 
f 577 576 543 
f 577 543 544 
f 578 577 544 
f 578 544 545 
f 579 578 545 
f 579 545 546 
f 580 579 546 
f 580 546 547 
f 581 580 547 
f 581 547 548 
f 582 581 548 
f 582 548 549 
f 583 582 549 
f 583 549 550 
f 584 583 550 
f 584 550 551 
f 585 584 551 
f 585 551 552 
f 552 590 589 
f 552 589 588 
f 552 588 587 
f 552 587 586 
f 585 552 586 
f 555 591 592 
f 592 556 555 
f 556 592 593 
f 593 557 556 
f 557 593 594 
f 594 558 557 
f 558 594 595 
f 595 559 558 
f 559 595 596 
f 596 560 559 
f 560 596 597 
f 597 561 560 
f 561 597 598 
f 598 562 561 
f 562 598 599 
f 599 563 562 
f 563 599 600 
f 600 564 563 
f 564 600 601 
f 601 565 564 
f 565 601 602 
f 602 566 565 
f 566 602 603 
f 603 567 566 
f 567 603 604 
f 604 568 567 
f 568 604 605 
f 605 569 568 
f 569 605 606 
f 606 570 569 
f 570 606 607 
f 607 571 570 
f 571 607 608 
f 608 572 571 
f 572 608 591 
f 591 555 572 
f 591 609 610 
f 610 592 591 
f 592 610 611 
f 611 593 592 
f 593 611 612 
f 612 594 593 
f 594 612 613 
f 613 595 594 
f 595 613 614 
f 614 596 595 
f 596 614 615 
f 615 597 596 
f 597 615 616 
f 616 598 597 
f 598 616 617 
f 617 599 598 
f 599 617 618 
f 618 600 599 
f 600 618 619 
f 619 601 600 
f 601 619 620 
f 620 602 601 
f 602 620 621 
f 621 603 602 
f 603 621 622 
f 622 604 603 
f 604 622 623 
f 623 605 604 
f 605 623 624 
f 624 606 605 
f 606 624 625 
f 625 607 606 
f 607 625 626 
f 626 608 607 
f 608 626 609 
f 609 591 608 
f 609 627 628 
f 628 610 609 
f 610 628 629 
f 629 611 610 
f 611 629 630 
f 630 612 611 
f 612 630 631 
f 631 613 612 
f 613 631 632 
f 632 614 613 
f 614 632 633 
f 633 615 614 
f 615 633 634 
f 634 616 615 
f 616 634 635 
f 635 617 616 
f 617 635 636 
f 636 618 617 
f 618 636 637 
f 637 619 618 
f 619 637 638 
f 638 620 619 
f 620 638 639 
f 639 621 620 
f 621 639 640 
f 640 622 621 
f 622 640 641 
f 641 623 622 
f 623 641 642 
f 642 624 623 
f 624 642 643 
f 643 625 624 
f 625 643 644 
f 644 626 625 
f 626 644 627 
f 627 609 626 
f 627 645 646 
f 646 628 627 
f 628 646 647 
f 647 629 628 
f 629 647 648 
f 648 630 629 
f 630 648 649 
f 649 631 630 
f 631 649 650 
f 650 632 631 
f 632 650 651 
f 651 633 632 
f 633 651 652 
f 652 634 633 
f 634 652 653 
f 653 635 634 
f 635 653 654 
f 654 636 635 
f 636 654 655 
f 655 637 636 
f 637 655 656 
f 656 638 637 
f 638 656 657 
f 657 639 638 
f 639 657 658 
f 658 640 639 
f 640 658 659 
f 659 641 640 
f 641 659 660 
f 660 642 641 
f 642 660 661 
f 661 643 642 
f 643 661 662 
f 662 644 643 
f 644 662 645 
f 645 627 644 
f 646 573 575 
f 575 647 646 
f 645 574 573 
f 573 646 645 
f 648 576 577 
f 577 649 648 
f 647 575 576 
f 576 648 647 
f 650 578 579 
f 579 651 650 
f 649 577 578 
f 578 650 649 
f 652 580 581 
f 581 653 652 
f 651 579 580 
f 580 652 651 
f 654 582 583 
f 583 655 654 
f 653 581 582 
f 582 654 653 
f 656 584 585 
f 585 657 656 
f 655 583 584 
f 584 656 655 
f 658 586 587 
f 587 659 658 
f 657 585 586 
f 586 658 657 
f 660 588 589 
f 589 661 660 
f 659 587 588 
f 588 660 659 
f 662 590 574 
f 574 645 662 
f 661 589 590 
f 590 662 661 
# 432 faces

#
# object Cylinder030
#

v  0.0000 -7.3355 1.9778
v  -0.6840 -7.3355 1.8572
v  -1.2856 -7.3355 1.5099
v  -1.7320 -7.3355 0.9778
v  -1.9696 -7.3355 0.3251
v  -1.9696 -7.3355 -0.3695
v  -1.7320 -7.3355 -1.0222
v  -1.2856 -7.3355 -1.5543
v  -0.6840 -7.3355 -1.9016
v  0.0000 -7.3355 -2.0222
v  0.6840 -7.3355 -1.9016
v  1.2856 -7.3355 -1.5543
v  1.7321 -7.3355 -1.0222
v  1.9696 -7.3355 -0.3695
v  1.9696 -7.3355 0.3251
v  1.7321 -7.3355 0.9778
v  1.2856 -7.3355 1.5099
v  0.6840 -7.3355 1.8572
v  0.0000 -10.8515 1.9778
v  -0.6840 -10.8515 1.8572
v  -1.2856 -10.8515 1.5099
v  -1.7320 -10.8515 0.9778
v  -1.9696 -10.8515 0.3251
v  -1.9696 -10.8515 -0.3695
v  -1.7320 -10.8515 -1.0222
v  -1.2856 -10.8515 -1.5543
v  -0.6840 -10.8515 -1.9016
v  0.0000 -10.8515 -2.0222
v  0.6840 -10.8515 -1.9016
v  1.2856 -10.8515 -1.5543
v  1.7321 -10.8515 -1.0222
v  1.9696 -10.8515 -0.3695
v  1.9696 -10.8515 0.3251
v  1.7321 -10.8515 0.9778
v  1.2856 -10.8515 1.5099
v  0.6840 -10.8515 1.8572
v  0.0000 -14.3675 1.9778
v  -0.6840 -14.3675 1.8572
v  -1.2856 -14.3675 1.5099
v  -1.7320 -14.3675 0.9778
v  -1.9696 -14.3675 0.3251
v  -1.9696 -14.3675 -0.3695
v  -1.7320 -14.3675 -1.0222
v  -1.2856 -14.3675 -1.5543
v  -0.6840 -14.3675 -1.9016
v  0.0000 -14.3675 -2.0222
v  0.6840 -14.3675 -1.9016
v  1.2856 -14.3675 -1.5543
v  1.7321 -14.3675 -1.0222
v  1.9696 -14.3675 -0.3695
v  1.9696 -14.3675 0.3251
v  1.7321 -14.3675 0.9778
v  1.2856 -14.3675 1.5099
v  0.6840 -14.3675 1.8572
v  0.0000 -17.8835 1.9778
v  -0.6840 -17.8835 1.8572
v  -1.2856 -17.8835 1.5099
v  -1.7320 -17.8835 0.9778
v  -1.9696 -17.8835 0.3251
v  -1.9696 -17.8835 -0.3695
v  -1.7320 -17.8835 -1.0222
v  -1.2856 -17.8835 -1.5543
v  -0.6840 -17.8835 -1.9016
v  0.0000 -17.8835 -2.0222
v  0.6840 -17.8835 -1.9016
v  1.2856 -17.8835 -1.5543
v  1.7321 -17.8835 -1.0222
v  1.9696 -17.8835 -0.3695
v  1.9696 -17.8835 0.3251
v  1.7321 -17.8835 0.9778
v  1.2856 -17.8835 1.5099
v  0.6840 -17.8835 1.8572
v  0.0000 -21.3995 1.9778
v  -0.6840 -21.3995 1.8572
v  -1.2856 -21.3995 1.5099
v  -1.7321 -21.3995 0.9778
v  -1.9696 -21.3995 0.3251
v  -1.9696 -21.3995 -0.3695
v  -1.7320 -21.3995 -1.0222
v  -1.2856 -21.3995 -1.5543
v  -0.6840 -21.3995 -1.9016
v  0.0000 -21.3995 -2.0222
v  0.6840 -21.3995 -1.9016
v  1.2856 -21.3995 -1.5543
v  1.7321 -21.3995 -1.0222
v  1.9696 -21.3995 -0.3695
v  1.9696 -21.3995 0.3251
v  1.7321 -21.3995 0.9778
v  1.2856 -21.3995 1.5099
v  0.6840 -21.3995 1.8572
v  0.0000 -24.9155 1.9778
v  -0.6840 -24.9155 1.8572
v  -1.2856 -24.9155 1.5099
v  -1.7321 -24.9155 0.9778
v  -1.9696 -24.9155 0.3251
v  -1.9696 -24.9155 -0.3695
v  -1.7320 -24.9155 -1.0222
v  -1.2856 -24.9155 -1.5543
v  -0.6840 -24.9155 -1.9016
v  0.0000 -24.9155 -2.0222
v  0.6840 -24.9155 -1.9016
v  1.2856 -24.9155 -1.5543
v  1.7321 -24.9155 -1.0222
v  1.9696 -24.9155 -0.3695
v  1.9696 -24.9155 0.3251
v  1.7321 -24.9155 0.9778
v  1.2856 -24.9155 1.5099
v  0.6840 -24.9155 1.8572
v  0.0000 -7.3355 1.2578
v  -0.4378 -7.3355 1.1806
v  -0.8228 -7.3355 0.9583
v  -1.1085 -7.3355 0.6178
v  -1.2606 -7.3355 0.2001
v  -1.2606 -7.3355 -0.2445
v  -1.1085 -7.3355 -0.6622
v  -0.8228 -7.3355 -1.0027
v  -0.4378 -7.3355 -1.2250
v  0.0000 -7.3355 -1.3022
v  0.4378 -7.3355 -1.2250
v  0.8228 -7.3355 -1.0027
v  1.1085 -7.3355 -0.6622
v  1.2606 -7.3355 -0.2445
v  1.2606 -7.3355 0.2001
v  1.1085 -7.3355 0.6178
v  0.8228 -7.3355 0.9583
v  0.4378 -7.3355 1.1806
v  -0.4378 -24.9155 1.1806
v  0.0000 -24.9155 1.2578
v  -0.8228 -24.9155 0.9583
v  -1.1085 -24.9155 0.6178
v  -1.2606 -24.9155 0.2001
v  -1.2606 -24.9155 -0.2445
v  -1.1085 -24.9155 -0.6622
v  -0.8228 -24.9155 -1.0027
v  -0.4378 -24.9155 -1.2250
v  0.0000 -24.9155 -1.3022
v  0.4378 -24.9155 -1.2250
v  0.8228 -24.9155 -1.0027
v  1.1085 -24.9155 -0.6622
v  1.2606 -24.9155 -0.2445
v  1.2606 -24.9155 0.2001
v  1.1085 -24.9155 0.6178
v  0.8228 -24.9155 0.9583
v  0.4378 -24.9155 1.1806
v  0.0000 -10.9687 1.2578
v  -0.4378 -10.9687 1.1806
v  -0.8228 -10.9687 0.9583
v  -1.1085 -10.9687 0.6178
v  -1.2606 -10.9687 0.2001
v  -1.2606 -10.9687 -0.2445
v  -1.1085 -10.9687 -0.6622
v  -0.8228 -10.9687 -1.0027
v  -0.4378 -10.9687 -1.2250
v  0.0000 -10.9687 -1.3022
v  0.4378 -10.9687 -1.2250
v  0.8228 -10.9687 -1.0027
v  1.1085 -10.9687 -0.6622
v  1.2606 -10.9687 -0.2445
v  1.2606 -10.9687 0.2001
v  1.1085 -10.9687 0.6178
v  0.8228 -10.9687 0.9583
v  0.4378 -10.9687 1.1806
v  0.0000 -14.6019 1.2578
v  -0.4378 -14.6019 1.1806
v  -0.8228 -14.6019 0.9583
v  -1.1085 -14.6019 0.6178
v  -1.2606 -14.6019 0.2001
v  -1.2606 -14.6019 -0.2445
v  -1.1085 -14.6019 -0.6622
v  -0.8228 -14.6019 -1.0027
v  -0.4378 -14.6019 -1.2250
v  0.0000 -14.6019 -1.3022
v  0.4378 -14.6019 -1.2250
v  0.8228 -14.6019 -1.0027
v  1.1085 -14.6019 -0.6622
v  1.2606 -14.6019 -0.2445
v  1.2606 -14.6019 0.2001
v  1.1085 -14.6019 0.6178
v  0.8228 -14.6019 0.9583
v  0.4378 -14.6019 1.1806
v  0.0000 -18.2351 1.2578
v  -0.4378 -18.2351 1.1806
v  -0.8228 -18.2351 0.9583
v  -1.1085 -18.2351 0.6178
v  -1.2606 -18.2351 0.2001
v  -1.2606 -18.2351 -0.2445
v  -1.1085 -18.2351 -0.6622
v  -0.8228 -18.2351 -1.0027
v  -0.4378 -18.2351 -1.2250
v  0.0000 -18.2351 -1.3022
v  0.4378 -18.2351 -1.2250
v  0.8228 -18.2351 -1.0027
v  1.1085 -18.2351 -0.6622
v  1.2606 -18.2351 -0.2445
v  1.2606 -18.2351 0.2001
v  1.1085 -18.2351 0.6178
v  0.8228 -18.2351 0.9583
v  0.4378 -18.2351 1.1806
v  0.0000 -21.8683 1.2578
v  -0.4378 -21.8683 1.1806
v  -0.8228 -21.8683 0.9583
v  -1.1085 -21.8683 0.6178
v  -1.2606 -21.8683 0.2001
v  -1.2606 -21.8683 -0.2445
v  -1.1085 -21.8683 -0.6622
v  -0.8228 -21.8683 -1.0027
v  -0.4378 -21.8683 -1.2250
v  0.0000 -21.8683 -1.3022
v  0.4378 -21.8683 -1.2250
v  0.8228 -21.8683 -1.0027
v  1.1085 -21.8683 -0.6622
v  1.2606 -21.8683 -0.2445
v  1.2606 -21.8683 0.2001
v  1.1085 -21.8683 0.6178
v  0.8228 -21.8683 0.9583
v  0.4378 -21.8683 1.1806
# 216 vertices

g Cylinder030
f 663 664 682 
f 682 681 663 
f 664 665 683 
f 683 682 664 
f 665 666 684 
f 684 683 665 
f 666 667 685 
f 685 684 666 
f 667 668 686 
f 686 685 667 
f 668 669 687 
f 687 686 668 
f 669 670 688 
f 688 687 669 
f 670 671 689 
f 689 688 670 
f 671 672 690 
f 690 689 671 
f 672 673 691 
f 691 690 672 
f 673 674 692 
f 692 691 673 
f 674 675 693 
f 693 692 674 
f 675 676 694 
f 694 693 675 
f 676 677 695 
f 695 694 676 
f 677 678 696 
f 696 695 677 
f 678 679 697 
f 697 696 678 
f 679 680 698 
f 698 697 679 
f 680 663 681 
f 681 698 680 
f 681 682 700 
f 700 699 681 
f 682 683 701 
f 701 700 682 
f 683 684 702 
f 702 701 683 
f 684 685 703 
f 703 702 684 
f 685 686 704 
f 704 703 685 
f 686 687 705 
f 705 704 686 
f 687 688 706 
f 706 705 687 
f 688 689 707 
f 707 706 688 
f 689 690 708 
f 708 707 689 
f 690 691 709 
f 709 708 690 
f 691 692 710 
f 710 709 691 
f 692 693 711 
f 711 710 692 
f 693 694 712 
f 712 711 693 
f 694 695 713 
f 713 712 694 
f 695 696 714 
f 714 713 695 
f 696 697 715 
f 715 714 696 
f 697 698 716 
f 716 715 697 
f 698 681 699 
f 699 716 698 
f 699 700 718 
f 718 717 699 
f 700 701 719 
f 719 718 700 
f 701 702 720 
f 720 719 701 
f 702 703 721 
f 721 720 702 
f 703 704 722 
f 722 721 703 
f 704 705 723 
f 723 722 704 
f 705 706 724 
f 724 723 705 
f 706 707 725 
f 725 724 706 
f 707 708 726 
f 726 725 707 
f 708 709 727 
f 727 726 708 
f 709 710 728 
f 728 727 709 
f 710 711 729 
f 729 728 710 
f 711 712 730 
f 730 729 711 
f 712 713 731 
f 731 730 712 
f 713 714 732 
f 732 731 713 
f 714 715 733 
f 733 732 714 
f 715 716 734 
f 734 733 715 
f 716 699 717 
f 717 734 716 
f 717 718 736 
f 736 735 717 
f 718 719 737 
f 737 736 718 
f 719 720 738 
f 738 737 719 
f 720 721 739 
f 739 738 720 
f 721 722 740 
f 740 739 721 
f 722 723 741 
f 741 740 722 
f 723 724 742 
f 742 741 723 
f 724 725 743 
f 743 742 724 
f 725 726 744 
f 744 743 725 
f 726 727 745 
f 745 744 726 
f 727 728 746 
f 746 745 727 
f 728 729 747 
f 747 746 728 
f 729 730 748 
f 748 747 729 
f 730 731 749 
f 749 748 730 
f 731 732 750 
f 750 749 731 
f 732 733 751 
f 751 750 732 
f 733 734 752 
f 752 751 733 
f 734 717 735 
f 735 752 734 
f 735 736 754 
f 754 753 735 
f 736 737 755 
f 755 754 736 
f 737 738 756 
f 756 755 737 
f 738 739 757 
f 757 756 738 
f 739 740 758 
f 758 757 739 
f 740 741 759 
f 759 758 740 
f 741 742 760 
f 760 759 741 
f 742 743 761 
f 761 760 742 
f 743 744 762 
f 762 761 743 
f 744 745 763 
f 763 762 744 
f 745 746 764 
f 764 763 745 
f 746 747 765 
f 765 764 746 
f 747 748 766 
f 766 765 747 
f 748 749 767 
f 767 766 748 
f 749 750 768 
f 768 767 749 
f 750 751 769 
f 769 768 750 
f 751 752 770 
f 770 769 751 
f 752 735 753 
f 753 770 752 
f 787 788 678 
f 786 787 678 
f 785 786 678 
f 784 785 678 
f 783 784 678 
f 783 678 677 
f 782 783 677 
f 782 677 676 
f 781 782 676 
f 781 676 675 
f 780 781 675 
f 780 675 674 
f 779 780 674 
f 779 674 673 
f 778 779 673 
f 778 673 672 
f 777 778 672 
f 777 672 671 
f 776 777 671 
f 776 671 670 
f 775 776 670 
f 775 670 669 
f 774 775 669 
f 774 669 668 
f 773 774 668 
f 773 668 667 
f 772 773 667 
f 772 667 666 
f 772 666 665 
f 665 664 663 
f 772 665 663 
f 663 680 679 
f 772 663 679 
f 771 772 679 
f 771 679 678 
f 771 678 788 
f 790 806 768 
f 790 768 769 
f 790 769 770 
f 770 753 754 
f 790 770 754 
f 754 755 756 
f 790 754 756 
f 789 790 756 
f 789 756 757 
f 791 789 757 
f 791 757 758 
f 792 791 758 
f 792 758 759 
f 793 792 759 
f 793 759 760 
f 794 793 760 
f 794 760 761 
f 795 794 761 
f 795 761 762 
f 796 795 762 
f 796 762 763 
f 797 796 763 
f 797 763 764 
f 798 797 764 
f 798 764 765 
f 799 798 765 
f 799 765 766 
f 800 799 766 
f 800 766 767 
f 801 800 767 
f 801 767 768 
f 768 806 805 
f 768 805 804 
f 768 804 803 
f 768 803 802 
f 801 768 802 
f 771 807 808 
f 808 772 771 
f 772 808 809 
f 809 773 772 
f 773 809 810 
f 810 774 773 
f 774 810 811 
f 811 775 774 
f 775 811 812 
f 812 776 775 
f 776 812 813 
f 813 777 776 
f 777 813 814 
f 814 778 777 
f 778 814 815 
f 815 779 778 
f 779 815 816 
f 816 780 779 
f 780 816 817 
f 817 781 780 
f 781 817 818 
f 818 782 781 
f 782 818 819 
f 819 783 782 
f 783 819 820 
f 820 784 783 
f 784 820 821 
f 821 785 784 
f 785 821 822 
f 822 786 785 
f 786 822 823 
f 823 787 786 
f 787 823 824 
f 824 788 787 
f 788 824 807 
f 807 771 788 
f 807 825 826 
f 826 808 807 
f 808 826 827 
f 827 809 808 
f 809 827 828 
f 828 810 809 
f 810 828 829 
f 829 811 810 
f 811 829 830 
f 830 812 811 
f 812 830 831 
f 831 813 812 
f 813 831 832 
f 832 814 813 
f 814 832 833 
f 833 815 814 
f 815 833 834 
f 834 816 815 
f 816 834 835 
f 835 817 816 
f 817 835 836 
f 836 818 817 
f 818 836 837 
f 837 819 818 
f 819 837 838 
f 838 820 819 
f 820 838 839 
f 839 821 820 
f 821 839 840 
f 840 822 821 
f 822 840 841 
f 841 823 822 
f 823 841 842 
f 842 824 823 
f 824 842 825 
f 825 807 824 
f 825 843 844 
f 844 826 825 
f 826 844 845 
f 845 827 826 
f 827 845 846 
f 846 828 827 
f 828 846 847 
f 847 829 828 
f 829 847 848 
f 848 830 829 
f 830 848 849 
f 849 831 830 
f 831 849 850 
f 850 832 831 
f 832 850 851 
f 851 833 832 
f 833 851 852 
f 852 834 833 
f 834 852 853 
f 853 835 834 
f 835 853 854 
f 854 836 835 
f 836 854 855 
f 855 837 836 
f 837 855 856 
f 856 838 837 
f 838 856 857 
f 857 839 838 
f 839 857 858 
f 858 840 839 
f 840 858 859 
f 859 841 840 
f 841 859 860 
f 860 842 841 
f 842 860 843 
f 843 825 842 
f 843 861 862 
f 862 844 843 
f 844 862 863 
f 863 845 844 
f 845 863 864 
f 864 846 845 
f 846 864 865 
f 865 847 846 
f 847 865 866 
f 866 848 847 
f 848 866 867 
f 867 849 848 
f 849 867 868 
f 868 850 849 
f 850 868 869 
f 869 851 850 
f 851 869 870 
f 870 852 851 
f 852 870 871 
f 871 853 852 
f 853 871 872 
f 872 854 853 
f 854 872 873 
f 873 855 854 
f 855 873 874 
f 874 856 855 
f 856 874 875 
f 875 857 856 
f 857 875 876 
f 876 858 857 
f 858 876 877 
f 877 859 858 
f 859 877 878 
f 878 860 859 
f 860 878 861 
f 861 843 860 
f 862 789 791 
f 791 863 862 
f 861 790 789 
f 789 862 861 
f 864 792 793 
f 793 865 864 
f 863 791 792 
f 792 864 863 
f 866 794 795 
f 795 867 866 
f 865 793 794 
f 794 866 865 
f 868 796 797 
f 797 869 868 
f 867 795 796 
f 796 868 867 
f 870 798 799 
f 799 871 870 
f 869 797 798 
f 798 870 869 
f 872 800 801 
f 801 873 872 
f 871 799 800 
f 800 872 871 
f 874 802 803 
f 803 875 874 
f 873 801 802 
f 802 874 873 
f 876 804 805 
f 805 877 876 
f 875 803 804 
f 804 876 875 
f 878 806 790 
f 790 861 878 
f 877 805 806 
f 806 878 877 
# 432 faces

#
# object chain015
#

v  2.0000 -7.3342 3.9778
v  2.0000 -24.9142 3.9778
v  0.0000 -7.3342 3.9778
v  0.0000 -24.9142 3.9778
v  2.0000 -7.3342 -0.0222
v  2.0000 -24.9142 -0.0222
v  0.0000 -7.3342 1.2578
v  0.0000 -10.7438 1.2578
v  1.2606 -10.7438 -0.0222
v  1.2606 -7.3342 -0.0222
v  1.2606 -7.3342 0.2001
v  1.1085 -7.3342 0.6178
v  0.8228 -7.3342 0.9583
v  0.4378 -7.3342 1.1806
v  0.0000 -14.3770 1.2578
v  1.2606 -14.3770 -0.0222
v  0.0000 -18.0102 1.2578
v  1.2606 -18.0101 -0.0222
v  0.0000 -21.6434 1.2578
v  1.2606 -21.6433 -0.0222
v  0.0000 -24.9142 1.2578
v  1.2606 -24.9142 -0.0222
v  1.2606 -24.9142 0.2001
v  1.1085 -24.9142 0.6178
v  0.8228 -24.9142 0.9583
v  0.4378 -24.9142 1.1806
v  1.2606 -10.7438 0.2001
v  1.1085 -10.7438 0.6178
v  0.8228 -10.7438 0.9583
v  0.4378 -10.7438 1.1806
v  1.2606 -14.3770 0.2001
v  1.1085 -14.3770 0.6178
v  0.8228 -14.3770 0.9583
v  0.4378 -14.3770 1.1806
v  1.2606 -18.0101 0.2001
v  1.1085 -18.0101 0.6178
v  0.8228 -18.0101 0.9583
v  0.4378 -18.0101 1.1806
v  1.2606 -21.6433 0.2001
v  1.1085 -21.6433 0.6178
v  0.8228 -21.6433 0.9583
v  0.4378 -21.6433 1.1806
# 42 vertices

g chain015
f 879 881 882 
f 882 880 879 
f 884 900 898 
f 884 898 896 
f 884 896 894 
f 884 894 887 
f 883 884 887 
f 883 887 888 
f 879 880 884 
f 884 883 879 
f 881 885 886 
f 882 881 886 
f 882 886 893 
f 882 893 895 
f 882 895 897 
f 882 897 899 
f 883 888 889 
f 892 885 881 
f 891 892 881 
f 890 891 881 
f 889 890 881 
f 889 881 879 
f 883 889 879 
f 884 880 882 
f 882 899 904 
f 882 904 903 
f 882 903 902 
f 884 882 902 
f 884 902 901 
f 900 884 901 
f 886 885 892 
f 892 908 886 
f 905 909 910 
f 910 906 905 
f 906 910 911 
f 911 907 906 
f 907 911 912 
f 912 908 907 
f 908 912 893 
f 893 886 908 
f 909 913 914 
f 914 910 909 
f 910 914 915 
f 915 911 910 
f 911 915 916 
f 916 912 911 
f 912 916 895 
f 895 893 912 
f 913 917 918 
f 918 914 913 
f 914 918 919 
f 919 915 914 
f 915 919 920 
f 920 916 915 
f 916 920 897 
f 897 895 916 
f 909 905 887 
f 887 894 909 
f 913 909 894 
f 894 896 913 
f 898 900 901 
f 901 917 898 
f 917 913 896 
f 896 898 917 
f 918 902 903 
f 903 919 918 
f 917 901 902 
f 902 918 917 
f 920 904 899 
f 899 897 920 
f 919 903 904 
f 904 920 919 
f 888 887 905 
f 905 889 888 
f 906 890 889 
f 889 905 906 
f 907 891 890 
f 890 906 907 
f 908 892 891 
f 891 907 908 
# 80 faces

#
# object chain016
#

v  -2.0000 -7.3342 3.9778
v  -2.0000 -24.9142 3.9778
v  -0.0000 -7.3342 3.9778
v  0.0000 -24.9142 3.9778
v  -2.0000 -7.3342 -0.0222
v  -2.0000 -24.9142 -0.0222
v  -0.0000 -7.3342 1.2578
v  0.0000 -10.7437 1.2578
v  -1.2606 -10.7438 -0.0222
v  -1.2606 -7.3342 -0.0222
v  -1.2606 -7.3342 0.2001
v  -1.1085 -7.3342 0.6178
v  -0.8228 -7.3342 0.9583
v  -0.4378 -7.3342 1.1806
v  0.0000 -14.3769 1.2578
v  -1.2606 -14.3770 -0.0222
v  0.0000 -18.0101 1.2578
v  -1.2606 -18.0101 -0.0222
v  0.0000 -21.6433 1.2578
v  -1.2605 -21.6433 -0.0222
v  0.0000 -24.9142 1.2578
v  -1.2605 -24.9142 -0.0222
v  -1.2605 -24.9142 0.2001
v  -1.1085 -24.9142 0.6178
v  -0.8228 -24.9142 0.9583
v  -0.4378 -24.9142 1.1806
v  -1.2606 -10.7438 0.2001
v  -1.1085 -10.7438 0.6178
v  -0.8228 -10.7438 0.9583
v  -0.4378 -10.7437 1.1806
v  -1.2606 -14.3770 0.2001
v  -1.1085 -14.3770 0.6178
v  -0.8228 -14.3770 0.9583
v  -0.4378 -14.3770 1.1806
v  -1.2606 -18.0101 0.2001
v  -1.1085 -18.0101 0.6178
v  -0.8228 -18.0101 0.9583
v  -0.4378 -18.0101 1.1806
v  -1.2605 -21.6433 0.2001
v  -1.1085 -21.6433 0.6178
v  -0.8228 -21.6433 0.9583
v  -0.4378 -21.6433 1.1806
# 42 vertices

g chain016
f 924 923 921 
f 921 922 924 
f 940 942 926 
f 938 940 926 
f 936 938 926 
f 929 936 926 
f 929 926 925 
f 930 929 925 
f 926 922 921 
f 921 925 926 
f 928 927 923 
f 928 923 924 
f 935 928 924 
f 937 935 924 
f 939 937 924 
f 941 939 924 
f 931 930 925 
f 923 927 934 
f 923 934 933 
f 923 933 932 
f 923 932 931 
f 921 923 931 
f 921 931 925 
f 924 922 926 
f 946 941 924 
f 945 946 924 
f 944 945 924 
f 944 924 926 
f 943 944 926 
f 943 926 942 
f 934 927 928 
f 928 950 934 
f 952 951 947 
f 947 948 952 
f 953 952 948 
f 948 949 953 
f 954 953 949 
f 949 950 954 
f 935 954 950 
f 950 928 935 
f 956 955 951 
f 951 952 956 
f 957 956 952 
f 952 953 957 
f 958 957 953 
f 953 954 958 
f 937 958 954 
f 954 935 937 
f 960 959 955 
f 955 956 960 
f 961 960 956 
f 956 957 961 
f 962 961 957 
f 957 958 962 
f 939 962 958 
f 958 937 939 
f 929 947 951 
f 951 936 929 
f 936 951 955 
f 955 938 936 
f 943 942 940 
f 940 959 943 
f 938 955 959 
f 959 940 938 
f 945 944 960 
f 960 961 945 
f 944 943 959 
f 959 960 944 
f 941 946 962 
f 962 939 941 
f 946 945 961 
f 961 962 946 
f 947 929 930 
f 930 931 947 
f 931 932 948 
f 948 947 931 
f 932 933 949 
f 949 948 932 
f 933 934 950 
f 950 949 933 
# 80 faces

#
# object Cylinder031
#

v  -20.0000 10.8821 2.0000
v  -20.0000 10.8821 0.0000
v  -19.3160 10.8821 0.1206
v  -18.7144 10.8821 0.4679
v  -18.2680 10.8821 1.0000
v  -18.0304 10.8821 1.6527
v  -18.0304 10.8821 2.3473
v  -18.2680 10.8821 3.0000
v  -18.7144 10.8821 3.5321
v  -19.3160 10.8821 3.8794
v  -20.0000 10.8821 4.0000
v  -20.6840 10.8821 3.8794
v  -21.2856 10.8821 3.5321
v  -21.7321 10.8821 3.0000
v  -21.9696 10.8821 2.3473
v  -21.9696 10.8821 1.6527
v  -21.7321 10.8821 1.0000
v  -21.2856 10.8821 0.4679
v  -20.6840 10.8821 0.1206
v  -20.0000 7.3661 0.0000
v  -19.3160 7.3661 0.1206
v  -18.7144 7.3661 0.4679
v  -18.2680 7.3661 1.0000
v  -18.0304 7.3661 1.6527
v  -18.0304 7.3661 2.3473
v  -18.2680 7.3661 3.0000
v  -18.7144 7.3661 3.5321
v  -19.3160 7.3661 3.8794
v  -20.0000 7.3661 4.0000
v  -20.6840 7.3661 3.8794
v  -21.2856 7.3661 3.5321
v  -21.7321 7.3661 3.0000
v  -21.9696 7.3661 2.3473
v  -21.9696 7.3661 1.6527
v  -21.7321 7.3661 1.0000
v  -21.2856 7.3661 0.4679
v  -20.6840 7.3661 0.1206
v  -20.0000 3.8501 0.0000
v  -19.3160 3.8501 0.1206
v  -18.7144 3.8501 0.4679
v  -18.2680 3.8501 1.0000
v  -18.0304 3.8501 1.6527
v  -18.0304 3.8501 2.3473
v  -18.2680 3.8501 3.0000
v  -18.7144 3.8501 3.5321
v  -19.3160 3.8501 3.8794
v  -20.0000 3.8501 4.0000
v  -20.6840 3.8501 3.8794
v  -21.2856 3.8501 3.5321
v  -21.7321 3.8501 3.0000
v  -21.9696 3.8501 2.3473
v  -21.9696 3.8501 1.6527
v  -21.7321 3.8501 1.0000
v  -21.2856 3.8501 0.4679
v  -20.6840 3.8501 0.1206
v  -20.0000 0.3341 0.0000
v  -19.3160 0.3341 0.1206
v  -18.7144 0.3341 0.4679
v  -18.2680 0.3341 1.0000
v  -18.0304 0.3341 1.6527
v  -18.0304 0.3341 2.3473
v  -18.2680 0.3341 3.0000
v  -18.7144 0.3341 3.5321
v  -19.3160 0.3341 3.8794
v  -20.0000 0.3341 4.0000
v  -20.6840 0.3341 3.8794
v  -21.2856 0.3341 3.5321
v  -21.7321 0.3341 3.0000
v  -21.9696 0.3341 2.3473
v  -21.9696 0.3341 1.6527
v  -21.7321 0.3341 1.0000
v  -21.2856 0.3341 0.4679
v  -20.6840 0.3341 0.1206
v  -20.0000 -3.1819 0.0000
v  -19.3160 -3.1819 0.1206
v  -18.7144 -3.1819 0.4679
v  -18.2680 -3.1819 1.0000
v  -18.0304 -3.1819 1.6527
v  -18.0304 -3.1819 2.3473
v  -18.2680 -3.1819 3.0000
v  -18.7144 -3.1819 3.5321
v  -19.3160 -3.1819 3.8794
v  -20.0000 -3.1819 4.0000
v  -20.6840 -3.1819 3.8794
v  -21.2856 -3.1819 3.5321
v  -21.7321 -3.1819 3.0000
v  -21.9696 -3.1819 2.3473
v  -21.9696 -3.1819 1.6527
v  -21.7321 -3.1819 1.0000
v  -21.2856 -3.1819 0.4679
v  -20.6840 -3.1819 0.1206
v  -20.0000 -6.6979 0.0000
v  -19.3160 -6.6979 0.1206
v  -18.7144 -6.6979 0.4679
v  -18.2680 -6.6979 1.0000
v  -18.0304 -6.6979 1.6527
v  -18.0304 -6.6979 2.3473
v  -18.2680 -6.6979 3.0000
v  -18.7144 -6.6979 3.5321
v  -19.3160 -6.6979 3.8794
v  -20.0000 -6.6979 4.0000
v  -20.6840 -6.6979 3.8794
v  -21.2856 -6.6979 3.5321
v  -21.7321 -6.6979 3.0000
v  -21.9696 -6.6979 2.3473
v  -21.9696 -6.6979 1.6527
v  -21.7321 -6.6979 1.0000
v  -21.2856 -6.6979 0.4679
v  -20.6840 -6.6979 0.1206
v  -20.0000 -6.6979 2.0000
# 110 vertices

g Cylinder031
f 963 965 964 
f 963 966 965 
f 963 967 966 
f 963 968 967 
f 963 969 968 
f 963 970 969 
f 963 971 970 
f 963 972 971 
f 963 973 972 
f 963 974 973 
f 963 975 974 
f 963 976 975 
f 963 977 976 
f 963 978 977 
f 963 979 978 
f 963 980 979 
f 963 981 980 
f 963 964 981 
f 964 983 982 
f 964 965 983 
f 965 984 983 
f 965 966 984 
f 966 985 984 
f 966 967 985 
f 967 986 985 
f 967 968 986 
f 968 987 986 
f 968 969 987 
f 969 988 987 
f 969 970 988 
f 970 989 988 
f 970 971 989 
f 971 990 989 
f 971 972 990 
f 972 991 990 
f 972 973 991 
f 973 992 991 
f 973 974 992 
f 974 993 992 
f 974 975 993 
f 975 994 993 
f 975 976 994 
f 976 995 994 
f 976 977 995 
f 977 996 995 
f 977 978 996 
f 978 997 996 
f 978 979 997 
f 979 998 997 
f 979 980 998 
f 980 999 998 
f 980 981 999 
f 981 982 999 
f 981 964 982 
f 982 1001 1000 
f 982 983 1001 
f 983 1002 1001 
f 983 984 1002 
f 984 1003 1002 
f 984 985 1003 
f 985 1004 1003 
f 985 986 1004 
f 986 1005 1004 
f 986 987 1005 
f 987 1006 1005 
f 987 988 1006 
f 988 1007 1006 
f 988 989 1007 
f 989 1008 1007 
f 989 990 1008 
f 990 1009 1008 
f 990 991 1009 
f 991 1010 1009 
f 991 992 1010 
f 992 1011 1010 
f 992 993 1011 
f 993 1012 1011 
f 993 994 1012 
f 994 1013 1012 
f 994 995 1013 
f 995 1014 1013 
f 995 996 1014 
f 996 1015 1014 
f 996 997 1015 
f 997 1016 1015 
f 997 998 1016 
f 998 1017 1016 
f 998 999 1017 
f 999 1000 1017 
f 999 982 1000 
f 1000 1019 1018 
f 1000 1001 1019 
f 1001 1020 1019 
f 1001 1002 1020 
f 1002 1021 1020 
f 1002 1003 1021 
f 1003 1022 1021 
f 1003 1004 1022 
f 1004 1023 1022 
f 1004 1005 1023 
f 1005 1024 1023 
f 1005 1006 1024 
f 1006 1025 1024 
f 1006 1007 1025 
f 1007 1026 1025 
f 1007 1008 1026 
f 1008 1027 1026 
f 1008 1009 1027 
f 1009 1028 1027 
f 1009 1010 1028 
f 1010 1029 1028 
f 1010 1011 1029 
f 1011 1030 1029 
f 1011 1012 1030 
f 1012 1031 1030 
f 1012 1013 1031 
f 1013 1032 1031 
f 1013 1014 1032 
f 1014 1033 1032 
f 1014 1015 1033 
f 1015 1034 1033 
f 1015 1016 1034 
f 1016 1035 1034 
f 1016 1017 1035 
f 1017 1018 1035 
f 1017 1000 1018 
f 1018 1037 1036 
f 1018 1019 1037 
f 1019 1038 1037 
f 1019 1020 1038 
f 1020 1039 1038 
f 1020 1021 1039 
f 1021 1040 1039 
f 1021 1022 1040 
f 1022 1041 1040 
f 1022 1023 1041 
f 1023 1042 1041 
f 1023 1024 1042 
f 1024 1043 1042 
f 1024 1025 1043 
f 1025 1044 1043 
f 1025 1026 1044 
f 1026 1045 1044 
f 1026 1027 1045 
f 1027 1046 1045 
f 1027 1028 1046 
f 1028 1047 1046 
f 1028 1029 1047 
f 1029 1048 1047 
f 1029 1030 1048 
f 1030 1049 1048 
f 1030 1031 1049 
f 1031 1050 1049 
f 1031 1032 1050 
f 1032 1051 1050 
f 1032 1033 1051 
f 1033 1052 1051 
f 1033 1034 1052 
f 1034 1053 1052 
f 1034 1035 1053 
f 1035 1036 1053 
f 1035 1018 1036 
f 1036 1055 1054 
f 1036 1037 1055 
f 1037 1056 1055 
f 1037 1038 1056 
f 1038 1057 1056 
f 1038 1039 1057 
f 1039 1058 1057 
f 1039 1040 1058 
f 1040 1059 1058 
f 1040 1041 1059 
f 1041 1060 1059 
f 1041 1042 1060 
f 1042 1061 1060 
f 1042 1043 1061 
f 1043 1062 1061 
f 1043 1044 1062 
f 1044 1063 1062 
f 1044 1045 1063 
f 1045 1064 1063 
f 1045 1046 1064 
f 1046 1065 1064 
f 1046 1047 1065 
f 1047 1066 1065 
f 1047 1048 1066 
f 1048 1067 1066 
f 1048 1049 1067 
f 1049 1068 1067 
f 1049 1050 1068 
f 1050 1069 1068 
f 1050 1051 1069 
f 1051 1070 1069 
f 1051 1052 1070 
f 1052 1071 1070 
f 1052 1053 1071 
f 1053 1054 1071 
f 1053 1036 1054 
f 1072 1054 1055 
f 1072 1055 1056 
f 1072 1056 1057 
f 1072 1057 1058 
f 1072 1058 1059 
f 1072 1059 1060 
f 1072 1060 1061 
f 1072 1061 1062 
f 1072 1062 1063 
f 1072 1063 1064 
f 1072 1064 1065 
f 1072 1065 1066 
f 1072 1066 1067 
f 1072 1067 1068 
f 1072 1068 1069 
f 1072 1069 1070 
f 1072 1070 1071 
f 1072 1071 1054 
# 216 faces

#
# object Box025
#

v  -22.0000 10.8666 -0.0000
v  -22.0000 -6.7134 -0.0000
v  -18.0000 10.8666 -0.0000
v  -18.0000 -6.7134 -0.0000
v  -22.0000 10.8666 2.0000
v  -22.0000 -6.7134 2.0000
v  -18.0000 10.8666 2.0000
v  -18.0000 -6.7134 2.0000
# 8 vertices

g Box025
f 1073 1075 1076 
f 1076 1074 1073 
f 1077 1078 1080 
f 1080 1079 1077 
f 1073 1074 1078 
f 1078 1077 1073 
f 1074 1076 1080 
f 1080 1078 1074 
f 1076 1075 1079 
f 1079 1080 1076 
f 1075 1073 1077 
f 1077 1079 1075 
# 12 faces

#
# object bearing002
#

v  -20.0000 29.0403 0.0000
v  -19.3160 29.0403 0.1206
v  -18.7144 29.0403 0.4679
v  -18.2679 29.0403 1.0000
v  -18.0304 29.0403 1.6527
v  -18.0304 29.0403 2.3473
v  -18.2679 29.0403 3.0000
v  -18.7144 29.0403 3.5321
v  -19.3160 29.0403 3.8794
v  -20.0000 29.0403 4.0000
v  -20.6840 29.0403 3.8794
v  -21.2856 29.0403 3.5321
v  -21.7320 29.0403 3.0000
v  -21.9696 29.0403 2.3473
v  -21.9696 29.0403 1.6527
v  -21.7320 29.0403 1.0000
v  -21.2856 29.0403 0.4679
v  -20.6840 29.0403 0.1206
v  -20.0000 25.5243 0.0000
v  -19.3160 25.5243 0.1206
v  -18.7144 25.5243 0.4679
v  -18.2679 25.5243 1.0000
v  -18.0304 25.5243 1.6527
v  -18.0304 25.5243 2.3473
v  -18.2679 25.5243 3.0000
v  -18.7144 25.5243 3.5321
v  -19.3160 25.5243 3.8794
v  -20.0000 25.5243 4.0000
v  -20.0000 22.0083 0.0000
v  -19.3160 22.0083 0.1206
v  -18.7144 22.0083 0.4679
v  -18.2679 22.0083 1.0000
v  -18.0304 22.0083 1.6527
v  -18.0304 22.0083 2.3473
v  -18.2679 22.0083 3.0000
v  -18.7144 22.0083 3.5321
v  -19.3160 22.0083 3.8794
v  -20.0000 22.0083 4.0000
v  -20.0000 18.4923 0.0000
v  -19.3160 18.4923 0.1206
v  -18.7144 18.4923 0.4679
v  -18.2679 18.4923 1.0000
v  -18.0304 18.4923 1.6527
v  -18.0304 18.4923 2.3473
v  -18.2679 18.4923 3.0000
v  -18.7144 18.4923 3.5321
v  -19.3160 18.4923 3.8794
v  -20.0000 18.4923 4.0000
v  -20.0000 14.9763 0.0000
v  -19.3160 14.9763 0.1206
v  -18.7144 14.9763 0.4679
v  -18.2679 14.9763 1.0000
v  -18.0304 14.9763 1.6527
v  -18.0304 14.9763 2.3473
v  -18.2679 14.9763 3.0000
v  -18.7144 14.9763 3.5321
v  -19.3160 14.9763 3.8794
v  -20.0000 14.9763 4.0000
v  -20.0000 11.4603 0.0000
v  -19.3160 11.4603 0.1206
v  -18.7144 11.4603 0.4679
v  -18.2679 11.4603 1.0000
v  -18.0304 11.4603 1.6527
v  -18.0304 11.4603 2.3473
v  -18.2679 11.4603 3.0000
v  -18.7144 11.4603 3.5321
v  -19.3160 11.4603 3.8794
v  -20.0000 11.4603 4.0000
v  -20.6840 11.4603 3.8794
v  -21.2856 11.4603 3.5321
v  -21.7320 11.4603 3.0000
v  -21.9696 11.4603 2.3473
v  -21.9696 11.4603 1.6527
v  -21.7320 11.4603 1.0000
v  -21.2856 11.4603 0.4679
v  -20.6840 11.4603 0.1206
v  -22.0000 29.0403 0.0000
v  -22.0000 11.4603 0.0000
v  -22.0000 29.0403 4.0000
v  -22.0000 11.4603 4.0000
v  -20.0000 29.0403 0.7200
v  -19.5622 29.0403 0.7972
v  -19.1772 29.0403 1.0195
v  -18.8915 29.0403 1.3600
v  -18.7394 29.0403 1.7777
v  -18.7394 29.0403 2.2223
v  -18.8915 29.0403 2.6400
v  -19.1772 29.0403 2.9805
v  -19.5622 29.0403 3.2028
v  -20.0000 29.0403 3.2800
v  -20.4378 29.0403 3.2028
v  -20.8228 29.0403 2.9805
v  -21.1085 29.0403 2.6400
v  -21.2606 29.0403 2.2223
v  -21.2606 29.0403 1.7777
v  -21.1085 29.0403 1.3600
v  -20.8228 29.0403 1.0195
v  -20.4378 29.0403 0.7972
v  -19.5622 11.4603 0.7972
v  -20.0000 11.4603 0.7200
v  -19.1772 11.4603 1.0195
v  -18.8915 11.4603 1.3600
v  -18.7394 11.4603 1.7777
v  -18.7394 11.4603 2.2223
v  -18.8915 11.4603 2.6400
v  -19.1772 11.4603 2.9805
v  -19.5622 11.4603 3.2028
v  -20.0000 11.4603 3.2800
v  -20.4378 11.4603 3.2028
v  -20.8228 11.4603 2.9805
v  -21.1085 11.4603 2.6400
v  -21.2606 11.4603 2.2223
v  -21.2606 11.4603 1.7777
v  -21.1085 11.4603 1.3600
v  -20.8228 11.4603 1.0195
v  -20.4378 11.4603 0.7972
v  -20.0000 25.5243 0.7200
v  -19.5622 25.5243 0.7972
v  -19.1772 25.5243 1.0195
v  -18.8915 25.5243 1.3600
v  -18.7394 25.5243 1.7777
v  -18.7394 25.5243 2.2223
v  -18.8915 25.5243 2.6400
v  -19.1772 25.5243 2.9805
v  -19.5622 25.5243 3.2028
v  -20.0000 25.5243 3.2800
v  -20.4378 25.5243 3.2028
v  -20.8228 25.5243 2.9805
v  -21.1085 25.5243 2.6400
v  -21.2606 25.5243 2.2223
v  -21.2606 25.5243 1.7777
v  -21.1085 25.5243 1.3600
v  -20.8228 25.5243 1.0195
v  -20.4378 25.5243 0.7972
v  -20.0000 22.0083 0.7200
v  -19.5622 22.0083 0.7972
v  -19.1772 22.0083 1.0195
v  -18.8915 22.0083 1.3600
v  -18.7394 22.0083 1.7777
v  -18.7394 22.0083 2.2223
v  -18.8915 22.0083 2.6400
v  -19.1772 22.0083 2.9805
v  -19.5622 22.0083 3.2028
v  -20.0000 22.0083 3.2800
v  -20.4378 22.0083 3.2028
v  -20.8228 22.0083 2.9805
v  -21.1085 22.0083 2.6400
v  -21.2606 22.0083 2.2223
v  -21.2606 22.0083 1.7777
v  -21.1085 22.0083 1.3600
v  -20.8228 22.0083 1.0195
v  -20.4378 22.0083 0.7972
v  -20.0000 18.4923 0.7200
v  -19.5622 18.4923 0.7972
v  -19.1772 18.4923 1.0195
v  -18.8915 18.4923 1.3600
v  -18.7394 18.4923 1.7777
v  -18.7394 18.4923 2.2223
v  -18.8915 18.4923 2.6400
v  -19.1772 18.4923 2.9805
v  -19.5622 18.4923 3.2028
v  -20.0000 18.4923 3.2800
v  -20.4378 18.4923 3.2028
v  -20.8228 18.4923 2.9805
v  -21.1085 18.4923 2.6400
v  -21.2606 18.4923 2.2223
v  -21.2606 18.4923 1.7777
v  -21.1085 18.4923 1.3600
v  -20.8228 18.4923 1.0195
v  -20.4378 18.4923 0.7972
v  -20.0000 14.9763 0.7200
v  -19.5622 14.9763 0.7972
v  -19.1772 14.9763 1.0195
v  -18.8915 14.9763 1.3600
v  -18.7394 14.9763 1.7777
v  -18.7394 14.9763 2.2223
v  -18.8915 14.9763 2.6400
v  -19.1772 14.9763 2.9805
v  -19.5622 14.9763 3.2028
v  -20.0000 14.9763 3.2800
v  -20.4378 14.9763 3.2028
v  -20.8228 14.9763 2.9805
v  -21.1085 14.9763 2.6400
v  -21.2606 14.9763 2.2223
v  -21.2606 14.9763 1.7777
v  -21.1085 14.9763 1.3600
v  -20.8228 14.9763 1.0195
v  -20.4378 14.9763 0.7972
# 188 vertices

g bearing002
f 1081 1082 1100 
f 1100 1099 1081 
f 1082 1083 1101 
f 1101 1100 1082 
f 1083 1084 1102 
f 1102 1101 1083 
f 1084 1085 1103 
f 1103 1102 1084 
f 1085 1086 1104 
f 1104 1103 1085 
f 1086 1087 1105 
f 1105 1104 1086 
f 1087 1088 1106 
f 1106 1105 1087 
f 1088 1089 1107 
f 1107 1106 1088 
f 1089 1090 1108 
f 1108 1107 1089 
f 1099 1100 1110 
f 1110 1109 1099 
f 1100 1101 1111 
f 1111 1110 1100 
f 1101 1102 1112 
f 1112 1111 1101 
f 1102 1103 1113 
f 1113 1112 1102 
f 1103 1104 1114 
f 1114 1113 1103 
f 1104 1105 1115 
f 1115 1114 1104 
f 1105 1106 1116 
f 1116 1115 1105 
f 1106 1107 1117 
f 1117 1116 1106 
f 1107 1108 1118 
f 1118 1117 1107 
f 1109 1110 1120 
f 1120 1119 1109 
f 1110 1111 1121 
f 1121 1120 1110 
f 1111 1112 1122 
f 1122 1121 1111 
f 1112 1113 1123 
f 1123 1122 1112 
f 1113 1114 1124 
f 1124 1123 1113 
f 1114 1115 1125 
f 1125 1124 1114 
f 1115 1116 1126 
f 1126 1125 1115 
f 1116 1117 1127 
f 1127 1126 1116 
f 1117 1118 1128 
f 1128 1127 1117 
f 1119 1120 1130 
f 1130 1129 1119 
f 1120 1121 1131 
f 1131 1130 1120 
f 1121 1122 1132 
f 1132 1131 1121 
f 1122 1123 1133 
f 1133 1132 1122 
f 1123 1124 1134 
f 1134 1133 1123 
f 1124 1125 1135 
f 1135 1134 1124 
f 1125 1126 1136 
f 1136 1135 1125 
f 1126 1127 1137 
f 1137 1136 1126 
f 1127 1128 1138 
f 1138 1137 1127 
f 1129 1130 1140 
f 1140 1139 1129 
f 1130 1131 1141 
f 1141 1140 1130 
f 1131 1132 1142 
f 1142 1141 1131 
f 1132 1133 1143 
f 1143 1142 1132 
f 1133 1134 1144 
f 1144 1143 1133 
f 1134 1135 1145 
f 1145 1144 1134 
f 1135 1136 1146 
f 1146 1145 1135 
f 1136 1137 1147 
f 1147 1146 1136 
f 1137 1138 1148 
f 1148 1147 1137 
f 1169 1170 1090 
f 1168 1169 1090 
f 1167 1168 1090 
f 1167 1090 1089 
f 1166 1167 1089 
f 1166 1089 1088 
f 1165 1166 1088 
f 1165 1088 1087 
f 1164 1165 1087 
f 1164 1087 1086 
f 1163 1164 1086 
f 1163 1086 1085 
f 1162 1163 1085 
f 1162 1085 1084 
f 1084 1083 1082 
f 1082 1081 1161 
f 1084 1082 1161 
f 1162 1084 1161 
f 1157 1081 1099 
f 1129 1139 1158 
f 1119 1129 1158 
f 1109 1119 1158 
f 1099 1109 1158 
f 1157 1099 1158 
f 1157 1158 1160 
f 1160 1159 1157 
f 1091 1159 1090 
f 1108 1090 1159 
f 1108 1159 1160 
f 1118 1108 1160 
f 1128 1118 1160 
f 1138 1128 1160 
f 1148 1138 1160 
f 1158 1139 1156 
f 1091 1092 1159 
f 1092 1093 1159 
f 1093 1094 1159 
f 1157 1159 1094 
f 1094 1095 1157 
f 1095 1096 1157 
f 1096 1097 1157 
f 1097 1098 1157 
f 1098 1081 1157 
f 1152 1151 1160 
f 1156 1155 1158 
f 1155 1154 1158 
f 1154 1153 1158 
f 1152 1160 1158 
f 1158 1153 1152 
f 1151 1150 1160 
f 1150 1149 1160 
f 1149 1148 1160 
f 1161 1081 1098 
f 1178 1161 1098 
f 1177 1178 1098 
f 1176 1177 1098 
f 1175 1176 1098 
f 1175 1098 1097 
f 1174 1175 1097 
f 1174 1097 1096 
f 1173 1174 1096 
f 1173 1096 1095 
f 1172 1173 1095 
f 1172 1095 1094 
f 1171 1172 1094 
f 1171 1094 1093 
f 1170 1171 1093 
f 1170 1093 1092 
f 1170 1092 1091 
f 1090 1170 1091 
f 1180 1139 1140 
f 1179 1180 1140 
f 1140 1141 1142 
f 1179 1140 1142 
f 1179 1142 1143 
f 1181 1179 1143 
f 1181 1143 1144 
f 1182 1181 1144 
f 1182 1144 1145 
f 1183 1182 1145 
f 1183 1145 1146 
f 1184 1183 1146 
f 1184 1146 1147 
f 1185 1184 1147 
f 1185 1147 1148 
f 1148 1188 1187 
f 1148 1187 1186 
f 1185 1148 1186 
f 1188 1148 1149 
f 1189 1188 1149 
f 1189 1149 1150 
f 1189 1150 1151 
f 1189 1151 1152 
f 1190 1189 1152 
f 1190 1152 1153 
f 1191 1190 1153 
f 1191 1153 1154 
f 1192 1191 1154 
f 1192 1154 1155 
f 1193 1192 1155 
f 1193 1155 1156 
f 1156 1139 1180 
f 1156 1180 1196 
f 1156 1196 1195 
f 1156 1195 1194 
f 1193 1156 1194 
f 1161 1197 1198 
f 1198 1162 1161 
f 1162 1198 1199 
f 1199 1163 1162 
f 1163 1199 1200 
f 1200 1164 1163 
f 1164 1200 1201 
f 1201 1165 1164 
f 1165 1201 1202 
f 1202 1166 1165 
f 1166 1202 1203 
f 1203 1167 1166 
f 1167 1203 1204 
f 1204 1168 1167 
f 1168 1204 1205 
f 1205 1169 1168 
f 1169 1205 1206 
f 1206 1170 1169 
f 1170 1206 1207 
f 1207 1171 1170 
f 1171 1207 1208 
f 1208 1172 1171 
f 1172 1208 1209 
f 1209 1173 1172 
f 1173 1209 1210 
f 1210 1174 1173 
f 1174 1210 1211 
f 1211 1175 1174 
f 1175 1211 1212 
f 1212 1176 1175 
f 1176 1212 1213 
f 1213 1177 1176 
f 1177 1213 1214 
f 1214 1178 1177 
f 1178 1214 1197 
f 1197 1161 1178 
f 1197 1215 1216 
f 1216 1198 1197 
f 1198 1216 1217 
f 1217 1199 1198 
f 1199 1217 1218 
f 1218 1200 1199 
f 1200 1218 1219 
f 1219 1201 1200 
f 1201 1219 1220 
f 1220 1202 1201 
f 1202 1220 1221 
f 1221 1203 1202 
f 1203 1221 1222 
f 1222 1204 1203 
f 1204 1222 1223 
f 1223 1205 1204 
f 1205 1223 1224 
f 1224 1206 1205 
f 1206 1224 1225 
f 1225 1207 1206 
f 1207 1225 1226 
f 1226 1208 1207 
f 1208 1226 1227 
f 1227 1209 1208 
f 1209 1227 1228 
f 1228 1210 1209 
f 1210 1228 1229 
f 1229 1211 1210 
f 1211 1229 1230 
f 1230 1212 1211 
f 1212 1230 1231 
f 1231 1213 1212 
f 1213 1231 1232 
f 1232 1214 1213 
f 1214 1232 1215 
f 1215 1197 1214 
f 1215 1233 1234 
f 1234 1216 1215 
f 1216 1234 1235 
f 1235 1217 1216 
f 1217 1235 1236 
f 1236 1218 1217 
f 1218 1236 1237 
f 1237 1219 1218 
f 1219 1237 1238 
f 1238 1220 1219 
f 1220 1238 1239 
f 1239 1221 1220 
f 1221 1239 1240 
f 1240 1222 1221 
f 1222 1240 1241 
f 1241 1223 1222 
f 1223 1241 1242 
f 1242 1224 1223 
f 1224 1242 1243 
f 1243 1225 1224 
f 1225 1243 1244 
f 1244 1226 1225 
f 1226 1244 1245 
f 1245 1227 1226 
f 1227 1245 1246 
f 1246 1228 1227 
f 1228 1246 1247 
f 1247 1229 1228 
f 1229 1247 1248 
f 1248 1230 1229 
f 1230 1248 1249 
f 1249 1231 1230 
f 1231 1249 1250 
f 1250 1232 1231 
f 1232 1250 1233 
f 1233 1215 1232 
f 1233 1251 1252 
f 1252 1234 1233 
f 1234 1252 1253 
f 1253 1235 1234 
f 1235 1253 1254 
f 1254 1236 1235 
f 1236 1254 1255 
f 1255 1237 1236 
f 1237 1255 1256 
f 1256 1238 1237 
f 1238 1256 1257 
f 1257 1239 1238 
f 1239 1257 1258 
f 1258 1240 1239 
f 1240 1258 1259 
f 1259 1241 1240 
f 1241 1259 1260 
f 1260 1242 1241 
f 1242 1260 1261 
f 1261 1243 1242 
f 1243 1261 1262 
f 1262 1244 1243 
f 1244 1262 1263 
f 1263 1245 1244 
f 1245 1263 1264 
f 1264 1246 1245 
f 1246 1264 1265 
f 1265 1247 1246 
f 1247 1265 1266 
f 1266 1248 1247 
f 1248 1266 1267 
f 1267 1249 1248 
f 1249 1267 1268 
f 1268 1250 1249 
f 1250 1268 1251 
f 1251 1233 1250 
f 1251 1180 1179 
f 1179 1252 1251 
f 1252 1179 1181 
f 1181 1253 1252 
f 1253 1181 1182 
f 1182 1254 1253 
f 1254 1182 1183 
f 1183 1255 1254 
f 1255 1183 1184 
f 1184 1256 1255 
f 1256 1184 1185 
f 1185 1257 1256 
f 1257 1185 1186 
f 1186 1258 1257 
f 1258 1186 1187 
f 1187 1259 1258 
f 1259 1187 1188 
f 1188 1260 1259 
f 1260 1188 1189 
f 1189 1261 1260 
f 1261 1189 1190 
f 1190 1262 1261 
f 1262 1190 1191 
f 1191 1263 1262 
f 1263 1191 1192 
f 1192 1264 1263 
f 1264 1192 1193 
f 1193 1265 1264 
f 1265 1193 1194 
f 1194 1266 1265 
f 1266 1194 1195 
f 1195 1267 1266 
f 1267 1195 1196 
f 1196 1268 1267 
f 1268 1196 1180 
f 1180 1251 1268 
# 376 faces

#
# object bearing003
#

v  -20.0000 -7.2917 0.0000
v  -19.3160 -7.2917 0.1206
v  -18.7144 -7.2917 0.4679
v  -18.2680 -7.2917 1.0000
v  -18.0304 -7.2917 1.6527
v  -18.0304 -7.2917 2.3473
v  -18.2680 -7.2917 3.0000
v  -18.7144 -7.2917 3.5321
v  -19.3160 -7.2917 3.8794
v  -20.0000 -7.2917 4.0000
v  -20.6840 -7.2917 3.8794
v  -21.2856 -7.2917 3.5321
v  -21.7320 -7.2917 3.0000
v  -21.9696 -7.2917 2.3473
v  -21.9696 -7.2917 1.6527
v  -21.7321 -7.2917 1.0000
v  -21.2856 -7.2917 0.4679
v  -20.6840 -7.2917 0.1206
v  -20.0000 -10.8077 0.0000
v  -19.3160 -10.8077 0.1206
v  -18.7144 -10.8077 0.4679
v  -18.2680 -10.8077 1.0000
v  -18.0304 -10.8077 1.6527
v  -18.0304 -10.8077 2.3473
v  -18.2680 -10.8077 3.0000
v  -18.7144 -10.8077 3.5321
v  -19.3160 -10.8077 3.8794
v  -20.0000 -10.8077 4.0000
v  -20.0000 -14.3237 0.0000
v  -19.3160 -14.3237 0.1206
v  -18.7144 -14.3237 0.4679
v  -18.2680 -14.3237 1.0000
v  -18.0304 -14.3237 1.6527
v  -18.0304 -14.3237 2.3473
v  -18.2680 -14.3237 3.0000
v  -18.7144 -14.3237 3.5321
v  -19.3160 -14.3237 3.8794
v  -20.0000 -14.3237 4.0000
v  -20.0000 -17.8397 0.0000
v  -19.3160 -17.8397 0.1206
v  -18.7144 -17.8397 0.4679
v  -18.2680 -17.8397 1.0000
v  -18.0304 -17.8397 1.6527
v  -18.0304 -17.8397 2.3473
v  -18.2680 -17.8397 3.0000
v  -18.7144 -17.8397 3.5321
v  -19.3160 -17.8397 3.8794
v  -20.0000 -17.8397 4.0000
v  -20.0000 -21.3557 0.0000
v  -19.3160 -21.3557 0.1206
v  -18.7144 -21.3557 0.4679
v  -18.2680 -21.3557 1.0000
v  -18.0304 -21.3557 1.6527
v  -18.0304 -21.3557 2.3473
v  -18.2680 -21.3557 3.0000
v  -18.7144 -21.3557 3.5321
v  -19.3160 -21.3557 3.8794
v  -20.0000 -21.3557 4.0000
v  -20.0000 -24.8717 0.0000
v  -19.3160 -24.8717 0.1206
v  -18.7144 -24.8717 0.4679
v  -18.2680 -24.8717 1.0000
v  -18.0304 -24.8717 1.6527
v  -18.0304 -24.8717 2.3473
v  -18.2680 -24.8717 3.0000
v  -18.7144 -24.8717 3.5321
v  -19.3160 -24.8717 3.8794
v  -20.0000 -24.8717 4.0000
v  -20.6840 -24.8717 3.8794
v  -21.2856 -24.8717 3.5321
v  -21.7321 -24.8717 3.0000
v  -21.9696 -24.8717 2.3473
v  -21.9696 -24.8717 1.6527
v  -21.7321 -24.8717 1.0000
v  -21.2856 -24.8717 0.4679
v  -20.6840 -24.8717 0.1206
v  -22.0000 -7.2917 0.0000
v  -22.0000 -24.8717 0.0000
v  -22.0000 -7.2917 4.0000
v  -22.0000 -24.8717 4.0000
v  -20.0000 -7.2917 0.7200
v  -19.5622 -7.2917 0.7972
v  -19.1772 -7.2917 1.0195
v  -18.8915 -7.2917 1.3600
v  -18.7394 -7.2917 1.7777
v  -18.7394 -7.2917 2.2223
v  -18.8915 -7.2917 2.6400
v  -19.1772 -7.2917 2.9805
v  -19.5622 -7.2917 3.2028
v  -20.0000 -7.2917 3.2800
v  -20.4378 -7.2917 3.2028
v  -20.8228 -7.2917 2.9805
v  -21.1085 -7.2917 2.6400
v  -21.2606 -7.2917 2.2223
v  -21.2606 -7.2917 1.7777
v  -21.1085 -7.2917 1.3600
v  -20.8228 -7.2917 1.0195
v  -20.4378 -7.2917 0.7972
v  -19.5622 -24.8717 0.7972
v  -20.0000 -24.8717 0.7200
v  -19.1772 -24.8717 1.0195
v  -18.8915 -24.8717 1.3600
v  -18.7394 -24.8717 1.7777
v  -18.7394 -24.8717 2.2223
v  -18.8915 -24.8717 2.6400
v  -19.1772 -24.8717 2.9805
v  -19.5622 -24.8717 3.2028
v  -20.0000 -24.8717 3.2800
v  -20.4378 -24.8717 3.2028
v  -20.8228 -24.8717 2.9805
v  -21.1085 -24.8717 2.6400
v  -21.2606 -24.8717 2.2223
v  -21.2606 -24.8717 1.7777
v  -21.1085 -24.8717 1.3600
v  -20.8228 -24.8717 1.0195
v  -20.4378 -24.8717 0.7972
v  -20.0000 -10.8077 0.7200
v  -19.5622 -10.8077 0.7972
v  -19.1772 -10.8077 1.0195
v  -18.8915 -10.8077 1.3600
v  -18.7394 -10.8077 1.7777
v  -18.7394 -10.8077 2.2223
v  -18.8915 -10.8077 2.6400
v  -19.1772 -10.8077 2.9805
v  -19.5622 -10.8077 3.2028
v  -20.0000 -10.8077 3.2800
v  -20.4378 -10.8077 3.2028
v  -20.8228 -10.8077 2.9805
v  -21.1085 -10.8077 2.6400
v  -21.2606 -10.8077 2.2223
v  -21.2606 -10.8077 1.7777
v  -21.1085 -10.8077 1.3600
v  -20.8228 -10.8077 1.0195
v  -20.4378 -10.8077 0.7972
v  -20.0000 -14.3237 0.7200
v  -19.5622 -14.3237 0.7972
v  -19.1772 -14.3237 1.0195
v  -18.8915 -14.3237 1.3600
v  -18.7394 -14.3237 1.7777
v  -18.7394 -14.3237 2.2223
v  -18.8915 -14.3237 2.6400
v  -19.1772 -14.3237 2.9805
v  -19.5622 -14.3237 3.2028
v  -20.0000 -14.3237 3.2800
v  -20.4378 -14.3237 3.2028
v  -20.8228 -14.3237 2.9805
v  -21.1085 -14.3237 2.6400
v  -21.2606 -14.3237 2.2223
v  -21.2606 -14.3237 1.7777
v  -21.1085 -14.3237 1.3600
v  -20.8228 -14.3237 1.0195
v  -20.4378 -14.3237 0.7972
v  -20.0000 -17.8397 0.7200
v  -19.5622 -17.8397 0.7972
v  -19.1772 -17.8397 1.0195
v  -18.8915 -17.8397 1.3600
v  -18.7394 -17.8397 1.7777
v  -18.7394 -17.8397 2.2223
v  -18.8915 -17.8397 2.6400
v  -19.1772 -17.8397 2.9805
v  -19.5622 -17.8397 3.2028
v  -20.0000 -17.8397 3.2800
v  -20.4378 -17.8397 3.2028
v  -20.8228 -17.8397 2.9805
v  -21.1085 -17.8397 2.6400
v  -21.2606 -17.8397 2.2223
v  -21.2606 -17.8397 1.7777
v  -21.1085 -17.8397 1.3600
v  -20.8228 -17.8397 1.0195
v  -20.4378 -17.8397 0.7972
v  -20.0000 -21.3557 0.7200
v  -19.5622 -21.3557 0.7972
v  -19.1772 -21.3557 1.0195
v  -18.8915 -21.3557 1.3600
v  -18.7394 -21.3557 1.7777
v  -18.7394 -21.3557 2.2223
v  -18.8915 -21.3557 2.6400
v  -19.1772 -21.3557 2.9805
v  -19.5622 -21.3557 3.2028
v  -20.0000 -21.3557 3.2800
v  -20.4378 -21.3557 3.2028
v  -20.8228 -21.3557 2.9805
v  -21.1085 -21.3557 2.6400
v  -21.2606 -21.3557 2.2223
v  -21.2606 -21.3557 1.7777
v  -21.1085 -21.3557 1.3600
v  -20.8228 -21.3557 1.0195
v  -20.4378 -21.3557 0.7972
# 188 vertices

g bearing003
f 1269 1270 1288 
f 1288 1287 1269 
f 1270 1271 1289 
f 1289 1288 1270 
f 1271 1272 1290 
f 1290 1289 1271 
f 1272 1273 1291 
f 1291 1290 1272 
f 1273 1274 1292 
f 1292 1291 1273 
f 1274 1275 1293 
f 1293 1292 1274 
f 1275 1276 1294 
f 1294 1293 1275 
f 1276 1277 1295 
f 1295 1294 1276 
f 1277 1278 1296 
f 1296 1295 1277 
f 1287 1288 1298 
f 1298 1297 1287 
f 1288 1289 1299 
f 1299 1298 1288 
f 1289 1290 1300 
f 1300 1299 1289 
f 1290 1291 1301 
f 1301 1300 1290 
f 1291 1292 1302 
f 1302 1301 1291 
f 1292 1293 1303 
f 1303 1302 1292 
f 1293 1294 1304 
f 1304 1303 1293 
f 1294 1295 1305 
f 1305 1304 1294 
f 1295 1296 1306 
f 1306 1305 1295 
f 1297 1298 1308 
f 1308 1307 1297 
f 1298 1299 1309 
f 1309 1308 1298 
f 1299 1300 1310 
f 1310 1309 1299 
f 1300 1301 1311 
f 1311 1310 1300 
f 1301 1302 1312 
f 1312 1311 1301 
f 1302 1303 1313 
f 1313 1312 1302 
f 1303 1304 1314 
f 1314 1313 1303 
f 1304 1305 1315 
f 1315 1314 1304 
f 1305 1306 1316 
f 1316 1315 1305 
f 1307 1308 1318 
f 1318 1317 1307 
f 1308 1309 1319 
f 1319 1318 1308 
f 1309 1310 1320 
f 1320 1319 1309 
f 1310 1311 1321 
f 1321 1320 1310 
f 1311 1312 1322 
f 1322 1321 1311 
f 1312 1313 1323 
f 1323 1322 1312 
f 1313 1314 1324 
f 1324 1323 1313 
f 1314 1315 1325 
f 1325 1324 1314 
f 1315 1316 1326 
f 1326 1325 1315 
f 1317 1318 1328 
f 1328 1327 1317 
f 1318 1319 1329 
f 1329 1328 1318 
f 1319 1320 1330 
f 1330 1329 1319 
f 1320 1321 1331 
f 1331 1330 1320 
f 1321 1322 1332 
f 1332 1331 1321 
f 1322 1323 1333 
f 1333 1332 1322 
f 1323 1324 1334 
f 1334 1333 1323 
f 1324 1325 1335 
f 1335 1334 1324 
f 1325 1326 1336 
f 1336 1335 1325 
f 1357 1358 1278 
f 1356 1357 1278 
f 1355 1356 1278 
f 1355 1278 1277 
f 1354 1355 1277 
f 1354 1277 1276 
f 1353 1354 1276 
f 1353 1276 1275 
f 1352 1353 1275 
f 1352 1275 1274 
f 1351 1352 1274 
f 1351 1274 1273 
f 1350 1351 1273 
f 1350 1273 1272 
f 1272 1271 1270 
f 1270 1269 1349 
f 1272 1270 1349 
f 1350 1272 1349 
f 1345 1269 1287 
f 1317 1327 1346 
f 1307 1317 1346 
f 1297 1307 1346 
f 1287 1297 1346 
f 1345 1287 1346 
f 1345 1346 1348 
f 1348 1347 1345 
f 1279 1347 1278 
f 1296 1278 1347 
f 1296 1347 1348 
f 1306 1296 1348 
f 1316 1306 1348 
f 1326 1316 1348 
f 1336 1326 1348 
f 1346 1327 1344 
f 1279 1280 1347 
f 1280 1281 1347 
f 1281 1282 1347 
f 1345 1347 1282 
f 1282 1283 1345 
f 1283 1284 1345 
f 1284 1285 1345 
f 1285 1286 1345 
f 1286 1269 1345 
f 1340 1339 1348 
f 1344 1343 1346 
f 1343 1342 1346 
f 1342 1341 1346 
f 1340 1348 1346 
f 1346 1341 1340 
f 1339 1338 1348 
f 1338 1337 1348 
f 1337 1336 1348 
f 1349 1269 1286 
f 1366 1349 1286 
f 1365 1366 1286 
f 1364 1365 1286 
f 1363 1364 1286 
f 1363 1286 1285 
f 1362 1363 1285 
f 1362 1285 1284 
f 1361 1362 1284 
f 1361 1284 1283 
f 1360 1361 1283 
f 1360 1283 1282 
f 1359 1360 1282 
f 1359 1282 1281 
f 1358 1359 1281 
f 1358 1281 1280 
f 1358 1280 1279 
f 1278 1358 1279 
f 1368 1327 1328 
f 1367 1368 1328 
f 1328 1329 1330 
f 1367 1328 1330 
f 1367 1330 1331 
f 1369 1367 1331 
f 1369 1331 1332 
f 1370 1369 1332 
f 1370 1332 1333 
f 1371 1370 1333 
f 1371 1333 1334 
f 1372 1371 1334 
f 1372 1334 1335 
f 1373 1372 1335 
f 1373 1335 1336 
f 1336 1376 1375 
f 1336 1375 1374 
f 1373 1336 1374 
f 1376 1336 1337 
f 1377 1376 1337 
f 1377 1337 1338 
f 1377 1338 1339 
f 1377 1339 1340 
f 1378 1377 1340 
f 1378 1340 1341 
f 1379 1378 1341 
f 1379 1341 1342 
f 1380 1379 1342 
f 1380 1342 1343 
f 1381 1380 1343 
f 1381 1343 1344 
f 1344 1327 1368 
f 1344 1368 1384 
f 1344 1384 1383 
f 1344 1383 1382 
f 1381 1344 1382 
f 1349 1385 1386 
f 1386 1350 1349 
f 1350 1386 1387 
f 1387 1351 1350 
f 1351 1387 1388 
f 1388 1352 1351 
f 1352 1388 1389 
f 1389 1353 1352 
f 1353 1389 1390 
f 1390 1354 1353 
f 1354 1390 1391 
f 1391 1355 1354 
f 1355 1391 1392 
f 1392 1356 1355 
f 1356 1392 1393 
f 1393 1357 1356 
f 1357 1393 1394 
f 1394 1358 1357 
f 1358 1394 1395 
f 1395 1359 1358 
f 1359 1395 1396 
f 1396 1360 1359 
f 1360 1396 1397 
f 1397 1361 1360 
f 1361 1397 1398 
f 1398 1362 1361 
f 1362 1398 1399 
f 1399 1363 1362 
f 1363 1399 1400 
f 1400 1364 1363 
f 1364 1400 1401 
f 1401 1365 1364 
f 1365 1401 1402 
f 1402 1366 1365 
f 1366 1402 1385 
f 1385 1349 1366 
f 1385 1403 1404 
f 1404 1386 1385 
f 1386 1404 1405 
f 1405 1387 1386 
f 1387 1405 1406 
f 1406 1388 1387 
f 1388 1406 1407 
f 1407 1389 1388 
f 1389 1407 1408 
f 1408 1390 1389 
f 1390 1408 1409 
f 1409 1391 1390 
f 1391 1409 1410 
f 1410 1392 1391 
f 1392 1410 1411 
f 1411 1393 1392 
f 1393 1411 1412 
f 1412 1394 1393 
f 1394 1412 1413 
f 1413 1395 1394 
f 1395 1413 1414 
f 1414 1396 1395 
f 1396 1414 1415 
f 1415 1397 1396 
f 1397 1415 1416 
f 1416 1398 1397 
f 1398 1416 1417 
f 1417 1399 1398 
f 1399 1417 1418 
f 1418 1400 1399 
f 1400 1418 1419 
f 1419 1401 1400 
f 1401 1419 1420 
f 1420 1402 1401 
f 1402 1420 1403 
f 1403 1385 1402 
f 1403 1421 1422 
f 1422 1404 1403 
f 1404 1422 1423 
f 1423 1405 1404 
f 1405 1423 1424 
f 1424 1406 1405 
f 1406 1424 1425 
f 1425 1407 1406 
f 1407 1425 1426 
f 1426 1408 1407 
f 1408 1426 1427 
f 1427 1409 1408 
f 1409 1427 1428 
f 1428 1410 1409 
f 1410 1428 1429 
f 1429 1411 1410 
f 1411 1429 1430 
f 1430 1412 1411 
f 1412 1430 1431 
f 1431 1413 1412 
f 1413 1431 1432 
f 1432 1414 1413 
f 1414 1432 1433 
f 1433 1415 1414 
f 1415 1433 1434 
f 1434 1416 1415 
f 1416 1434 1435 
f 1435 1417 1416 
f 1417 1435 1436 
f 1436 1418 1417 
f 1418 1436 1437 
f 1437 1419 1418 
f 1419 1437 1438 
f 1438 1420 1419 
f 1420 1438 1421 
f 1421 1403 1420 
f 1421 1439 1440 
f 1440 1422 1421 
f 1422 1440 1441 
f 1441 1423 1422 
f 1423 1441 1442 
f 1442 1424 1423 
f 1424 1442 1443 
f 1443 1425 1424 
f 1425 1443 1444 
f 1444 1426 1425 
f 1426 1444 1445 
f 1445 1427 1426 
f 1427 1445 1446 
f 1446 1428 1427 
f 1428 1446 1447 
f 1447 1429 1428 
f 1429 1447 1448 
f 1448 1430 1429 
f 1430 1448 1449 
f 1449 1431 1430 
f 1431 1449 1450 
f 1450 1432 1431 
f 1432 1450 1451 
f 1451 1433 1432 
f 1433 1451 1452 
f 1452 1434 1433 
f 1434 1452 1453 
f 1453 1435 1434 
f 1435 1453 1454 
f 1454 1436 1435 
f 1436 1454 1455 
f 1455 1437 1436 
f 1437 1455 1456 
f 1456 1438 1437 
f 1438 1456 1439 
f 1439 1421 1438 
f 1439 1368 1367 
f 1367 1440 1439 
f 1440 1367 1369 
f 1369 1441 1440 
f 1441 1369 1370 
f 1370 1442 1441 
f 1442 1370 1371 
f 1371 1443 1442 
f 1443 1371 1372 
f 1372 1444 1443 
f 1444 1372 1373 
f 1373 1445 1444 
f 1445 1373 1374 
f 1374 1446 1445 
f 1446 1374 1375 
f 1375 1447 1446 
f 1447 1375 1376 
f 1376 1448 1447 
f 1448 1376 1377 
f 1377 1449 1448 
f 1449 1377 1378 
f 1378 1450 1449 
f 1450 1378 1379 
f 1379 1451 1450 
f 1451 1379 1380 
f 1380 1452 1451 
f 1452 1380 1381 
f 1381 1453 1452 
f 1453 1381 1382 
f 1382 1454 1453 
f 1454 1382 1383 
f 1383 1455 1454 
f 1455 1383 1384 
f 1384 1456 1455 
f 1456 1384 1368 
f 1368 1439 1456 
# 376 faces

#
# object Cylinder032
#

v  -20.0000 28.4621 2.0000
v  -20.0000 28.4621 0.9600
v  -19.6443 28.4621 1.0227
v  -19.3315 28.4621 1.2033
v  -19.0993 28.4621 1.4800
v  -18.9758 28.4621 1.8194
v  -18.9758 28.4621 2.1806
v  -19.0993 28.4621 2.5200
v  -19.3315 28.4621 2.7967
v  -19.6443 28.4621 2.9773
v  -20.0000 28.4621 3.0400
v  -20.3557 28.4621 2.9773
v  -20.6685 28.4621 2.7967
v  -20.9007 28.4621 2.5200
v  -21.0242 28.4621 2.1806
v  -21.0242 28.4621 1.8194
v  -20.9007 28.4621 1.4800
v  -20.6685 28.4621 1.2033
v  -20.3557 28.4621 1.0227
v  -20.0000 24.9461 0.9600
v  -19.6443 24.9461 1.0227
v  -19.3315 24.9461 1.2033
v  -19.0993 24.9461 1.4800
v  -18.9758 24.9461 1.8194
v  -18.9758 24.9461 2.1806
v  -19.0993 24.9461 2.5200
v  -19.3315 24.9461 2.7967
v  -19.6443 24.9461 2.9773
v  -20.0000 24.9461 3.0400
v  -20.3557 24.9461 2.9773
v  -20.6685 24.9461 2.7967
v  -20.9007 24.9461 2.5200
v  -21.0242 24.9461 2.1806
v  -21.0242 24.9461 1.8194
v  -20.9007 24.9461 1.4800
v  -20.6685 24.9461 1.2033
v  -20.3557 24.9461 1.0227
v  -20.0000 21.4301 0.9600
v  -19.6443 21.4301 1.0227
v  -19.3315 21.4301 1.2033
v  -19.0993 21.4301 1.4800
v  -18.9758 21.4301 1.8194
v  -18.9758 21.4301 2.1806
v  -19.0993 21.4301 2.5200
v  -19.3315 21.4301 2.7967
v  -19.6443 21.4301 2.9773
v  -20.0000 21.4301 3.0400
v  -20.3557 21.4301 2.9773
v  -20.6685 21.4301 2.7967
v  -20.9007 21.4301 2.5200
v  -21.0242 21.4301 2.1806
v  -21.0242 21.4301 1.8194
v  -20.9007 21.4301 1.4800
v  -20.6685 21.4301 1.2033
v  -20.3557 21.4301 1.0227
v  -20.0000 17.9141 0.9600
v  -19.6443 17.9141 1.0227
v  -19.3315 17.9141 1.2033
v  -19.0993 17.9141 1.4800
v  -18.9758 17.9141 1.8194
v  -18.9758 17.9141 2.1806
v  -19.0993 17.9141 2.5200
v  -19.3315 17.9141 2.7967
v  -19.6443 17.9141 2.9773
v  -20.0000 17.9141 3.0400
v  -20.3557 17.9141 2.9773
v  -20.6685 17.9141 2.7967
v  -20.9007 17.9141 2.5200
v  -21.0242 17.9141 2.1806
v  -21.0242 17.9141 1.8194
v  -20.9007 17.9141 1.4800
v  -20.6685 17.9141 1.2033
v  -20.3557 17.9141 1.0227
v  -20.0000 14.3981 0.9600
v  -19.6443 14.3981 1.0227
v  -19.3315 14.3981 1.2033
v  -19.0993 14.3981 1.4800
v  -18.9758 14.3981 1.8194
v  -18.9758 14.3981 2.1806
v  -19.0993 14.3981 2.5200
v  -19.3315 14.3981 2.7967
v  -19.6443 14.3981 2.9773
v  -20.0000 14.3981 3.0400
v  -20.3557 14.3981 2.9773
v  -20.6685 14.3981 2.7967
v  -20.9007 14.3981 2.5200
v  -21.0242 14.3981 2.1806
v  -21.0242 14.3981 1.8194
v  -20.9007 14.3981 1.4800
v  -20.6685 14.3981 1.2033
v  -20.3557 14.3981 1.0227
v  -20.0000 10.8821 0.9600
v  -19.6443 10.8821 1.0227
v  -19.3315 10.8821 1.2033
v  -19.0993 10.8821 1.4800
v  -18.9758 10.8821 1.8194
v  -18.9758 10.8821 2.1806
v  -19.0993 10.8821 2.5200
v  -19.3315 10.8821 2.7967
v  -19.6443 10.8821 2.9773
v  -20.0000 10.8821 3.0400
v  -20.3557 10.8821 2.9773
v  -20.6685 10.8821 2.7967
v  -20.9007 10.8821 2.5200
v  -21.0242 10.8821 2.1806
v  -21.0242 10.8821 1.8194
v  -20.9007 10.8821 1.4800
v  -20.6685 10.8821 1.2033
v  -20.3557 10.8821 1.0227
v  -20.0000 10.8821 2.0000
# 110 vertices

g Cylinder032
f 1457 1459 1458 
f 1457 1460 1459 
f 1457 1461 1460 
f 1457 1462 1461 
f 1457 1463 1462 
f 1457 1464 1463 
f 1457 1465 1464 
f 1457 1466 1465 
f 1457 1467 1466 
f 1457 1468 1467 
f 1457 1469 1468 
f 1457 1470 1469 
f 1457 1471 1470 
f 1457 1472 1471 
f 1457 1473 1472 
f 1457 1474 1473 
f 1457 1475 1474 
f 1457 1458 1475 
f 1458 1477 1476 
f 1458 1459 1477 
f 1459 1478 1477 
f 1459 1460 1478 
f 1460 1479 1478 
f 1460 1461 1479 
f 1461 1480 1479 
f 1461 1462 1480 
f 1462 1481 1480 
f 1462 1463 1481 
f 1463 1482 1481 
f 1463 1464 1482 
f 1464 1483 1482 
f 1464 1465 1483 
f 1465 1484 1483 
f 1465 1466 1484 
f 1466 1485 1484 
f 1466 1467 1485 
f 1467 1486 1485 
f 1467 1468 1486 
f 1468 1487 1486 
f 1468 1469 1487 
f 1469 1488 1487 
f 1469 1470 1488 
f 1470 1489 1488 
f 1470 1471 1489 
f 1471 1490 1489 
f 1471 1472 1490 
f 1472 1491 1490 
f 1472 1473 1491 
f 1473 1492 1491 
f 1473 1474 1492 
f 1474 1493 1492 
f 1474 1475 1493 
f 1475 1476 1493 
f 1475 1458 1476 
f 1476 1495 1494 
f 1476 1477 1495 
f 1477 1496 1495 
f 1477 1478 1496 
f 1478 1497 1496 
f 1478 1479 1497 
f 1479 1498 1497 
f 1479 1480 1498 
f 1480 1499 1498 
f 1480 1481 1499 
f 1481 1500 1499 
f 1481 1482 1500 
f 1482 1501 1500 
f 1482 1483 1501 
f 1483 1502 1501 
f 1483 1484 1502 
f 1484 1503 1502 
f 1484 1485 1503 
f 1485 1504 1503 
f 1485 1486 1504 
f 1486 1505 1504 
f 1486 1487 1505 
f 1487 1506 1505 
f 1487 1488 1506 
f 1488 1507 1506 
f 1488 1489 1507 
f 1489 1508 1507 
f 1489 1490 1508 
f 1490 1509 1508 
f 1490 1491 1509 
f 1491 1510 1509 
f 1491 1492 1510 
f 1492 1511 1510 
f 1492 1493 1511 
f 1493 1494 1511 
f 1493 1476 1494 
f 1494 1513 1512 
f 1494 1495 1513 
f 1495 1514 1513 
f 1495 1496 1514 
f 1496 1515 1514 
f 1496 1497 1515 
f 1497 1516 1515 
f 1497 1498 1516 
f 1498 1517 1516 
f 1498 1499 1517 
f 1499 1518 1517 
f 1499 1500 1518 
f 1500 1519 1518 
f 1500 1501 1519 
f 1501 1520 1519 
f 1501 1502 1520 
f 1502 1521 1520 
f 1502 1503 1521 
f 1503 1522 1521 
f 1503 1504 1522 
f 1504 1523 1522 
f 1504 1505 1523 
f 1505 1524 1523 
f 1505 1506 1524 
f 1506 1525 1524 
f 1506 1507 1525 
f 1507 1526 1525 
f 1507 1508 1526 
f 1508 1527 1526 
f 1508 1509 1527 
f 1509 1528 1527 
f 1509 1510 1528 
f 1510 1529 1528 
f 1510 1511 1529 
f 1511 1512 1529 
f 1511 1494 1512 
f 1512 1531 1530 
f 1512 1513 1531 
f 1513 1532 1531 
f 1513 1514 1532 
f 1514 1533 1532 
f 1514 1515 1533 
f 1515 1534 1533 
f 1515 1516 1534 
f 1516 1535 1534 
f 1516 1517 1535 
f 1517 1536 1535 
f 1517 1518 1536 
f 1518 1537 1536 
f 1518 1519 1537 
f 1519 1538 1537 
f 1519 1520 1538 
f 1520 1539 1538 
f 1520 1521 1539 
f 1521 1540 1539 
f 1521 1522 1540 
f 1522 1541 1540 
f 1522 1523 1541 
f 1523 1542 1541 
f 1523 1524 1542 
f 1524 1543 1542 
f 1524 1525 1543 
f 1525 1544 1543 
f 1525 1526 1544 
f 1526 1545 1544 
f 1526 1527 1545 
f 1527 1546 1545 
f 1527 1528 1546 
f 1528 1547 1546 
f 1528 1529 1547 
f 1529 1530 1547 
f 1529 1512 1530 
f 1530 1549 1548 
f 1530 1531 1549 
f 1531 1550 1549 
f 1531 1532 1550 
f 1532 1551 1550 
f 1532 1533 1551 
f 1533 1552 1551 
f 1533 1534 1552 
f 1534 1553 1552 
f 1534 1535 1553 
f 1535 1554 1553 
f 1535 1536 1554 
f 1536 1555 1554 
f 1536 1537 1555 
f 1537 1556 1555 
f 1537 1538 1556 
f 1538 1557 1556 
f 1538 1539 1557 
f 1539 1558 1557 
f 1539 1540 1558 
f 1540 1559 1558 
f 1540 1541 1559 
f 1541 1560 1559 
f 1541 1542 1560 
f 1542 1561 1560 
f 1542 1543 1561 
f 1543 1562 1561 
f 1543 1544 1562 
f 1544 1563 1562 
f 1544 1545 1563 
f 1545 1564 1563 
f 1545 1546 1564 
f 1546 1565 1564 
f 1546 1547 1565 
f 1547 1548 1565 
f 1547 1530 1548 
f 1566 1548 1549 
f 1566 1549 1550 
f 1566 1550 1551 
f 1566 1551 1552 
f 1566 1552 1553 
f 1566 1553 1554 
f 1566 1554 1555 
f 1566 1555 1556 
f 1566 1556 1557 
f 1566 1557 1558 
f 1566 1558 1559 
f 1566 1559 1560 
f 1566 1560 1561 
f 1566 1561 1562 
f 1566 1562 1563 
f 1566 1563 1564 
f 1566 1564 1565 
f 1566 1565 1548 
# 216 faces

#
# object chain017
#

v  -20.0000 10.8821 0.0000
v  -20.0000 -6.6979 0.0000
v  -18.0000 10.8821 0.0000
v  -18.0000 -6.6979 0.0000
v  -20.0000 10.8821 4.0000
v  -20.0000 -6.6979 4.0000
v  -18.0000 10.8821 4.0000
v  -18.0000 -6.6979 4.0000
# 8 vertices

g chain017
f 1567 1569 1570 
f 1570 1568 1567 
f 1571 1572 1574 
f 1574 1573 1571 
f 1567 1568 1572 
f 1572 1571 1567 
f 1568 1570 1574 
f 1574 1572 1568 
f 1570 1569 1573 
f 1573 1574 1570 
f 1569 1567 1571 
f 1571 1573 1569 
# 12 faces

#
# object Cylinder033
#

v  -20.0000 -6.7057 2.0000
v  -20.0000 -6.7057 0.9600
v  -19.6443 -6.7057 1.0227
v  -19.3315 -6.7057 1.2033
v  -19.0993 -6.7057 1.4800
v  -18.9758 -6.7057 1.8194
v  -18.9758 -6.7057 2.1806
v  -19.0993 -6.7057 2.5200
v  -19.3315 -6.7057 2.7967
v  -19.6443 -6.7057 2.9773
v  -20.0000 -6.7057 3.0400
v  -20.3557 -6.7057 2.9773
v  -20.6685 -6.7057 2.7967
v  -20.9007 -6.7057 2.5200
v  -21.0242 -6.7057 2.1806
v  -21.0242 -6.7057 1.8194
v  -20.9007 -6.7057 1.4800
v  -20.6685 -6.7057 1.2033
v  -20.3557 -6.7057 1.0227
v  -20.0000 -10.2217 0.9600
v  -19.6443 -10.2217 1.0227
v  -19.3315 -10.2217 1.2033
v  -19.0993 -10.2217 1.4800
v  -18.9758 -10.2217 1.8194
v  -18.9758 -10.2217 2.1806
v  -19.0993 -10.2217 2.5200
v  -19.3315 -10.2217 2.7967
v  -19.6443 -10.2217 2.9773
v  -20.0000 -10.2217 3.0400
v  -20.3557 -10.2217 2.9773
v  -20.6685 -10.2217 2.7967
v  -20.9007 -10.2217 2.5200
v  -21.0242 -10.2217 2.1806
v  -21.0242 -10.2217 1.8194
v  -20.9007 -10.2217 1.4800
v  -20.6685 -10.2217 1.2033
v  -20.3557 -10.2217 1.0227
v  -20.0000 -13.7377 0.9600
v  -19.6443 -13.7377 1.0227
v  -19.3315 -13.7377 1.2033
v  -19.0993 -13.7377 1.4800
v  -18.9758 -13.7377 1.8194
v  -18.9758 -13.7377 2.1806
v  -19.0993 -13.7377 2.5200
v  -19.3315 -13.7377 2.7967
v  -19.6443 -13.7377 2.9773
v  -20.0000 -13.7377 3.0400
v  -20.3557 -13.7377 2.9773
v  -20.6685 -13.7377 2.7967
v  -20.9007 -13.7377 2.5200
v  -21.0242 -13.7377 2.1806
v  -21.0242 -13.7377 1.8194
v  -20.9007 -13.7377 1.4800
v  -20.6685 -13.7377 1.2033
v  -20.3557 -13.7377 1.0227
v  -20.0000 -17.2537 0.9600
v  -19.6443 -17.2537 1.0227
v  -19.3315 -17.2537 1.2033
v  -19.0993 -17.2537 1.4800
v  -18.9758 -17.2537 1.8194
v  -18.9758 -17.2537 2.1806
v  -19.0993 -17.2537 2.5200
v  -19.3315 -17.2537 2.7967
v  -19.6443 -17.2537 2.9773
v  -20.0000 -17.2537 3.0400
v  -20.3557 -17.2537 2.9773
v  -20.6685 -17.2537 2.7967
v  -20.9007 -17.2537 2.5200
v  -21.0242 -17.2537 2.1806
v  -21.0242 -17.2537 1.8194
v  -20.9007 -17.2537 1.4800
v  -20.6685 -17.2537 1.2033
v  -20.3557 -17.2537 1.0227
v  -20.0000 -20.7697 0.9600
v  -19.6443 -20.7697 1.0227
v  -19.3315 -20.7697 1.2033
v  -19.0993 -20.7697 1.4800
v  -18.9758 -20.7697 1.8194
v  -18.9758 -20.7697 2.1806
v  -19.0993 -20.7697 2.5200
v  -19.3315 -20.7697 2.7967
v  -19.6443 -20.7697 2.9773
v  -20.0000 -20.7697 3.0400
v  -20.3557 -20.7697 2.9773
v  -20.6685 -20.7697 2.7967
v  -20.9007 -20.7697 2.5200
v  -21.0242 -20.7697 2.1806
v  -21.0242 -20.7697 1.8194
v  -20.9007 -20.7697 1.4800
v  -20.6685 -20.7697 1.2033
v  -20.3557 -20.7697 1.0227
v  -20.0000 -24.2857 0.9600
v  -19.6443 -24.2857 1.0227
v  -19.3315 -24.2857 1.2033
v  -19.0993 -24.2857 1.4800
v  -18.9758 -24.2857 1.8194
v  -18.9758 -24.2857 2.1806
v  -19.0993 -24.2857 2.5200
v  -19.3315 -24.2857 2.7967
v  -19.6443 -24.2857 2.9773
v  -20.0000 -24.2857 3.0400
v  -20.3557 -24.2857 2.9773
v  -20.6685 -24.2857 2.7967
v  -20.9007 -24.2857 2.5200
v  -21.0242 -24.2857 2.1806
v  -21.0242 -24.2857 1.8194
v  -20.9007 -24.2857 1.4800
v  -20.6685 -24.2857 1.2033
v  -20.3557 -24.2857 1.0227
v  -20.0000 -24.2857 2.0000
# 110 vertices

g Cylinder033
f 1575 1577 1576 
f 1575 1578 1577 
f 1575 1579 1578 
f 1575 1580 1579 
f 1575 1581 1580 
f 1575 1582 1581 
f 1575 1583 1582 
f 1575 1584 1583 
f 1575 1585 1584 
f 1575 1586 1585 
f 1575 1587 1586 
f 1575 1588 1587 
f 1575 1589 1588 
f 1575 1590 1589 
f 1575 1591 1590 
f 1575 1592 1591 
f 1575 1593 1592 
f 1575 1576 1593 
f 1576 1595 1594 
f 1576 1577 1595 
f 1577 1596 1595 
f 1577 1578 1596 
f 1578 1597 1596 
f 1578 1579 1597 
f 1579 1598 1597 
f 1579 1580 1598 
f 1580 1599 1598 
f 1580 1581 1599 
f 1581 1600 1599 
f 1581 1582 1600 
f 1582 1601 1600 
f 1582 1583 1601 
f 1583 1602 1601 
f 1583 1584 1602 
f 1584 1603 1602 
f 1584 1585 1603 
f 1585 1604 1603 
f 1585 1586 1604 
f 1586 1605 1604 
f 1586 1587 1605 
f 1587 1606 1605 
f 1587 1588 1606 
f 1588 1607 1606 
f 1588 1589 1607 
f 1589 1608 1607 
f 1589 1590 1608 
f 1590 1609 1608 
f 1590 1591 1609 
f 1591 1610 1609 
f 1591 1592 1610 
f 1592 1611 1610 
f 1592 1593 1611 
f 1593 1594 1611 
f 1593 1576 1594 
f 1594 1613 1612 
f 1594 1595 1613 
f 1595 1614 1613 
f 1595 1596 1614 
f 1596 1615 1614 
f 1596 1597 1615 
f 1597 1616 1615 
f 1597 1598 1616 
f 1598 1617 1616 
f 1598 1599 1617 
f 1599 1618 1617 
f 1599 1600 1618 
f 1600 1619 1618 
f 1600 1601 1619 
f 1601 1620 1619 
f 1601 1602 1620 
f 1602 1621 1620 
f 1602 1603 1621 
f 1603 1622 1621 
f 1603 1604 1622 
f 1604 1623 1622 
f 1604 1605 1623 
f 1605 1624 1623 
f 1605 1606 1624 
f 1606 1625 1624 
f 1606 1607 1625 
f 1607 1626 1625 
f 1607 1608 1626 
f 1608 1627 1626 
f 1608 1609 1627 
f 1609 1628 1627 
f 1609 1610 1628 
f 1610 1629 1628 
f 1610 1611 1629 
f 1611 1612 1629 
f 1611 1594 1612 
f 1612 1631 1630 
f 1612 1613 1631 
f 1613 1632 1631 
f 1613 1614 1632 
f 1614 1633 1632 
f 1614 1615 1633 
f 1615 1634 1633 
f 1615 1616 1634 
f 1616 1635 1634 
f 1616 1617 1635 
f 1617 1636 1635 
f 1617 1618 1636 
f 1618 1637 1636 
f 1618 1619 1637 
f 1619 1638 1637 
f 1619 1620 1638 
f 1620 1639 1638 
f 1620 1621 1639 
f 1621 1640 1639 
f 1621 1622 1640 
f 1622 1641 1640 
f 1622 1623 1641 
f 1623 1642 1641 
f 1623 1624 1642 
f 1624 1643 1642 
f 1624 1625 1643 
f 1625 1644 1643 
f 1625 1626 1644 
f 1626 1645 1644 
f 1626 1627 1645 
f 1627 1646 1645 
f 1627 1628 1646 
f 1628 1647 1646 
f 1628 1629 1647 
f 1629 1630 1647 
f 1629 1612 1630 
f 1630 1649 1648 
f 1630 1631 1649 
f 1631 1650 1649 
f 1631 1632 1650 
f 1632 1651 1650 
f 1632 1633 1651 
f 1633 1652 1651 
f 1633 1634 1652 
f 1634 1653 1652 
f 1634 1635 1653 
f 1635 1654 1653 
f 1635 1636 1654 
f 1636 1655 1654 
f 1636 1637 1655 
f 1637 1656 1655 
f 1637 1638 1656 
f 1638 1657 1656 
f 1638 1639 1657 
f 1639 1658 1657 
f 1639 1640 1658 
f 1640 1659 1658 
f 1640 1641 1659 
f 1641 1660 1659 
f 1641 1642 1660 
f 1642 1661 1660 
f 1642 1643 1661 
f 1643 1662 1661 
f 1643 1644 1662 
f 1644 1663 1662 
f 1644 1645 1663 
f 1645 1664 1663 
f 1645 1646 1664 
f 1646 1665 1664 
f 1646 1647 1665 
f 1647 1648 1665 
f 1647 1630 1648 
f 1648 1667 1666 
f 1648 1649 1667 
f 1649 1668 1667 
f 1649 1650 1668 
f 1650 1669 1668 
f 1650 1651 1669 
f 1651 1670 1669 
f 1651 1652 1670 
f 1652 1671 1670 
f 1652 1653 1671 
f 1653 1672 1671 
f 1653 1654 1672 
f 1654 1673 1672 
f 1654 1655 1673 
f 1655 1674 1673 
f 1655 1656 1674 
f 1656 1675 1674 
f 1656 1657 1675 
f 1657 1676 1675 
f 1657 1658 1676 
f 1658 1677 1676 
f 1658 1659 1677 
f 1659 1678 1677 
f 1659 1660 1678 
f 1660 1679 1678 
f 1660 1661 1679 
f 1661 1680 1679 
f 1661 1662 1680 
f 1662 1681 1680 
f 1662 1663 1681 
f 1663 1682 1681 
f 1663 1664 1682 
f 1664 1683 1682 
f 1664 1665 1683 
f 1665 1666 1683 
f 1665 1648 1666 
f 1684 1666 1667 
f 1684 1667 1668 
f 1684 1668 1669 
f 1684 1669 1670 
f 1684 1670 1671 
f 1684 1671 1672 
f 1684 1672 1673 
f 1684 1673 1674 
f 1684 1674 1675 
f 1684 1675 1676 
f 1684 1676 1677 
f 1684 1677 1678 
f 1684 1678 1679 
f 1684 1679 1680 
f 1684 1680 1681 
f 1684 1681 1682 
f 1684 1682 1683 
f 1684 1683 1666 
# 216 faces

