# NV = 104 NF = 204
v 1.04175 -0.516975 1.30896
v 1.04374 -0.509648 1.30896
v 1.04374 0.502584 1.30896
v 1.04175 0.509913 1.30896
v 1.03632 0.51534 1.30896
v 1.0289 0.517332 1.30896
v -1.01764 0.502584 1.30498
v -1.01764 -0.509648 1.30498
v 1.0289 -0.509648 1.30498
v 1.0289 0.502584 1.30498
v -1.01764 0.502584 1.47914
v -1.01764 -0.509648 1.47914
v 1.0289 -0.509648 1.47914
v 1.0289 0.502584 1.47914
v -1.01764 0.517332 1.47516
v -1.02506 0.51534 1.47516
v -1.03048 0.509913 1.47516
v -1.03238 0.502584 1.47516
v -1.03238 -0.509648 1.47516
v -1.03048 -0.516975 1.47516
v -1.02506 -0.522404 1.47516
v -1.01764 -0.524394 1.47516
v 1.0289 -0.524394 1.47516
v 1.03632 -0.522404 1.47516
v 1.04175 -0.516975 1.47516
v 1.04374 -0.509648 1.47516
v 1.04374 0.502584 1.47516
v 1.04175 0.509913 1.47516
v 1.03632 0.51534 1.47516
v 1.0289 0.517332 1.47516
v -1.01764 0.528188 1.4644
v -1.03048 0.524751 1.4644
v -1.0398 0.51534 1.4644
v -1.04324 0.502584 1.4644
v -1.04324 -0.509648 1.4644
v -1.0398 -0.522404 1.4644
v -1.03048 -0.531723 1.4644
v -1.01764 -0.535161 1.4644
v 1.0289 -0.535161 1.4644
v 1.04175 -0.531723 1.4644
v 1.05107 -0.522404 1.4644
v 1.05451 -0.509648 1.4644
v 1.05451 0.502584 1.4644
v 1.05107 0.51534 1.4644
v 1.04175 0.524751 1.4644
v 1.0289 0.528188 1.4644
v -1.01764 0.532078 1.44965
v -1.03238 0.528188 1.44965
v -1.04324 0.517332 1.44965
v -1.04722 0.502584 1.44965
v -1.04722 -0.509648 1.44965
v -1.04324 -0.524394 1.44965
v -1.03238 -0.535161 1.44965
v -1.01764 -0.539142 1.44965
v 1.0289 -0.539142 1.44965
v 1.04374 -0.535161 1.44965
v 1.05451 -0.524394 1.44965
v 1.05849 -0.509648 1.44965
v 1.05849 0.502584 1.44965
v 1.05451 0.517332 1.44965
v 1.04374 0.528188 1.44965
v 1.0289 0.532078 1.44965
v -1.01764 0.532078 1.33457
v -1.03238 0.528188 1.33457
v -1.04324 0.517332 1.33457
v -1.04722 0.502584 1.33457
v -1.04722 -0.509648 1.33457
v -1.04324 -0.524394 1.33457
v -1.03238 -0.535161 1.33457
v -1.01764 -0.539142 1.33457
v 1.0289 -0.539142 1.33457
v 1.04374 -0.535161 1.33457
v 1.05451 -0.524394 1.33457
v 1.05849 -0.509648 1.33457
v 1.05849 0.502584 1.33457
v 1.05451 0.517332 1.33457
v 1.04374 0.528188 1.33457
v 1.0289 0.532078 1.33457
v -1.01764 0.528188 1.31973
v -1.03048 0.524751 1.31973
v -1.0398 0.51534 1.31973
v -1.04324 0.502584 1.31973
v -1.04324 -0.509648 1.31973
v -1.0398 -0.522404 1.31973
v -1.03048 -0.531723 1.31973
v -1.01764 -0.535161 1.31973
v 1.0289 -0.535161 1.31973
v 1.04175 -0.531723 1.31973
v 1.05107 -0.522404 1.31973
v 1.05451 -0.509648 1.31973
v 1.05451 0.502584 1.31973
v 1.05107 0.51534 1.31973
v 1.04175 0.524751 1.31973
v 1.0289 0.528188 1.31973
v -1.01764 0.517332 1.30896
v -1.02506 0.51534 1.30896
v -1.03048 0.509913 1.30896
v -1.03238 0.502584 1.30896
v -1.03238 -0.509648 1.30896
v -1.03048 -0.516975 1.30896
v -1.02506 -0.522404 1.30896
v -1.01764 -0.524394 1.30896
v 1.0289 -0.524394 1.30896
v 1.03632 -0.522404 1.30896
f 11 12 13 
f 11 13 14 
f 11 15 16 
f 11 16 17 
f 11 17 18 
f 11 18 19 
f 11 19 12 
f 12 19 20 
f 12 20 21 
f 12 21 22 
f 12 22 23 
f 12 23 13 
f 13 23 24 
f 13 24 25 
f 13 25 26 
f 13 26 27 
f 13 27 14 
f 14 27 28 
f 14 28 29 
f 14 29 30 
f 14 30 15 
f 14 15 11 
f 15 31 32 
f 15 32 16 
f 16 32 33 
f 16 33 17 
f 17 33 34 
f 17 34 18 
f 18 34 35 
f 18 35 19 
f 19 35 36 
f 19 36 20 
f 20 36 37 
f 20 37 21 
f 21 37 38 
f 21 38 22 
f 22 38 39 
f 22 39 23 
f 23 39 40 
f 23 40 24 
f 24 40 41 
f 24 41 25 
f 25 41 42 
f 25 42 26 
f 26 42 43 
f 26 43 27 
f 27 43 44 
f 27 44 28 
f 28 44 45 
f 28 45 29 
f 29 45 46 
f 29 46 30 
f 30 46 31 
f 30 31 15 
f 31 47 48 
f 31 48 32 
f 32 48 49 
f 32 49 33 
f 33 49 50 
f 33 50 34 
f 34 50 51 
f 34 51 35 
f 35 51 52 
f 35 52 36 
f 36 52 53 
f 36 53 37 
f 37 53 54 
f 37 54 38 
f 38 54 55 
f 38 55 39 
f 39 55 56 
f 39 56 40 
f 40 56 57 
f 40 57 41 
f 41 57 58 
f 41 58 42 
f 42 58 59 
f 42 59 43 
f 43 59 60 
f 43 60 44 
f 44 60 61 
f 44 61 45 
f 45 61 62 
f 45 62 46 
f 46 62 47 
f 46 47 31 
f 47 63 64 
f 47 64 48 
f 48 64 65 
f 48 65 49 
f 49 65 66 
f 49 66 50 
f 50 66 67 
f 50 67 51 
f 51 67 68 
f 51 68 52 
f 52 68 69 
f 52 69 53 
f 53 69 70 
f 53 70 54 
f 54 70 71 
f 54 71 55 
f 55 71 72 
f 55 72 56 
f 56 72 73 
f 56 73 57 
f 57 73 74 
f 57 74 58 
f 58 74 75 
f 58 75 59 
f 59 75 76 
f 59 76 60 
f 60 76 77 
f 60 77 61 
f 61 77 78 
f 61 78 62 
f 62 78 63 
f 62 63 47 
f 63 79 80 
f 63 80 64 
f 64 80 81 
f 64 81 65 
f 65 81 82 
f 65 82 66 
f 66 82 83 
f 66 83 67 
f 67 83 84 
f 67 84 68 
f 68 84 85 
f 68 85 69 
f 69 85 86 
f 69 86 70 
f 70 86 87 
f 70 87 71 
f 71 87 88 
f 71 88 72 
f 72 88 89 
f 72 89 73 
f 73 89 90 
f 73 90 74 
f 74 90 91 
f 74 91 75 
f 75 91 92 
f 75 92 76 
f 76 92 93 
f 76 93 77 
f 77 93 94 
f 77 94 78 
f 78 94 79 
f 78 79 63 
f 79 95 96 
f 79 96 80 
f 80 96 97 
f 80 97 81 
f 81 97 98 
f 81 98 82 
f 82 98 99 
f 82 99 83 
f 83 99 100 
f 83 100 84 
f 84 100 101 
f 84 101 85 
f 85 101 102 
f 85 102 86 
f 86 102 103 
f 86 103 87 
f 87 103 104 
f 87 104 88 
f 88 104 1 
f 88 1 89 
f 89 1 2 
f 89 2 90 
f 90 2 3 
f 90 3 91 
f 91 3 4 
f 91 4 92 
f 92 4 5 
f 92 5 93 
f 93 5 6 
f 93 6 94 
f 94 6 95 
f 94 95 79 
f 95 7 96 
f 96 7 97 
f 97 7 98 
f 98 7 8 
f 98 8 99 
f 99 8 100 
f 100 8 101 
f 101 8 102 
f 102 8 9 
f 102 9 103 
f 103 9 104 
f 104 9 1 
f 1 9 2 
f 2 9 10 
f 2 10 3 
f 3 10 4 
f 4 10 5 
f 5 10 6 
f 6 10 7 
f 6 7 95 
f 10 9 8 
f 10 8 7 
