# NV = 16 NF = 28
v 62.9956 7.194 33.3197
v -33.949 -48.777 33.3197
v 30.6807 -48.777 33.3197
v -66.2639 7.194 33.3197
v -33.949 -48.777 31.4997
v 30.6807 -48.777 31.4997
v 62.9956 7.194 31.4997
v -66.2639 7.194 31.4997
v -30.7176 7.194 33.3197
v -30.7176 7.194 31.4997
v 12.9075 -17.993 31.4997
v 12.9075 -17.993 33.3197
v 27.4492 7.194 33.3197
v 27.4492 7.194 31.4997
v -16.1759 -17.993 31.4997
v -16.1759 -17.993 33.3197
f 5 4 8 
f 6 2 5 
f 7 3 6 
f 8 9 10 
f 1 14 13 
f 11 5 15 
f 3 16 2 
f 11 13 14 
f 12 15 16 
f 16 10 9 
f 4 5 2 
f 2 6 3 
f 3 7 1 
f 9 8 4 
f 14 1 7 
f 10 5 8 
f 15 5 10 
f 6 14 7 
f 6 11 14 
f 5 11 6 
f 2 9 4 
f 2 16 9 
f 13 3 1 
f 12 3 13 
f 16 3 12 
f 13 11 12 
f 15 12 11 
f 10 16 15 
