# NV = 110 NF = 216
v 0.0589906 0.708176 0.0940726
v 0.0592873 0.706493 0.0940726
v 0.0601418 0.705011 0.0940726
v 0.0614509 0.703913 0.0940726
v 0.0630568 0.703329 0.0940726
v 0.0647658 0.703329 0.0940726
v 0.0663716 0.703913 0.0940726
v 0.0676808 0.705011 0.0940726
v 0.0685353 0.706493 0.0940726
v 0.068832 0.708176 0.215573
v 0.0685353 0.709858 0.215573
v 0.0676808 0.711339 0.215573
v 0.0663716 0.712436 0.215573
v 0.0647658 0.713022 0.215573
v 0.0630568 0.713022 0.215573
v 0.0614509 0.712436 0.215573
v 0.0601418 0.711339 0.215573
v 0.0592873 0.709858 0.215573
v 0.0589906 0.708176 0.215573
v 0.0592873 0.706493 0.215573
v 0.0601418 0.705011 0.215573
v 0.0614509 0.703913 0.215573
v 0.0630568 0.703329 0.215573
v 0.0647658 0.703329 0.215573
v 0.0663716 0.703913 0.215573
v 0.0676808 0.705011 0.215573
v 0.0685353 0.706493 0.215573
v 0.068832 0.708176 0.337073
v 0.0685353 0.709858 0.337073
v 0.0676808 0.711339 0.337073
v 0.0663716 0.712436 0.337073
v 0.0647658 0.713022 0.337073
v 0.0630568 0.713022 0.337073
v 0.0614509 0.712436 0.337073
v 0.0601418 0.711339 0.337073
v 0.0592873 0.709858 0.337073
v 0.0589906 0.708176 0.337073
v 0.0592873 0.706493 0.337073
v 0.0601418 0.705011 0.337073
v 0.0614509 0.703913 0.337073
v 0.0630568 0.703329 0.337073
v 0.0647658 0.703329 0.337073
v 0.0663716 0.703913 0.337073
v 0.0676808 0.705011 0.337073
v 0.0685353 0.706493 0.337073
v 0.068832 0.708176 0.458572
v 0.0685353 0.709858 0.458572
v 0.0676808 0.711339 0.458572
v 0.0663716 0.712436 0.458572
v 0.0647658 0.713022 0.458572
v 0.0630568 0.713022 0.458572
v 0.0614509 0.712436 0.458572
v 0.0601418 0.711339 0.458572
v 0.0592873 0.709858 0.458572
v 0.0589906 0.708176 0.458572
v 0.0592873 0.706493 0.458572
v 0.0601418 0.705011 0.458572
v 0.0614509 0.703913 0.458572
v 0.0630568 0.703329 0.458572
v 0.0647658 0.703329 0.458572
v 0.0663716 0.703913 0.458572
v 0.0676808 0.705011 0.458572
v 0.0685353 0.706493 0.458572
v 0.068832 0.708176 0.580072
v 0.0685353 0.709858 0.580072
v 0.0676808 0.711339 0.580072
v 0.0663716 0.712436 0.580072
v 0.0647658 0.713022 0.580072
v 0.0630568 0.713022 0.580072
v 0.0614509 0.712436 0.580072
v 0.0601418 0.711339 0.580072
v 0.0592873 0.709858 0.580072
v 0.0589906 0.708176 0.580072
v 0.0592873 0.706493 0.580072
v 0.0601418 0.705011 0.580072
v 0.0614509 0.703913 0.580072
v 0.0630568 0.703329 0.580072
v 0.0647658 0.703329 0.580072
v 0.0663716 0.703913 0.580072
v 0.0676808 0.705011 0.580072
v 0.0685353 0.706493 0.580072
v 0.068832 0.708176 0.701573
v 0.0685353 0.709858 0.701573
v 0.0676808 0.711339 0.701573
v 0.0663716 0.712436 0.701573
v 0.0647658 0.713022 0.701573
v 0.0630568 0.713022 0.701573
v 0.0614509 0.712436 0.701573
v 0.0601418 0.711339 0.701573
v 0.0592873 0.709858 0.701573
v 0.0589906 0.708176 0.701573
v 0.0592873 0.706493 0.701573
v 0.0601418 0.705011 0.701573
v 0.0614509 0.703913 0.701573
v 0.0630568 0.703329 0.701573
v 0.0647658 0.703329 0.701573
v 0.0663716 0.703913 0.701573
v 0.0676808 0.705011 0.701573
v 0.0685353 0.706493 0.701573
v 0.0639112 0.708176 0.701573
v 0.0639112 0.708176 0.0940726
v 0.068832 0.708176 0.0940726
v 0.0685353 0.709858 0.0940726
v 0.0676808 0.711339 0.0940726
v 0.0663716 0.712436 0.0940726
v 0.0647658 0.713022 0.0940726
v 0.0630568 0.713022 0.0940726
v 0.0614509 0.712436 0.0940726
v 0.0601418 0.711339 0.0940726
v 0.0592873 0.709858 0.0940726
f 99 82 100 
f 98 99 100 
f 97 98 100 
f 96 97 100 
f 95 96 100 
f 94 95 100 
f 93 94 100 
f 92 93 100 
f 91 92 100 
f 90 91 100 
f 89 90 100 
f 88 89 100 
f 87 88 100 
f 86 87 100 
f 85 86 100 
f 84 85 100 
f 83 84 100 
f 82 83 100 
f 64 82 81 
f 82 99 81 
f 81 99 80 
f 99 98 80 
f 80 98 79 
f 98 97 79 
f 79 97 78 
f 97 96 78 
f 78 96 77 
f 96 95 77 
f 77 95 76 
f 95 94 76 
f 76 94 75 
f 94 93 75 
f 75 93 74 
f 93 92 74 
f 74 92 73 
f 92 91 73 
f 73 91 72 
f 91 90 72 
f 72 90 71 
f 90 89 71 
f 71 89 70 
f 89 88 70 
f 70 88 69 
f 88 87 69 
f 69 87 68 
f 87 86 68 
f 68 86 67 
f 86 85 67 
f 67 85 66 
f 85 84 66 
f 66 84 65 
f 84 83 65 
f 65 83 64 
f 83 82 64 
f 46 64 63 
f 64 81 63 
f 63 81 62 
f 81 80 62 
f 62 80 61 
f 80 79 61 
f 61 79 60 
f 79 78 60 
f 60 78 59 
f 78 77 59 
f 59 77 58 
f 77 76 58 
f 58 76 57 
f 76 75 57 
f 57 75 56 
f 75 74 56 
f 56 74 55 
f 74 73 55 
f 55 73 54 
f 73 72 54 
f 54 72 53 
f 72 71 53 
f 53 71 52 
f 71 70 52 
f 52 70 51 
f 70 69 51 
f 51 69 50 
f 69 68 50 
f 50 68 49 
f 68 67 49 
f 49 67 48 
f 67 66 48 
f 48 66 47 
f 66 65 47 
f 47 65 46 
f 65 64 46 
f 28 46 45 
f 46 63 45 
f 45 63 44 
f 63 62 44 
f 44 62 43 
f 62 61 43 
f 43 61 42 
f 61 60 42 
f 42 60 41 
f 60 59 41 
f 41 59 40 
f 59 58 40 
f 40 58 39 
f 58 57 39 
f 39 57 38 
f 57 56 38 
f 38 56 37 
f 56 55 37 
f 37 55 36 
f 55 54 36 
f 36 54 35 
f 54 53 35 
f 35 53 34 
f 53 52 34 
f 34 52 33 
f 52 51 33 
f 33 51 32 
f 51 50 32 
f 32 50 31 
f 50 49 31 
f 31 49 30 
f 49 48 30 
f 30 48 29 
f 48 47 29 
f 29 47 28 
f 47 46 28 
f 10 28 27 
f 28 45 27 
f 27 45 26 
f 45 44 26 
f 26 44 25 
f 44 43 25 
f 25 43 24 
f 43 42 24 
f 24 42 23 
f 42 41 23 
f 23 41 22 
f 41 40 22 
f 22 40 21 
f 40 39 21 
f 21 39 20 
f 39 38 20 
f 20 38 19 
f 38 37 19 
f 19 37 18 
f 37 36 18 
f 18 36 17 
f 36 35 17 
f 17 35 16 
f 35 34 16 
f 16 34 15 
f 34 33 15 
f 15 33 14 
f 33 32 14 
f 14 32 13 
f 32 31 13 
f 13 31 12 
f 31 30 12 
f 12 30 11 
f 30 29 11 
f 11 29 10 
f 29 28 10 
f 102 10 9 
f 10 27 9 
f 9 27 8 
f 27 26 8 
f 8 26 7 
f 26 25 7 
f 7 25 6 
f 25 24 6 
f 6 24 5 
f 24 23 5 
f 5 23 4 
f 23 22 4 
f 4 22 3 
f 22 21 3 
f 3 21 2 
f 21 20 2 
f 2 20 1 
f 20 19 1 
f 1 19 110 
f 19 18 110 
f 110 18 109 
f 18 17 109 
f 109 17 108 
f 17 16 108 
f 108 16 107 
f 16 15 107 
f 107 15 106 
f 15 14 106 
f 106 14 105 
f 14 13 105 
f 105 13 104 
f 13 12 104 
f 104 12 103 
f 12 11 103 
f 103 11 102 
f 11 10 102 
f 102 9 101 
f 9 8 101 
f 8 7 101 
f 7 6 101 
f 6 5 101 
f 5 4 101 
f 4 3 101 
f 3 2 101 
f 2 1 101 
f 1 110 101 
f 110 109 101 
f 109 108 101 
f 108 107 101 
f 107 106 101 
f 106 105 101 
f 105 104 101 
f 104 103 101 
f 103 102 101 
