# NV = 168 NF = 332
v -0.680825 0.678502 0.113616
v 0.681204 0.678502 0.113616
v -0.680825 -0.681502 0.113616
v 0.681204 -0.681502 0.113616
v -0.680825 0.679313 0.113453
v -0.681135 0.679252 0.113453
v -0.681398 0.679075 0.113453
v -0.681574 0.678814 0.113453
v -0.681636 0.678502 0.113453
v -0.681636 -0.681502 0.113453
v -0.681574 -0.681812 0.113453
v -0.681398 -0.682076 0.113453
v -0.681135 -0.68225 0.113453
v -0.680825 -0.682312 0.113453
v 0.681204 -0.682312 0.113453
v 0.681514 -0.68225 0.113453
v 0.681778 -0.682076 0.113453
v 0.681953 -0.681812 0.113453
v 0.682014 -0.681502 0.113453
v 0.682014 0.678502 0.113453
v 0.681953 0.678814 0.113453
v 0.681778 0.679075 0.113453
v 0.681514 0.679252 0.113453
v 0.681204 0.679313 0.113453
v -0.680825 0.68 0.112996
v -0.681398 0.679886 0.112996
v -0.681884 0.679562 0.112996
v -0.682207 0.679075 0.112996
v -0.682322 0.678502 0.112996
v -0.682322 -0.681502 0.112996
v -0.682207 -0.682076 0.112996
v -0.681884 -0.68256 0.112996
v -0.681398 -0.682886 0.112996
v -0.680825 -0.682999 0.112996
v 0.681204 -0.682999 0.112996
v 0.681778 -0.682886 0.112996
v 0.682262 -0.68256 0.112996
v 0.682588 -0.682076 0.112996
v 0.682701 -0.681502 0.112996
v 0.682701 0.678502 0.112996
v 0.682588 0.679075 0.112996
v 0.682262 0.679562 0.112996
v 0.681778 0.679886 0.112996
v 0.681204 0.68 0.112996
v -0.680825 0.680459 0.112308
v -0.681574 0.68031 0.112308
v -0.682207 0.679886 0.112308
v -0.682632 0.679252 0.112308
v -0.682781 0.678502 0.112308
v -0.682781 -0.681502 0.112308
v -0.682632 -0.68225 0.112308
v -0.682207 -0.682886 0.112308
v -0.681574 -0.683308 0.112308
v -0.680825 -0.683458 0.112308
v 0.681204 -0.683458 0.112308
v 0.681953 -0.683308 0.112308
v 0.682588 -0.682886 0.112308
v 0.683011 -0.68225 0.112308
v 0.68316 -0.681502 0.112308
v 0.68316 0.678502 0.112308
v 0.683011 0.679252 0.112308
v 0.682588 0.679886 0.112308
v 0.681953 0.68031 0.112308
v 0.681204 0.680459 0.112308
v -0.680825 0.68062 0.111498
v -0.681636 0.680459 0.111498
v -0.682322 0.68 0.111498
v -0.682781 0.679313 0.111498
v -0.682942 0.678502 0.111498
v -0.682942 -0.681502 0.111498
v -0.682781 -0.682312 0.111498
v -0.682322 -0.682999 0.111498
v -0.681636 -0.683458 0.111498
v -0.680825 -0.68362 0.111498
v 0.681204 -0.68362 0.111498
v 0.682014 -0.683458 0.111498
v 0.682701 -0.682999 0.111498
v 0.68316 -0.682312 0.111498
v 0.683321 -0.681502 0.111498
v 0.683321 0.678502 0.111498
v 0.68316 0.679313 0.111498
v 0.682701 0.68 0.111498
v 0.682014 0.680459 0.111498
v 0.681204 0.68062 0.111498
v -0.680825 0.68062 0.103513
v -0.681636 0.680459 0.103513
v -0.682322 0.68 0.103513
v -0.682781 0.679313 0.103513
v -0.682942 0.678502 0.103513
v -0.682942 -0.681502 0.103513
v -0.682781 -0.682312 0.103513
v -0.682322 -0.682999 0.103513
v -0.681636 -0.683458 0.103513
v -0.680825 -0.68362 0.103513
v 0.681204 -0.68362 0.103513
v 0.682014 -0.683458 0.103513
v 0.682701 -0.682999 0.103513
v 0.68316 -0.682312 0.103513
v 0.683321 -0.681502 0.103513
v 0.683321 0.678502 0.103513
v 0.68316 0.679313 0.103513
v 0.682701 0.68 0.103513
v 0.682014 0.680459 0.103513
v 0.681204 0.68062 0.103513
v -0.680825 0.680459 0.102703
v -0.681574 0.68031 0.102703
v -0.682207 0.679886 0.102703
v -0.682632 0.679252 0.102703
v -0.682781 0.678502 0.102703
v -0.682781 -0.681502 0.102703
v -0.682632 -0.68225 0.102703
v -0.682207 -0.682886 0.102703
v -0.681574 -0.683308 0.102703
v -0.680825 -0.683458 0.102703
v 0.681204 -0.683458 0.102703
v 0.681953 -0.683308 0.102703
v 0.682588 -0.682886 0.102703
v 0.683011 -0.68225 0.102703
v 0.68316 -0.681502 0.102703
v 0.68316 0.678502 0.102703
v 0.683011 0.679252 0.102703
v 0.682588 0.679886 0.102703
v 0.681953 0.68031 0.102703
v 0.681204 0.680459 0.102703
v -0.680825 0.68 0.102015
v -0.681398 0.679886 0.102015
v -0.681884 0.679562 0.102015
v -0.682207 0.679075 0.102015
v -0.682322 0.678502 0.102015
v -0.682322 -0.681502 0.102015
v -0.682207 -0.682076 0.102015
v -0.681884 -0.68256 0.102015
v -0.681398 -0.682886 0.102015
v -0.680825 -0.682999 0.102015
v 0.681204 -0.682999 0.102015
v 0.681778 -0.682886 0.102015
v 0.682262 -0.68256 0.102015
v 0.682588 -0.682076 0.102015
v 0.682701 -0.681502 0.102015
v 0.682701 0.678502 0.102015
v 0.682588 0.679075 0.102015
v 0.682262 0.679562 0.102015
v 0.681778 0.679886 0.102015
v 0.681204 0.68 0.102015
v -0.680825 0.679313 0.101557
v -0.681135 0.679252 0.101557
v -0.681398 0.679075 0.101557
v -0.681574 0.678814 0.101557
v -0.681636 0.678502 0.101557
v -0.681636 -0.681502 0.101557
v -0.681574 -0.681812 0.101557
v -0.681398 -0.682076 0.101557
v -0.681135 -0.68225 0.101557
v -0.680825 -0.682312 0.101557
v 0.681204 -0.682312 0.101557
v 0.681514 -0.68225 0.101557
v 0.681778 -0.682076 0.101557
v 0.681953 -0.681812 0.101557
v 0.682014 -0.681502 0.101557
v 0.682014 0.678502 0.101557
v 0.681953 0.678814 0.101557
v 0.681778 0.679075 0.101557
v 0.681514 0.679252 0.101557
v 0.681204 0.679313 0.101557
v 0.681204 -0.681502 0.101394
v -0.680825 -0.681502 0.101394
v 0.681204 0.678502 0.101394
v -0.680825 0.678502 0.101394
f 166 168 167 
f 165 166 167 
f 168 145 164 
f 167 168 164 
f 167 164 163 
f 167 163 162 
f 167 162 161 
f 167 161 160 
f 167 160 159 
f 165 167 159 
f 165 159 158 
f 165 158 157 
f 165 157 156 
f 165 156 155 
f 165 155 154 
f 166 165 154 
f 166 154 153 
f 166 153 152 
f 166 152 151 
f 166 151 150 
f 166 150 149 
f 168 166 149 
f 168 149 148 
f 168 148 147 
f 168 147 146 
f 168 146 145 
f 145 125 144 
f 164 145 144 
f 164 144 143 
f 163 164 143 
f 163 143 142 
f 162 163 142 
f 162 142 141 
f 161 162 141 
f 161 141 140 
f 160 161 140 
f 160 140 139 
f 159 160 139 
f 159 139 138 
f 158 159 138 
f 158 138 137 
f 157 158 137 
f 157 137 136 
f 156 157 136 
f 156 136 135 
f 155 156 135 
f 155 135 134 
f 154 155 134 
f 154 134 133 
f 153 154 133 
f 153 133 132 
f 152 153 132 
f 152 132 131 
f 151 152 131 
f 151 131 130 
f 150 151 130 
f 150 130 129 
f 149 150 129 
f 149 129 128 
f 148 149 128 
f 148 128 127 
f 147 148 127 
f 147 127 126 
f 146 147 126 
f 146 126 125 
f 145 146 125 
f 125 105 124 
f 144 125 124 
f 144 124 123 
f 143 144 123 
f 143 123 122 
f 142 143 122 
f 142 122 121 
f 141 142 121 
f 141 121 120 
f 140 141 120 
f 140 120 119 
f 139 140 119 
f 139 119 118 
f 138 139 118 
f 138 118 117 
f 137 138 117 
f 137 117 116 
f 136 137 116 
f 136 116 115 
f 135 136 115 
f 135 115 114 
f 134 135 114 
f 134 114 113 
f 133 134 113 
f 133 113 112 
f 132 133 112 
f 132 112 111 
f 131 132 111 
f 131 111 110 
f 130 131 110 
f 130 110 109 
f 129 130 109 
f 129 109 108 
f 128 129 108 
f 128 108 107 
f 127 128 107 
f 127 107 106 
f 126 127 106 
f 126 106 105 
f 125 126 105 
f 105 85 104 
f 124 105 104 
f 124 104 103 
f 123 124 103 
f 123 103 102 
f 122 123 102 
f 122 102 101 
f 121 122 101 
f 121 101 100 
f 120 121 100 
f 120 100 99 
f 119 120 99 
f 119 99 98 
f 118 119 98 
f 118 98 97 
f 117 118 97 
f 117 97 96 
f 116 117 96 
f 116 96 95 
f 115 116 95 
f 115 95 94 
f 114 115 94 
f 114 94 93 
f 113 114 93 
f 113 93 92 
f 112 113 92 
f 112 92 91 
f 111 112 91 
f 111 91 90 
f 110 111 90 
f 110 90 89 
f 109 110 89 
f 109 89 88 
f 108 109 88 
f 108 88 87 
f 107 108 87 
f 107 87 86 
f 106 107 86 
f 106 86 85 
f 105 106 85 
f 85 65 84 
f 104 85 84 
f 104 84 83 
f 103 104 83 
f 103 83 82 
f 102 103 82 
f 102 82 81 
f 101 102 81 
f 101 81 80 
f 100 101 80 
f 100 80 79 
f 99 100 79 
f 99 79 78 
f 98 99 78 
f 98 78 77 
f 97 98 77 
f 97 77 76 
f 96 97 76 
f 96 76 75 
f 95 96 75 
f 95 75 74 
f 94 95 74 
f 94 74 73 
f 93 94 73 
f 93 73 72 
f 92 93 72 
f 92 72 71 
f 91 92 71 
f 91 71 70 
f 90 91 70 
f 90 70 69 
f 89 90 69 
f 89 69 68 
f 88 89 68 
f 88 68 67 
f 87 88 67 
f 87 67 66 
f 86 87 66 
f 86 66 65 
f 85 86 65 
f 65 45 64 
f 84 65 64 
f 84 64 63 
f 83 84 63 
f 83 63 62 
f 82 83 62 
f 82 62 61 
f 81 82 61 
f 81 61 60 
f 80 81 60 
f 80 60 59 
f 79 80 59 
f 79 59 58 
f 78 79 58 
f 78 58 57 
f 77 78 57 
f 77 57 56 
f 76 77 56 
f 76 56 55 
f 75 76 55 
f 75 55 54 
f 74 75 54 
f 74 54 53 
f 73 74 53 
f 73 53 52 
f 72 73 52 
f 72 52 51 
f 71 72 51 
f 71 51 50 
f 70 71 50 
f 70 50 49 
f 69 70 49 
f 69 49 48 
f 68 69 48 
f 68 48 47 
f 67 68 47 
f 67 47 46 
f 66 67 46 
f 66 46 45 
f 65 66 45 
f 45 25 44 
f 64 45 44 
f 64 44 43 
f 63 64 43 
f 63 43 42 
f 62 63 42 
f 62 42 41 
f 61 62 41 
f 61 41 40 
f 60 61 40 
f 60 40 39 
f 59 60 39 
f 59 39 38 
f 58 59 38 
f 58 38 37 
f 57 58 37 
f 57 37 36 
f 56 57 36 
f 56 36 35 
f 55 56 35 
f 55 35 34 
f 54 55 34 
f 54 34 33 
f 53 54 33 
f 53 33 32 
f 52 53 32 
f 52 32 31 
f 51 52 31 
f 51 31 30 
f 50 51 30 
f 50 30 29 
f 49 50 29 
f 49 29 28 
f 48 49 28 
f 48 28 27 
f 47 48 27 
f 47 27 26 
f 46 47 26 
f 46 26 25 
f 45 46 25 
f 25 5 24 
f 44 25 24 
f 44 24 23 
f 43 44 23 
f 43 23 22 
f 42 43 22 
f 42 22 21 
f 41 42 21 
f 41 21 20 
f 40 41 20 
f 40 20 19 
f 39 40 19 
f 39 19 18 
f 38 39 18 
f 38 18 17 
f 37 38 17 
f 37 17 16 
f 36 37 16 
f 36 16 15 
f 35 36 15 
f 35 15 14 
f 34 35 14 
f 34 14 13 
f 33 34 13 
f 33 13 12 
f 32 33 12 
f 32 12 11 
f 31 32 11 
f 31 11 10 
f 30 31 10 
f 30 10 9 
f 29 30 9 
f 29 9 8 
f 28 29 8 
f 28 8 7 
f 27 28 7 
f 27 7 6 
f 26 27 6 
f 26 6 5 
f 25 26 5 
f 5 1 2 
f 24 5 2 
f 23 24 2 
f 22 23 2 
f 21 22 2 
f 20 21 2 
f 20 2 4 
f 19 20 4 
f 18 19 4 
f 17 18 4 
f 16 17 4 
f 15 16 4 
f 15 4 3 
f 14 15 3 
f 13 14 3 
f 12 13 3 
f 11 12 3 
f 10 11 3 
f 10 3 1 
f 9 10 1 
f 8 9 1 
f 7 8 1 
f 6 7 1 
f 5 6 1 
f 4 2 1 
f 3 4 1 
