# NV = 6 NF = 8
v -0.290636 0.0546294 0.611514
v 0.288032 0.0163805 0.583603
v -0.29066 0.0183648 0.583676
v 0.288029 0.0108212 0.629425
v -0.290659 0.012805 0.629497
v 0.288056 0.05263 0.611444
f 1 2 3 
f 3 4 5 
f 5 6 1 
f 5 1 3 
f 4 2 6 
f 6 2 1 
f 2 4 3 
f 4 6 5 
