# NV = 9 NF = 14
v 0.256687 -0.302121 -0.00442077
v 0.256687 0.0958309 0.561027
v 0.256687 0.0746269 0.561027
v 0.26454 -0.302121 -0.00442077
v 0.26454 0.0746269 0.561027
v 0.26454 -0.323325 -0.00442077
v 0.256687 -0.312723 -0.00442077
v 0.256687 -0.323325 -0.00442077
v 0.26454 0.0958309 0.561027
f 9 2 5 
f 6 3 8 
f 4 9 5 
f 7 6 8 
f 3 6 5 
f 2 4 1 
f 3 2 1 
f 4 6 7 
f 3 7 8 
f 7 1 4 
f 9 4 2 
f 5 6 4 
f 3 1 7 
f 2 3 5 
