# NV = 8 NF = 12
v -0.260587 -0.225074 0.124025
v -0.260587 -0.226383 0.115342
v -0.260587 -0.229595 0.117602
v 0.256687 -0.221862 0.121764
v 0.256687 -0.225074 0.124025
v 0.256687 -0.226383 0.115342
v 0.256687 -0.229595 0.117602
v -0.260587 -0.221862 0.121764
f 6 2 4 
f 8 4 2 
f 7 3 6 
f 2 6 3 
f 5 1 7 
f 3 7 1 
f 4 8 5 
f 1 5 8 
f 6 4 7 
f 5 7 4 
f 1 8 3 
f 2 3 8 
