# NV = 16 NF = 28
v -5.759 -10 11.8419
v -18.4655 0 11.8419
v -18.4655 -10 11.8419
v -6.2083 0 10.9012
v -18.0162 -10 10.9012
v -18.0162 0 10.9012
v -5.759 0 11.8419
v -6.2083 -10 10.9012
v -18.0662 -10 10.8724
v -18.5858 -10 11.7724
v -18.5858 0 11.7724
v -18.0662 0 10.8724
v -6.1583 -10 10.8724
v -6.1583 0 10.8724
v -5.6387 0 11.7724
v -5.6387 -10 11.7724
f 8 4 14 
f 14 13 8 
f 15 7 1 
f 1 16 15 
f 12 6 5 
f 5 9 12 
f 10 11 12 
f 12 9 10 
f 4 8 5 
f 5 6 4 
f 13 14 15 
f 15 16 13 
f 11 10 3 
f 3 2 11 
f 1 7 2 
f 2 3 1 
f 8 13 16 
f 8 16 1 
f 10 9 5 
f 3 10 5 
f 1 3 5 
f 8 1 5 
f 15 14 4 
f 6 12 11 
f 6 11 2 
f 6 2 7 
f 4 6 7 
f 15 4 7 
