# NV = 16 NF = 28
v -13.1027 0 32.7186
v -13.1027 -10 32.7186
v -6.7495 0 21.7145
v -6.7495 -10 21.7145
v -6.1594 0 22.5739
v -6.1594 -10 22.5739
v -12.0634 0 32.7999
v -12.0634 -10 32.7999
v -6.1095 -10 22.545
v -6.6291 -10 21.645
v -6.1095 0 22.545
v -6.6291 0 21.645
v -13.1027 0 32.8575
v -12.0634 0 32.8575
v -13.1027 -10 32.8575
v -12.0634 -10 32.8575
f 14 16 8 
f 8 7 14 
f 2 15 13 
f 13 1 2 
f 11 5 6 
f 6 9 11 
f 10 12 11 
f 11 9 10 
f 7 8 6 
f 6 5 7 
f 16 14 13 
f 13 15 16 
f 12 10 4 
f 4 3 12 
f 2 1 3 
f 3 4 2 
f 8 16 15 
f 8 15 2 
f 10 9 6 
f 4 10 6 
f 2 4 6 
f 8 2 6 
f 13 14 7 
f 5 11 12 
f 5 12 3 
f 5 3 1 
f 7 5 1 
f 13 7 1 
