# NV = 16 NF = 28
v 12.8781 -10 33.0465
v 6.5249 0 44.0505
v 6.5249 -10 44.0505
v 12.8781 0 33.0465
v 5.9349 -10 43.1912
v 11.8389 0 32.9652
v 11.8389 -10 32.9652
v 5.9349 0 43.1912
v 11.8389 0 32.9075
v 12.8781 0 32.9075
v 5.885 -10 43.22
v 5.885 0 43.22
v 6.4046 0 44.12
v 6.4046 -10 44.12
v 11.8389 -10 32.9075
v 12.8781 -10 32.9075
f 1 4 2 
f 2 3 1 
f 5 8 6 
f 6 7 5 
f 14 3 2 
f 2 13 14 
f 8 5 11 
f 11 12 8 
f 16 10 4 
f 4 1 16 
f 6 9 15 
f 15 7 6 
f 13 12 11 
f 11 14 13 
f 16 15 9 
f 9 10 16 
f 10 9 6 
f 8 12 13 
f 8 13 2 
f 8 2 4 
f 6 8 4 
f 10 6 4 
f 7 15 16 
f 7 16 1 
f 14 11 5 
f 3 14 5 
f 1 3 5 
f 7 1 5 
