# NV = 12 NF = 20
v -0.571164 -0.342133 0.680545
v 0.573532 -0.312977 0.680545
v -0.571165 -0.312977 0.680545
v 0.573532 -0.297076 0.666447
v -0.571165 -0.297076 0.666447
v 0.57353 -0.297076 0.613499
v -0.571167 -0.297076 0.613499
v 0.573534 -0.358024 0.613497
v 0.573534 -0.358029 0.666449
v -0.571164 -0.358029 0.666449
v -0.571164 -0.358024 0.613497
v 0.573534 -0.342133 0.680545
f 8 9 10 
f 8 10 11 
f 9 12 1 
f 9 1 10 
f 12 2 3 
f 12 3 1 
f 2 4 5 
f 2 5 3 
f 4 6 7 
f 4 7 5 
f 6 8 11 
f 6 11 7 
f 4 8 6 
f 4 9 8 
f 2 9 4 
f 12 9 2 
f 5 7 11 
f 5 11 10 
f 3 5 10 
f 1 3 10 
