# NV = 38 NF = 72
v 0.0722713 0.288003 0.854757
v 0.0962904 0.286239 0.854757
v 0.0970408 0.296462 0.913787
v 0.0730218 0.298225 0.913787
v 0.0738775 0.3099 0.972543
v 0.0978965 0.308137 0.972543
v 0.098861 0.321254 1.031
v 0.074842 0.323018 1.031
v 0.0991851 0.32567 1.04863
v 0.0751584 0.327349 1.04829
v 0.0985534 0.317078 1.05093
v 0.0745268 0.318755 1.05059
v 0.0694447 0.249532 0.654779
v 0.0691036 0.244873 0.596901
v 0.093467 0.247767 0.654779
v 0.0931226 0.24311 0.596901
v 0.0939188 0.253958 0.713994
v 0.0698998 0.255721 0.713994
v 0.0944784 0.261557 0.773044
v 0.07046 0.26332 0.773044
v 0.0951398 0.270564 0.831896
v 0.071118 0.272327 0.831896
v 0.071884 0.282735 0.890515
v 0.095903 0.280971 0.890515
v 0.0727484 0.294538 0.948867
v 0.0967707 0.292774 0.948867
v 0.0977397 0.305966 1.00692
v 0.0737173 0.307729 1.00692
v 0.0943607 0.259965 0.616654
v 0.0942897 0.259008 0.596901
v 0.0703416 0.261728 0.616654
v 0.0702707 0.260773 0.596901
v 0.0706624 0.266095 0.676407
v 0.0946809 0.264332 0.676407
v 0.0710916 0.271932 0.736034
v 0.0951106 0.270168 0.736034
v 0.071627 0.279236 0.795497
v 0.095646 0.277473 0.795497
f 13 14 15 
f 16 15 14 
f 15 17 13 
f 18 13 17 
f 17 19 18 
f 20 18 19 
f 21 22 19 
f 20 19 22 
f 22 21 23 
f 24 23 21 
f 23 24 25 
f 26 25 24 
f 26 27 25 
f 28 25 27 
f 29 30 31 
f 32 31 30 
f 33 34 31 
f 29 31 34 
f 35 36 33 
f 34 33 36 
f 37 38 35 
f 36 35 38 
f 1 2 37 
f 38 37 2 
f 3 2 4 
f 1 4 2 
f 4 5 3 
f 6 3 5 
f 7 6 8 
f 5 8 6 
f 9 10 11 
f 12 11 10 
f 10 9 8 
f 7 8 9 
f 27 9 11 
f 27 7 9 
f 27 6 7 
f 6 27 26 
f 26 3 6 
f 3 26 24 
f 24 2 3 
f 2 24 21 
f 21 38 2 
f 38 21 19 
f 19 36 38 
f 36 19 17 
f 17 34 36 
f 34 17 15 
f 15 29 34 
f 29 15 30 
f 30 15 16 
f 12 28 11 
f 27 11 28 
f 10 8 12 
f 8 28 12 
f 28 8 5 
f 5 25 28 
f 25 5 4 
f 4 23 25 
f 23 4 1 
f 1 22 23 
f 22 1 37 
f 37 20 22 
f 20 37 35 
f 35 18 20 
f 18 35 33 
f 33 13 18 
f 13 33 31 
f 31 14 13 
f 14 31 32 
f 14 32 16 
f 30 16 32 
