# NV = 8 NF = 12
v -12.159 -15 19.8379
v -17.841 -15 0.6621
v -12.159 15 19.8379
v -17.841 15 0.6621
v -13.1178 -15 20.122
v -18.7998 -15 0.9461
v -13.1178 15 20.122
v -18.7998 15 0.9461
f 4 3 1 
f 1 2 4 
f 8 6 5 
f 5 7 8 
f 6 2 1 
f 1 5 6 
f 8 4 2 
f 2 6 8 
f 7 3 4 
f 4 8 7 
f 5 1 3 
f 3 7 5 
