# 3ds Max Wavefront OBJ Exporter v0.97b - (c)2007 guruware
# File Created: 31.12.2014 11:53:22

#
# object Cylinder069
#

v  68.8825 -45.3974 0.0000
v  68.8825 -45.3974 -1.0000
v  68.8825 -45.0554 -0.9397
v  68.8825 -44.7546 -0.7660
v  68.8825 -44.5314 -0.5000
v  68.8825 -44.4126 -0.1736
v  68.8825 -44.4126 0.1737
v  68.8825 -44.5314 0.5000
v  68.8825 -44.7546 0.7660
v  68.8825 -45.0554 0.9397
v  68.8825 -45.3974 1.0000
v  68.8825 -45.7394 0.9397
v  68.8825 -46.0402 0.7661
v  68.8825 -46.2635 0.5000
v  68.8825 -46.3822 0.1737
v  68.8825 -46.3822 -0.1736
v  68.8825 -46.2635 -0.5000
v  68.8825 -46.0402 -0.7660
v  68.8825 -45.7395 -0.9397
v  70.0825 -45.3974 -1.0000
v  70.0825 -45.0554 -0.9397
v  70.0825 -44.7546 -0.7660
v  70.0825 -44.5314 -0.5000
v  70.0825 -44.4126 -0.1736
v  70.0825 -44.4126 0.1737
v  70.0825 -44.5314 0.5000
v  70.0825 -44.7546 0.7661
v  70.0825 -45.0554 0.9397
v  70.0825 -45.3974 1.0000
v  70.0825 -45.7394 0.9397
v  70.0825 -46.0402 0.7661
v  70.0825 -46.2635 0.5000
v  70.0825 -46.3822 0.1737
v  70.0825 -46.3822 -0.1736
v  70.0825 -46.2635 -0.5000
v  70.0825 -46.0402 -0.7660
v  70.0825 -45.7395 -0.9397
v  71.2825 -45.3974 -1.0000
v  71.2825 -45.0554 -0.9397
v  71.2825 -44.7546 -0.7660
v  71.2825 -44.5314 -0.5000
v  71.2825 -44.4126 -0.1736
v  71.2825 -44.4126 0.1737
v  71.2825 -44.5314 0.5000
v  71.2825 -44.7546 0.7661
v  71.2825 -45.0554 0.9397
v  71.2825 -45.3974 1.0000
v  71.2825 -45.7394 0.9397
v  71.2825 -46.0402 0.7661
v  71.2825 -46.2635 0.5000
v  71.2825 -46.3822 0.1737
v  71.2825 -46.3822 -0.1736
v  71.2825 -46.2635 -0.5000
v  71.2825 -46.0402 -0.7660
v  71.2825 -45.7395 -0.9397
v  72.4825 -45.3974 -1.0000
v  72.4825 -45.0554 -0.9397
v  72.4825 -44.7546 -0.7660
v  72.4825 -44.5314 -0.5000
v  72.4825 -44.4126 -0.1736
v  72.4825 -44.4126 0.1737
v  72.4825 -44.5314 0.5000
v  72.4825 -44.7546 0.7661
v  72.4825 -45.0554 0.9397
v  72.4825 -45.3974 1.0000
v  72.4825 -45.7394 0.9397
v  72.4825 -46.0402 0.7661
v  72.4825 -46.2635 0.5000
v  72.4825 -46.3822 0.1737
v  72.4825 -46.3822 -0.1736
v  72.4825 -46.2635 -0.5000
v  72.4825 -46.0402 -0.7660
v  72.4825 -45.7395 -0.9397
v  73.6825 -45.3974 -1.0000
v  73.6825 -45.0554 -0.9397
v  73.6825 -44.7546 -0.7660
v  73.6825 -44.5314 -0.5000
v  73.6825 -44.4126 -0.1736
v  73.6825 -44.4126 0.1737
v  73.6825 -44.5314 0.5000
v  73.6825 -44.7546 0.7661
v  73.6825 -45.0554 0.9397
v  73.6825 -45.3974 1.0000
v  73.6825 -45.7394 0.9397
v  73.6825 -46.0402 0.7661
v  73.6825 -46.2635 0.5000
v  73.6825 -46.3822 0.1737
v  73.6825 -46.3822 -0.1736
v  73.6825 -46.2635 -0.5000
v  73.6825 -46.0402 -0.7660
v  73.6825 -45.7395 -0.9397
v  74.8825 -45.3974 -1.0000
v  74.8825 -45.0554 -0.9397
v  74.8825 -44.7546 -0.7660
v  74.8825 -44.5314 -0.5000
v  74.8825 -44.4126 -0.1736
v  74.8825 -44.4126 0.1737
v  74.8825 -44.5314 0.5000
v  74.8825 -44.7546 0.7661
v  74.8825 -45.0554 0.9397
v  74.8825 -45.3974 1.0000
v  74.8825 -45.7394 0.9397
v  74.8825 -46.0402 0.7661
v  74.8825 -46.2635 0.5000
v  74.8825 -46.3822 0.1737
v  74.8825 -46.3822 -0.1736
v  74.8825 -46.2635 -0.5000
v  74.8825 -46.0402 -0.7660
v  74.8825 -45.7395 -0.9397
v  74.8825 -45.3974 0.0000
# 110 vertices

g Cylinder069
f 1 3 2 
f 1 4 3 
f 1 5 4 
f 1 6 5 
f 1 7 6 
f 1 8 7 
f 1 9 8 
f 1 10 9 
f 1 11 10 
f 1 12 11 
f 1 13 12 
f 1 14 13 
f 1 15 14 
f 1 16 15 
f 1 17 16 
f 1 18 17 
f 1 19 18 
f 1 2 19 
f 2 21 20 
f 2 3 21 
f 3 22 21 
f 3 4 22 
f 4 23 22 
f 4 5 23 
f 5 24 23 
f 5 6 24 
f 6 25 24 
f 6 7 25 
f 7 26 25 
f 7 8 26 
f 8 27 26 
f 8 9 27 
f 9 28 27 
f 9 10 28 
f 10 29 28 
f 10 11 29 
f 11 30 29 
f 11 12 30 
f 12 31 30 
f 12 13 31 
f 13 32 31 
f 13 14 32 
f 14 33 32 
f 14 15 33 
f 15 34 33 
f 15 16 34 
f 16 35 34 
f 16 17 35 
f 17 36 35 
f 17 18 36 
f 18 37 36 
f 18 19 37 
f 19 20 37 
f 19 2 20 
f 20 39 38 
f 20 21 39 
f 21 40 39 
f 21 22 40 
f 22 41 40 
f 22 23 41 
f 23 42 41 
f 23 24 42 
f 24 43 42 
f 24 25 43 
f 25 44 43 
f 25 26 44 
f 26 45 44 
f 26 27 45 
f 27 46 45 
f 27 28 46 
f 28 47 46 
f 28 29 47 
f 29 48 47 
f 29 30 48 
f 30 49 48 
f 30 31 49 
f 31 50 49 
f 31 32 50 
f 32 51 50 
f 32 33 51 
f 33 52 51 
f 33 34 52 
f 34 53 52 
f 34 35 53 
f 35 54 53 
f 35 36 54 
f 36 55 54 
f 36 37 55 
f 37 38 55 
f 37 20 38 
f 38 57 56 
f 38 39 57 
f 39 58 57 
f 39 40 58 
f 40 59 58 
f 40 41 59 
f 41 60 59 
f 41 42 60 
f 42 61 60 
f 42 43 61 
f 43 62 61 
f 43 44 62 
f 44 63 62 
f 44 45 63 
f 45 64 63 
f 45 46 64 
f 46 65 64 
f 46 47 65 
f 47 66 65 
f 47 48 66 
f 48 67 66 
f 48 49 67 
f 49 68 67 
f 49 50 68 
f 50 69 68 
f 50 51 69 
f 51 70 69 
f 51 52 70 
f 52 71 70 
f 52 53 71 
f 53 72 71 
f 53 54 72 
f 54 73 72 
f 54 55 73 
f 55 56 73 
f 55 38 56 
f 56 75 74 
f 56 57 75 
f 57 76 75 
f 57 58 76 
f 58 77 76 
f 58 59 77 
f 59 78 77 
f 59 60 78 
f 60 79 78 
f 60 61 79 
f 61 80 79 
f 61 62 80 
f 62 81 80 
f 62 63 81 
f 63 82 81 
f 63 64 82 
f 64 83 82 
f 64 65 83 
f 65 84 83 
f 65 66 84 
f 66 85 84 
f 66 67 85 
f 67 86 85 
f 67 68 86 
f 68 87 86 
f 68 69 87 
f 69 88 87 
f 69 70 88 
f 70 89 88 
f 70 71 89 
f 71 90 89 
f 71 72 90 
f 72 91 90 
f 72 73 91 
f 73 74 91 
f 73 56 74 
f 74 93 92 
f 74 75 93 
f 75 94 93 
f 75 76 94 
f 76 95 94 
f 76 77 95 
f 77 96 95 
f 77 78 96 
f 78 97 96 
f 78 79 97 
f 79 98 97 
f 79 80 98 
f 80 99 98 
f 80 81 99 
f 81 100 99 
f 81 82 100 
f 82 101 100 
f 82 83 101 
f 83 102 101 
f 83 84 102 
f 84 103 102 
f 84 85 103 
f 85 104 103 
f 85 86 104 
f 86 105 104 
f 86 87 105 
f 87 106 105 
f 87 88 106 
f 88 107 106 
f 88 89 107 
f 89 108 107 
f 89 90 108 
f 90 109 108 
f 90 91 109 
f 91 92 109 
f 91 74 92 
f 110 92 93 
f 110 93 94 
f 110 94 95 
f 110 95 96 
f 110 96 97 
f 110 97 98 
f 110 98 99 
f 110 99 100 
f 110 100 101 
f 110 101 102 
f 110 102 103 
f 110 103 104 
f 110 104 105 
f 110 105 106 
f 110 106 107 
f 110 107 108 
f 110 108 109 
f 110 109 92 
# 216 faces

#
# object chain046
#

v  68.8825 -46.3974 -2.0000
v  74.8825 -46.3974 -2.0000
v  68.8825 -44.3974 -2.0000
v  74.8825 -44.3974 -2.0000
v  68.8825 -46.3974 -0.0000
v  74.8825 -46.3974 -0.0000
v  68.8825 -44.3974 -0.0000
v  74.8825 -44.3974 -0.0000
# 8 vertices

g chain046
f 111 113 114 
f 114 112 111 
f 115 116 118 
f 118 117 115 
f 111 112 116 
f 116 115 111 
f 112 114 118 
f 118 116 112 
f 114 113 117 
f 117 118 114 
f 113 111 115 
f 115 117 113 
# 12 faces

#
# object Cylinder070
#

v  62.8825 -45.3974 0.0000
v  62.8825 -45.3974 -0.5200
v  62.8825 -45.2196 -0.4886
v  62.8825 -45.0632 -0.3983
v  62.8825 -44.9471 -0.2600
v  62.8825 -44.8853 -0.0903
v  62.8825 -44.8853 0.0903
v  62.8825 -44.9471 0.2600
v  62.8825 -45.0632 0.3983
v  62.8825 -45.2196 0.4886
v  62.8825 -45.3974 0.5200
v  62.8825 -45.5753 0.4886
v  62.8825 -45.7317 0.3983
v  62.8825 -45.8478 0.2600
v  62.8825 -45.9095 0.0903
v  62.8825 -45.9095 -0.0903
v  62.8825 -45.8478 -0.2600
v  62.8825 -45.7317 -0.3983
v  62.8825 -45.5753 -0.4886
v  64.1025 -45.3974 -0.5200
v  64.1025 -45.2196 -0.4886
v  64.1025 -45.0632 -0.3983
v  64.1025 -44.9471 -0.2600
v  64.1025 -44.8853 -0.0903
v  64.1025 -44.8853 0.0903
v  64.1025 -44.9471 0.2600
v  64.1025 -45.0632 0.3983
v  64.1025 -45.2196 0.4886
v  64.1025 -45.3974 0.5200
v  64.1025 -45.5753 0.4886
v  64.1025 -45.7317 0.3983
v  64.1025 -45.8478 0.2600
v  64.1025 -45.9095 0.0903
v  64.1025 -45.9095 -0.0903
v  64.1025 -45.8478 -0.2600
v  64.1025 -45.7317 -0.3983
v  64.1025 -45.5753 -0.4886
v  65.3225 -45.3974 -0.5200
v  65.3225 -45.2196 -0.4886
v  65.3225 -45.0632 -0.3983
v  65.3225 -44.9471 -0.2600
v  65.3225 -44.8853 -0.0903
v  65.3225 -44.8853 0.0903
v  65.3225 -44.9471 0.2600
v  65.3225 -45.0632 0.3983
v  65.3225 -45.2196 0.4886
v  65.3225 -45.3974 0.5200
v  65.3225 -45.5753 0.4886
v  65.3225 -45.7317 0.3983
v  65.3225 -45.8478 0.2600
v  65.3225 -45.9095 0.0903
v  65.3225 -45.9095 -0.0903
v  65.3225 -45.8478 -0.2600
v  65.3225 -45.7317 -0.3983
v  65.3225 -45.5753 -0.4886
v  66.5425 -45.3974 -0.5200
v  66.5425 -45.2196 -0.4886
v  66.5425 -45.0632 -0.3983
v  66.5425 -44.9471 -0.2600
v  66.5425 -44.8853 -0.0903
v  66.5425 -44.8853 0.0903
v  66.5425 -44.9471 0.2600
v  66.5425 -45.0632 0.3983
v  66.5425 -45.2196 0.4886
v  66.5425 -45.3974 0.5200
v  66.5425 -45.5753 0.4886
v  66.5425 -45.7317 0.3983
v  66.5425 -45.8478 0.2600
v  66.5425 -45.9095 0.0903
v  66.5425 -45.9095 -0.0903
v  66.5425 -45.8478 -0.2600
v  66.5425 -45.7317 -0.3983
v  66.5425 -45.5753 -0.4886
v  67.7625 -45.3974 -0.5200
v  67.7625 -45.2196 -0.4886
v  67.7625 -45.0632 -0.3983
v  67.7625 -44.9471 -0.2600
v  67.7625 -44.8853 -0.0903
v  67.7625 -44.8853 0.0903
v  67.7625 -44.9471 0.2600
v  67.7625 -45.0632 0.3984
v  67.7625 -45.2196 0.4886
v  67.7625 -45.3974 0.5200
v  67.7625 -45.5753 0.4886
v  67.7625 -45.7317 0.3984
v  67.7625 -45.8478 0.2600
v  67.7625 -45.9095 0.0903
v  67.7625 -45.9095 -0.0903
v  67.7625 -45.8478 -0.2600
v  67.7625 -45.7317 -0.3983
v  67.7625 -45.5753 -0.4886
v  68.9825 -45.3974 -0.5200
v  68.9825 -45.2196 -0.4886
v  68.9825 -45.0632 -0.3983
v  68.9825 -44.9471 -0.2600
v  68.9825 -44.8853 -0.0903
v  68.9825 -44.8853 0.0903
v  68.9825 -44.9471 0.2600
v  68.9825 -45.0632 0.3984
v  68.9825 -45.2196 0.4886
v  68.9825 -45.3974 0.5200
v  68.9825 -45.5753 0.4886
v  68.9825 -45.7317 0.3984
v  68.9825 -45.8478 0.2600
v  68.9825 -45.9095 0.0903
v  68.9825 -45.9095 -0.0903
v  68.9825 -45.8478 -0.2600
v  68.9825 -45.7317 -0.3983
v  68.9825 -45.5753 -0.4886
v  68.9825 -45.3974 0.0000
# 110 vertices

g Cylinder070
f 119 121 120 
f 119 122 121 
f 119 123 122 
f 119 124 123 
f 119 125 124 
f 119 126 125 
f 119 127 126 
f 119 128 127 
f 119 129 128 
f 119 130 129 
f 119 131 130 
f 119 132 131 
f 119 133 132 
f 119 134 133 
f 119 135 134 
f 119 136 135 
f 119 137 136 
f 119 120 137 
f 120 139 138 
f 120 121 139 
f 121 140 139 
f 121 122 140 
f 122 141 140 
f 122 123 141 
f 123 142 141 
f 123 124 142 
f 124 143 142 
f 124 125 143 
f 125 144 143 
f 125 126 144 
f 126 145 144 
f 126 127 145 
f 127 146 145 
f 127 128 146 
f 128 147 146 
f 128 129 147 
f 129 148 147 
f 129 130 148 
f 130 149 148 
f 130 131 149 
f 131 150 149 
f 131 132 150 
f 132 151 150 
f 132 133 151 
f 133 152 151 
f 133 134 152 
f 134 153 152 
f 134 135 153 
f 135 154 153 
f 135 136 154 
f 136 155 154 
f 136 137 155 
f 137 138 155 
f 137 120 138 
f 138 157 156 
f 138 139 157 
f 139 158 157 
f 139 140 158 
f 140 159 158 
f 140 141 159 
f 141 160 159 
f 141 142 160 
f 142 161 160 
f 142 143 161 
f 143 162 161 
f 143 144 162 
f 144 163 162 
f 144 145 163 
f 145 164 163 
f 145 146 164 
f 146 165 164 
f 146 147 165 
f 147 166 165 
f 147 148 166 
f 148 167 166 
f 148 149 167 
f 149 168 167 
f 149 150 168 
f 150 169 168 
f 150 151 169 
f 151 170 169 
f 151 152 170 
f 152 171 170 
f 152 153 171 
f 153 172 171 
f 153 154 172 
f 154 173 172 
f 154 155 173 
f 155 156 173 
f 155 138 156 
f 156 175 174 
f 156 157 175 
f 157 176 175 
f 157 158 176 
f 158 177 176 
f 158 159 177 
f 159 178 177 
f 159 160 178 
f 160 179 178 
f 160 161 179 
f 161 180 179 
f 161 162 180 
f 162 181 180 
f 162 163 181 
f 163 182 181 
f 163 164 182 
f 164 183 182 
f 164 165 183 
f 165 184 183 
f 165 166 184 
f 166 185 184 
f 166 167 185 
f 167 186 185 
f 167 168 186 
f 168 187 186 
f 168 169 187 
f 169 188 187 
f 169 170 188 
f 170 189 188 
f 170 171 189 
f 171 190 189 
f 171 172 190 
f 172 191 190 
f 172 173 191 
f 173 174 191 
f 173 156 174 
f 174 193 192 
f 174 175 193 
f 175 194 193 
f 175 176 194 
f 176 195 194 
f 176 177 195 
f 177 196 195 
f 177 178 196 
f 178 197 196 
f 178 179 197 
f 179 198 197 
f 179 180 198 
f 180 199 198 
f 180 181 199 
f 181 200 199 
f 181 182 200 
f 182 201 200 
f 182 183 201 
f 183 202 201 
f 183 184 202 
f 184 203 202 
f 184 185 203 
f 185 204 203 
f 185 186 204 
f 186 205 204 
f 186 187 205 
f 187 206 205 
f 187 188 206 
f 188 207 206 
f 188 189 207 
f 189 208 207 
f 189 190 208 
f 190 209 208 
f 190 191 209 
f 191 192 209 
f 191 174 192 
f 192 211 210 
f 192 193 211 
f 193 212 211 
f 193 194 212 
f 194 213 212 
f 194 195 213 
f 195 214 213 
f 195 196 214 
f 196 215 214 
f 196 197 215 
f 197 216 215 
f 197 198 216 
f 198 217 216 
f 198 199 217 
f 199 218 217 
f 199 200 218 
f 200 219 218 
f 200 201 219 
f 201 220 219 
f 201 202 220 
f 202 221 220 
f 202 203 221 
f 203 222 221 
f 203 204 222 
f 204 223 222 
f 204 205 223 
f 205 224 223 
f 205 206 224 
f 206 225 224 
f 206 207 225 
f 207 226 225 
f 207 208 226 
f 208 227 226 
f 208 209 227 
f 209 210 227 
f 209 192 210 
f 228 210 211 
f 228 211 212 
f 228 212 213 
f 228 213 214 
f 228 214 215 
f 228 215 216 
f 228 216 217 
f 228 217 218 
f 228 218 219 
f 228 219 220 
f 228 220 221 
f 228 221 222 
f 228 222 223 
f 228 223 224 
f 228 224 225 
f 228 225 226 
f 228 226 227 
f 228 227 210 
# 216 faces

#
# object bearing022
#

v  62.8820 -44.3974 -2.0000
v  74.8820 -44.3974 -2.0000
v  62.8820 -40.3974 -2.0000
v  74.8820 -40.3974 -2.0000
v  62.8820 -44.3974 -1.0000
v  74.8820 -44.3974 -1.0000
v  62.8820 -40.3974 -1.0000
v  74.8820 -40.3974 -1.0000
# 8 vertices

g bearing022
f 229 231 232 
f 232 230 229 
f 233 234 236 
f 236 235 233 
f 229 230 234 
f 234 233 229 
f 230 232 236 
f 236 234 230 
f 232 231 235 
f 235 236 232 
f 231 229 233 
f 233 235 231 
# 12 faces

