# 3ds Max Wavefront OBJ Exporter v0.97b - (c)2007 guruware
# File Created: 03.06.2014 13:05:30

#
# object back
#

v  -25.0000 -15.0000 0.0000
v  25.0000 -15.0000 0.0000
v  -25.0000 15.0000 0.0000
v  25.0000 15.0000 0.0000
v  -25.0000 -15.0000 0.5000
v  25.0000 -15.0000 0.5000
v  -25.0000 15.0000 0.5000
v  25.0000 15.0000 0.5000
# 8 vertices

g back
f 1 3 4 
f 4 2 1 
f 5 6 8 
f 8 7 5 
f 1 2 6 
f 6 5 1 
f 2 4 8 
f 8 6 2 
f 4 3 7 
f 7 8 4 
f 3 1 5 
f 5 7 3 
# 12 faces

#
# object bottom
#

v  -25.2690 -14.9176 0.0807
v  -24.7310 -14.9176 0.0807
v  -25.2690 14.9176 0.0807
v  -24.7310 14.9176 0.0807
v  -25.2690 -14.9176 14.4193
v  -24.7310 -14.9176 14.4193
v  -25.2690 14.9176 14.4193
v  -24.7310 14.9176 14.4193
# 8 vertices

g bottom
f 9 11 12 
f 12 10 9 
f 13 14 16 
f 16 15 13 
f 9 10 14 
f 14 13 9 
f 10 12 16 
f 16 14 10 
f 12 11 15 
f 15 16 12 
f 11 9 13 
f 13 15 11 
# 12 faces

#
# object middle
#

v  -0.2690 -14.9176 0.0000
v  0.2690 -14.9176 0.0000
v  -0.2690 14.9176 0.0000
v  0.2690 14.9176 0.0000
v  -0.2690 -14.9176 14.3386
v  0.2690 -14.9176 14.3386
v  -0.2690 14.9176 14.3386
v  0.2690 14.9176 14.3386
# 8 vertices

g middle
f 17 19 20 
f 20 18 17 
f 21 22 24 
f 24 23 21 
f 17 18 22 
f 22 21 17 
f 18 20 24 
f 24 22 18 
f 20 19 23 
f 23 24 20 
f 19 17 21 
f 21 23 19 
# 12 faces

#
# object middle001
#

v  24.4810 -14.9176 0.0000
v  25.0190 -14.9176 0.0000
v  24.4810 14.9176 0.0000
v  25.0190 14.9176 0.0000
v  24.4810 -14.9176 14.3386
v  25.0190 -14.9176 14.3386
v  24.4810 14.9176 14.3386
v  25.0190 14.9176 14.3386
# 8 vertices

g middle001
f 25 27 28 
f 28 26 25 
f 29 30 32 
f 32 31 29 
f 25 26 30 
f 30 29 25 
f 26 28 32 
f 32 30 26 
f 28 27 31 
f 31 32 28 
f 27 25 29 
f 29 31 27 
# 12 faces

#
# object bottom001
#

v  24.8627 14.4810 0.0807
v  24.8627 15.0190 0.0807
v  -24.8627 14.4810 0.0807
v  -24.8627 15.0190 0.0807
v  24.8627 14.4810 14.4193
v  24.8627 15.0190 14.4193
v  -24.8627 14.4810 14.4193
v  -24.8627 15.0190 14.4193
# 8 vertices

g bottom001
f 33 35 36 
f 36 34 33 
f 37 38 40 
f 40 39 37 
f 33 34 38 
f 38 37 33 
f 34 36 40 
f 40 38 34 
f 36 35 39 
f 39 40 36 
f 35 33 37 
f 37 39 35 
# 12 faces

#
# object bottom002
#

v  24.8627 -15.0190 0.0807
v  24.8627 -14.4810 0.0807
v  -24.8627 -15.0190 0.0807
v  -24.8627 -14.4810 0.0807
v  24.8627 -15.0190 14.4193
v  24.8627 -14.4810 14.4193
v  -24.8627 -15.0190 14.4193
v  -24.8627 -14.4810 14.4193
# 8 vertices

g bottom002
f 41 43 44 
f 44 42 41 
f 45 46 48 
f 48 47 45 
f 41 42 46 
f 46 45 41 
f 42 44 48 
f 48 46 42 
f 44 43 47 
f 47 48 44 
f 43 41 45 
f 45 47 43 
# 12 faces

