# NV = 218 NF = 432
v -0.272309 -0.211648 0.267633
v -0.272309 -0.271062 0.267633
v -0.272309 -0.152235 0.267633
v -0.272309 -0.0928225 0.267633
v -0.272309 -0.0334096 0.267633
v -0.272309 0.0260034 0.26763
v -0.272309 0.0854189 0.26763
v -0.272309 0.144832 0.26763
v -0.272309 0.204244 0.26763
v -0.267198 0.204244 0.276481
v -0.268418 0.204244 0.271939
v -0.267198 0.263658 0.276481
v -0.267198 0.144832 0.276481
v -0.268265 0.144832 0.272507
v -0.267198 0.0854189 0.276481
v -0.268113 0.0854189 0.273075
v -0.267198 0.0260034 0.276481
v -0.267961 0.0260034 0.273643
v -0.267198 -0.0334096 0.276481
v -0.267808 -0.0334096 0.27421
v -0.267198 -0.0928225 0.276481
v -0.267656 -0.0928225 0.274779
v -0.267198 -0.152235 0.276481
v -0.267503 -0.152235 0.275346
v -0.267198 -0.211648 0.276481
v -0.267351 -0.211648 0.275914
v -0.267198 -0.271062 0.276481
v -0.268568 0.204244 0.28159
v -0.267351 0.204244 0.27705
v -0.268568 0.263658 0.28159
v -0.268568 0.144832 0.28159
v -0.267503 0.144832 0.277618
v -0.268568 0.0854189 0.28159
v -0.267656 0.0854189 0.278185
v -0.268568 0.0260034 0.28159
v -0.267808 0.0260034 0.278754
v -0.268568 -0.0334071 0.28159
v -0.267961 -0.0334071 0.279321
v -0.268568 -0.0928201 0.28159
v -0.268113 -0.0928201 0.279886
v -0.268568 -0.152235 0.28159
v -0.268265 -0.152235 0.280455
v -0.268568 -0.211648 0.28159
v -0.268418 -0.211648 0.281023
v -0.268568 -0.271062 0.28159
v -0.272309 0.204244 0.285331
v -0.268985 0.204244 0.282005
v -0.272309 0.263658 0.285331
v -0.272309 0.144832 0.285331
v -0.269402 0.144832 0.282421
v -0.272309 0.0854189 0.285331
v -0.269817 0.0854189 0.282839
v -0.272309 0.0260034 0.285331
v -0.270232 0.0260034 0.283255
v -0.272309 -0.0334071 0.285331
v -0.270648 -0.0334071 0.28367
v -0.272309 -0.0928201 0.285331
v -0.271063 -0.0928201 0.284085
v -0.272309 -0.152235 0.285331
v -0.271478 -0.152235 0.284501
v -0.272309 -0.211648 0.285331
v -0.271894 -0.211648 0.284916
v -0.272309 -0.271062 0.285331
v -0.27742 0.204244 0.286701
v -0.272877 0.204244 0.285484
v -0.27742 0.263658 0.286701
v -0.27742 0.144832 0.286701
v -0.273445 0.144832 0.285636
v -0.27742 0.0854189 0.286701
v -0.274013 0.0854189 0.285789
v -0.27742 0.0260034 0.286701
v -0.27458 0.0260034 0.285939
v -0.27742 -0.0334071 0.286701
v -0.275148 -0.0334071 0.286091
v -0.27742 -0.0928201 0.286701
v -0.275717 -0.0928201 0.286244
v -0.27742 -0.152235 0.286701
v -0.276284 -0.152235 0.286396
v -0.27742 -0.211648 0.286701
v -0.276852 -0.211648 0.286549
v -0.27742 -0.271062 0.286701
v -0.282528 0.204244 0.285331
v -0.277988 0.204244 0.286549
v -0.282528 0.263658 0.285331
v -0.282528 0.144832 0.285331
v -0.278555 0.144832 0.286396
v -0.282528 0.0854189 0.285331
v -0.279124 0.0854189 0.286244
v -0.282528 0.0260034 0.285331
v -0.279692 0.0260034 0.286091
v -0.282528 -0.0334071 0.285331
v -0.280259 -0.0334071 0.285941
v -0.282528 -0.0928201 0.285331
v -0.280824 -0.0928201 0.285789
v -0.282528 -0.152235 0.285331
v -0.281393 -0.152235 0.285636
v -0.282528 -0.211648 0.285331
v -0.28196 -0.211648 0.285484
v -0.282528 -0.271062 0.285331
v -0.286269 0.204244 0.28159
v -0.282944 0.204244 0.284916
v -0.286269 0.263658 0.28159
v -0.286269 0.144832 0.28159
v -0.283359 0.144832 0.284501
v -0.286269 0.0854189 0.28159
v -0.283776 0.0854189 0.284085
v -0.286269 0.0260034 0.28159
v -0.284193 0.0260034 0.28367
v -0.286269 -0.0334071 0.28159
v -0.284608 -0.0334071 0.283255
v -0.286269 -0.0928201 0.28159
v -0.285023 -0.0928201 0.282839
v -0.286269 -0.152235 0.28159
v -0.285439 -0.152235 0.282421
v -0.286269 -0.211648 0.28159
v -0.285854 -0.211648 0.282005
v -0.286269 -0.271062 0.28159
v -0.287639 0.204244 0.276481
v -0.286422 0.204244 0.281023
v -0.287639 0.263658 0.276481
v -0.287639 0.144832 0.276481
v -0.286574 0.144832 0.280455
v -0.287639 0.0854189 0.276481
v -0.286726 0.0854189 0.279886
v -0.287639 0.0260034 0.276481
v -0.286879 0.0260034 0.279319
v -0.287639 -0.0334096 0.276481
v -0.287029 -0.0334096 0.278754
v -0.287639 -0.0928225 0.276481
v -0.287181 -0.0928225 0.278185
v -0.287639 -0.152235 0.276481
v -0.287334 -0.152235 0.277618
v -0.287639 -0.211648 0.276481
v -0.287486 -0.211648 0.27705
v -0.287639 -0.271062 0.276481
v -0.286269 0.204244 0.271372
v -0.287486 0.204244 0.275914
v -0.286269 0.263658 0.271372
v -0.286269 0.144832 0.271372
v -0.287334 0.144832 0.275346
v -0.286269 0.0854189 0.271372
v -0.287181 0.0854189 0.274779
v -0.286269 0.0260034 0.271372
v -0.287029 0.0260034 0.27421
v -0.286269 -0.0334096 0.271372
v -0.286879 -0.0334096 0.273643
v -0.286269 -0.0928225 0.271372
v -0.286726 -0.0928225 0.273075
v -0.286269 -0.152235 0.271372
v -0.286574 -0.152235 0.272507
v -0.286269 -0.211648 0.271372
v -0.286422 -0.211648 0.271939
v -0.286269 -0.271062 0.271372
v -0.282528 0.204244 0.26763
v -0.285854 0.204244 0.270955
v -0.282528 0.263658 0.26763
v -0.282528 0.144832 0.26763
v -0.285439 0.144832 0.27054
v -0.282528 0.0854189 0.26763
v -0.285023 0.0854189 0.270125
v -0.282528 0.0260034 0.26763
v -0.284608 0.0260034 0.269709
v -0.282528 -0.0334096 0.267633
v -0.284193 -0.0334096 0.269294
v -0.282528 -0.0928225 0.267633
v -0.283774 -0.0928225 0.268879
v -0.282528 -0.152235 0.267633
v -0.283359 -0.152235 0.268463
v -0.282528 -0.211648 0.267633
v -0.282944 -0.211648 0.268048
v -0.282528 -0.271062 0.267633
v -0.27742 0.204244 0.266261
v -0.28196 0.204244 0.26748
v -0.27742 0.263658 0.266261
v -0.27742 0.144832 0.266261
v -0.281393 0.144832 0.267328
v -0.27742 0.0854189 0.266263
v -0.280824 0.0854189 0.267175
v -0.27742 0.0260034 0.266263
v -0.280257 0.0260034 0.267023
v -0.27742 -0.0334096 0.266263
v -0.279689 -0.0334096 0.26687
v -0.27742 -0.0928225 0.266263
v -0.279122 -0.0928225 0.266718
v -0.27742 -0.152235 0.266263
v -0.278555 -0.152235 0.266565
v -0.27742 -0.211648 0.266263
v -0.277988 -0.211648 0.266413
v -0.27742 -0.271062 0.266263
v -0.276852 0.204244 0.266413
v -0.276284 0.144832 0.266565
v -0.275717 0.0854189 0.266718
v -0.275148 0.0260034 0.26687
v -0.27458 -0.0334071 0.267023
v -0.274013 -0.0928225 0.267175
v -0.273445 -0.152235 0.267328
v -0.272877 -0.211648 0.26748
v -0.27742 0.263658 0.276481
v -0.27742 -0.271062 0.276481
v -0.268568 0.204244 0.271372
v -0.271894 0.204244 0.268048
v -0.268568 0.263658 0.271372
v -0.272309 0.263658 0.26763
v -0.268568 0.144832 0.271372
v -0.271478 0.144832 0.268463
v -0.268568 0.0854189 0.271372
v -0.271063 0.0854189 0.268879
v -0.268568 0.0260034 0.271372
v -0.270648 0.0260034 0.269294
v -0.268568 -0.0334096 0.271372
v -0.270232 -0.0334096 0.269709
v -0.268568 -0.0928225 0.271372
v -0.269817 -0.0928225 0.270125
v -0.268568 -0.152235 0.271372
v -0.269402 -0.152235 0.27054
v -0.268568 -0.211648 0.271372
v -0.268985 -0.211648 0.270955
v -0.268568 -0.271062 0.271372
f 202 200 201 
f 202 201 203 
f 200 204 205 
f 200 205 201 
f 204 206 207 
f 204 207 205 
f 206 208 209 
f 206 209 207 
f 208 210 211 
f 208 211 209 
f 210 212 213 
f 210 213 211 
f 212 214 215 
f 212 215 213 
f 214 216 217 
f 214 217 215 
f 216 218 217 
f 2 1 217 
f 2 217 218 
f 1 3 215 
f 1 215 217 
f 3 4 213 
f 3 213 215 
f 4 5 211 
f 4 211 213 
f 5 6 209 
f 5 209 211 
f 6 7 207 
f 6 207 209 
f 7 8 205 
f 7 205 207 
f 8 9 201 
f 8 201 205 
f 9 203 201 
f 12 10 11 
f 12 11 202 
f 10 13 14 
f 10 14 11 
f 13 15 16 
f 13 16 14 
f 15 17 18 
f 15 18 16 
f 17 19 20 
f 17 20 18 
f 19 21 22 
f 19 22 20 
f 21 23 24 
f 21 24 22 
f 23 25 26 
f 23 26 24 
f 25 27 26 
f 218 216 26 
f 218 26 27 
f 216 214 24 
f 216 24 26 
f 214 212 22 
f 214 22 24 
f 212 210 20 
f 212 20 22 
f 210 208 18 
f 210 18 20 
f 208 206 16 
f 208 16 18 
f 206 204 14 
f 206 14 16 
f 204 200 11 
f 204 11 14 
f 200 202 11 
f 30 28 29 
f 30 29 12 
f 28 31 32 
f 28 32 29 
f 31 33 34 
f 31 34 32 
f 33 35 36 
f 33 36 34 
f 35 37 38 
f 35 38 36 
f 37 39 40 
f 37 40 38 
f 39 41 42 
f 39 42 40 
f 41 43 44 
f 41 44 42 
f 43 45 44 
f 27 25 44 
f 27 44 45 
f 25 23 42 
f 25 42 44 
f 23 21 40 
f 23 40 42 
f 21 19 38 
f 21 38 40 
f 19 17 36 
f 19 36 38 
f 17 15 34 
f 17 34 36 
f 15 13 32 
f 15 32 34 
f 13 10 29 
f 13 29 32 
f 10 12 29 
f 48 46 47 
f 48 47 30 
f 46 49 50 
f 46 50 47 
f 49 51 52 
f 49 52 50 
f 51 53 54 
f 51 54 52 
f 53 55 56 
f 53 56 54 
f 55 57 58 
f 55 58 56 
f 57 59 60 
f 57 60 58 
f 59 61 62 
f 59 62 60 
f 61 63 62 
f 45 43 62 
f 45 62 63 
f 43 41 60 
f 43 60 62 
f 41 39 58 
f 41 58 60 
f 39 37 56 
f 39 56 58 
f 37 35 54 
f 37 54 56 
f 35 33 52 
f 35 52 54 
f 33 31 50 
f 33 50 52 
f 31 28 47 
f 31 47 50 
f 28 30 47 
f 66 64 65 
f 66 65 48 
f 64 67 68 
f 64 68 65 
f 67 69 70 
f 67 70 68 
f 69 71 72 
f 69 72 70 
f 71 73 74 
f 71 74 72 
f 73 75 76 
f 73 76 74 
f 75 77 78 
f 75 78 76 
f 77 79 80 
f 77 80 78 
f 79 81 80 
f 63 61 80 
f 63 80 81 
f 61 59 78 
f 61 78 80 
f 59 57 76 
f 59 76 78 
f 57 55 74 
f 57 74 76 
f 55 53 72 
f 55 72 74 
f 53 51 70 
f 53 70 72 
f 51 49 68 
f 51 68 70 
f 49 46 65 
f 49 65 68 
f 46 48 65 
f 84 82 83 
f 84 83 66 
f 82 85 86 
f 82 86 83 
f 85 87 88 
f 85 88 86 
f 87 89 90 
f 87 90 88 
f 89 91 92 
f 89 92 90 
f 91 93 94 
f 91 94 92 
f 93 95 96 
f 93 96 94 
f 95 97 98 
f 95 98 96 
f 97 99 98 
f 81 79 98 
f 81 98 99 
f 79 77 96 
f 79 96 98 
f 77 75 94 
f 77 94 96 
f 75 73 92 
f 75 92 94 
f 73 71 90 
f 73 90 92 
f 71 69 88 
f 71 88 90 
f 69 67 86 
f 69 86 88 
f 67 64 83 
f 67 83 86 
f 64 66 83 
f 102 100 101 
f 102 101 84 
f 100 103 104 
f 100 104 101 
f 103 105 106 
f 103 106 104 
f 105 107 108 
f 105 108 106 
f 107 109 110 
f 107 110 108 
f 109 111 112 
f 109 112 110 
f 111 113 114 
f 111 114 112 
f 113 115 116 
f 113 116 114 
f 115 117 116 
f 99 97 116 
f 99 116 117 
f 97 95 114 
f 97 114 116 
f 95 93 112 
f 95 112 114 
f 93 91 110 
f 93 110 112 
f 91 89 108 
f 91 108 110 
f 89 87 106 
f 89 106 108 
f 87 85 104 
f 87 104 106 
f 85 82 101 
f 85 101 104 
f 82 84 101 
f 120 118 119 
f 120 119 102 
f 118 121 122 
f 118 122 119 
f 121 123 124 
f 121 124 122 
f 123 125 126 
f 123 126 124 
f 125 127 128 
f 125 128 126 
f 127 129 130 
f 127 130 128 
f 129 131 132 
f 129 132 130 
f 131 133 134 
f 131 134 132 
f 133 135 134 
f 117 115 134 
f 117 134 135 
f 115 113 132 
f 115 132 134 
f 113 111 130 
f 113 130 132 
f 111 109 128 
f 111 128 130 
f 109 107 126 
f 109 126 128 
f 107 105 124 
f 107 124 126 
f 105 103 122 
f 105 122 124 
f 103 100 119 
f 103 119 122 
f 100 102 119 
f 138 136 137 
f 138 137 120 
f 136 139 140 
f 136 140 137 
f 139 141 142 
f 139 142 140 
f 141 143 144 
f 141 144 142 
f 143 145 146 
f 143 146 144 
f 145 147 148 
f 145 148 146 
f 147 149 150 
f 147 150 148 
f 149 151 152 
f 149 152 150 
f 151 153 152 
f 135 133 152 
f 135 152 153 
f 133 131 150 
f 133 150 152 
f 131 129 148 
f 131 148 150 
f 129 127 146 
f 129 146 148 
f 127 125 144 
f 127 144 146 
f 125 123 142 
f 125 142 144 
f 123 121 140 
f 123 140 142 
f 121 118 137 
f 121 137 140 
f 118 120 137 
f 156 154 155 
f 156 155 138 
f 154 157 158 
f 154 158 155 
f 157 159 160 
f 157 160 158 
f 159 161 162 
f 159 162 160 
f 161 163 164 
f 161 164 162 
f 163 165 166 
f 163 166 164 
f 165 167 168 
f 165 168 166 
f 167 169 170 
f 167 170 168 
f 169 171 170 
f 153 151 170 
f 153 170 171 
f 151 149 168 
f 151 168 170 
f 149 147 166 
f 149 166 168 
f 147 145 164 
f 147 164 166 
f 145 143 162 
f 145 162 164 
f 143 141 160 
f 143 160 162 
f 141 139 158 
f 141 158 160 
f 139 136 155 
f 139 155 158 
f 136 138 155 
f 174 172 173 
f 174 173 156 
f 172 175 176 
f 172 176 173 
f 175 177 178 
f 175 178 176 
f 177 179 180 
f 177 180 178 
f 179 181 182 
f 179 182 180 
f 181 183 184 
f 181 184 182 
f 183 185 186 
f 183 186 184 
f 185 187 188 
f 185 188 186 
f 187 189 188 
f 171 169 188 
f 171 188 189 
f 169 167 186 
f 169 186 188 
f 167 165 184 
f 167 184 186 
f 165 163 182 
f 165 182 184 
f 163 161 180 
f 163 180 182 
f 161 159 178 
f 161 178 180 
f 159 157 176 
f 159 176 178 
f 157 154 173 
f 157 173 176 
f 154 156 173 
f 203 9 190 
f 203 190 174 
f 9 8 191 
f 9 191 190 
f 8 7 192 
f 8 192 191 
f 7 6 193 
f 7 193 192 
f 6 5 194 
f 6 194 193 
f 5 4 195 
f 5 195 194 
f 4 3 196 
f 4 196 195 
f 3 1 197 
f 3 197 196 
f 1 2 197 
f 189 187 197 
f 189 197 2 
f 187 185 196 
f 187 196 197 
f 185 183 195 
f 185 195 196 
f 183 181 194 
f 183 194 195 
f 181 179 193 
f 181 193 194 
f 179 177 192 
f 179 192 193 
f 177 175 191 
f 177 191 192 
f 175 172 190 
f 175 190 191 
f 172 174 190 
f 198 202 203 
f 198 12 202 
f 198 30 12 
f 198 48 30 
f 198 66 48 
f 198 84 66 
f 198 102 84 
f 198 120 102 
f 198 138 120 
f 198 156 138 
f 198 174 156 
f 198 203 174 
f 199 2 218 
f 199 218 27 
f 199 27 45 
f 199 45 63 
f 199 63 81 
f 199 81 99 
f 199 99 117 
f 199 117 135 
f 199 135 153 
f 199 153 171 
f 199 171 189 
f 199 189 2 
