# 3ds Max Wavefront OBJ Exporter v0.97b - (c)2007 guruware
# File Created: 28.05.2014 16:10:40

#
# object Box001
#

v  -30.0000 -15.0000 0.0000
v  30.0000 -15.0000 0.0000
v  -30.0000 15.0000 0.0000
v  30.0000 15.0000 0.0000
v  -30.0000 -15.0000 1.0000
v  30.0000 -15.0000 1.0000
v  -30.0000 15.0000 1.0000
v  30.0000 15.0000 1.0000
# 8 vertices

g Box001
f 1 3 4 
f 4 2 1 
f 5 6 8 
f 8 7 5 
f 1 2 6 
f 6 5 1 
f 2 4 8 
f 8 6 2 
f 4 3 7 
f 7 8 4 
f 3 1 5 
f 5 7 3 
# 12 faces

#
# object Box002
#

v  -30.0000 -15.0000 20.0000
v  30.0000 -15.0000 20.0000
v  -30.0000 15.0000 20.0000
v  30.0000 15.0000 20.0000
v  -30.0000 -15.0000 21.0000
v  30.0000 -15.0000 21.0000
v  -30.0000 15.0000 21.0000
v  30.0000 15.0000 21.0000
# 8 vertices

g Box002
f 9 11 12 
f 12 10 9 
f 13 14 16 
f 16 15 13 
f 9 10 14 
f 14 13 9 
f 10 12 16 
f 16 14 10 
f 12 11 15 
f 15 16 12 
f 11 9 13 
f 13 15 11 
# 12 faces

#
# object Box003
#

v  -13.3098 15.1728 19.8379
v  -7.8785 13.5039 0.6621
v  -22.1215 -13.5039 19.8379
v  -16.6902 -15.1728 0.6621
v  -12.3933 14.8912 20.1220
v  -6.9620 13.2223 0.9461
v  -21.2050 -13.7855 20.1220
v  -15.7737 -15.4544 0.9461
# 8 vertices

g Box003
f 20 19 17 
f 17 18 20 
f 24 22 21 
f 21 23 24 
f 22 18 17 
f 17 21 22 
f 24 20 18 
f 18 22 24 
f 23 19 20 
f 20 24 23 
f 21 17 19 
f 19 23 21 
# 12 faces

#
# object Box004
#

v  12.1590 -15.0000 19.8380
v  17.8410 -15.0000 0.6620
v  12.1590 15.0000 19.8380
v  17.8410 15.0000 0.6620
v  13.1178 -15.0000 20.1220
v  18.7998 -15.0000 0.9461
v  13.1178 15.0000 20.1220
v  18.7998 15.0000 0.9461
# 8 vertices

g Box004
f 25 27 28 
f 28 26 25 
f 29 30 32 
f 32 31 29 
f 25 26 30 
f 30 29 25 
f 26 28 32 
f 32 30 26 
f 28 27 31 
f 31 32 28 
f 27 25 29 
f 29 31 27 
# 12 faces

#
# object Box006
#

v  5.7699 -1.3814 19.8379
v  9.4546 -5.7066 0.6621
v  -9.4546 -14.3512 19.8379
v  -5.7699 -18.6764 0.6621
v  6.3916 -2.1112 20.1220
v  10.0763 -6.4365 0.9461
v  -8.8328 -15.0811 20.1220
v  -5.1481 -19.4063 0.9461
# 8 vertices

g Box006
f 36 35 33 
f 33 34 36 
f 40 38 37 
f 37 39 40 
f 38 34 33 
f 33 37 38 
f 40 36 34 
f 34 38 40 
f 39 35 36 
f 36 40 39 
f 37 33 35 
f 35 39 37 
# 12 faces

#
# object Box007
#

v  4.4975 -0.2689 19.8379
v  8.7534 3.4957 0.6621
v  -8.7534 14.7115 19.8379
v  -4.4975 18.4761 0.6621
v  5.2157 0.3664 20.1220
v  9.4716 4.1309 0.9461
v  -8.0353 15.3468 20.1220
v  -3.7793 19.1114 0.9461
# 8 vertices

g Box007
f 41 43 44 
f 44 42 41 
f 45 46 48 
f 48 47 45 
f 41 42 46 
f 46 45 41 
f 42 44 48 
f 48 46 42 
f 44 43 47 
f 47 48 44 
f 43 41 45 
f 45 47 43 
# 12 faces

