# NV = 8 NF = 12
v 10.2046 18.9832 9.9428
v -8.7954 2.9832 9.9428
v -8.7954 18.9832 9.9428
v 10.2046 2.9832 10.9428
v 10.2046 18.9832 10.9428
v -8.7954 2.9832 10.9428
v -8.7954 18.9832 10.9428
v 10.2046 2.9832 9.9428
f 8 2 3 
f 3 1 8 
f 4 5 7 
f 7 6 4 
f 8 1 5 
f 5 4 8 
f 1 3 7 
f 7 5 1 
f 3 2 6 
f 6 7 3 
f 2 8 4 
f 4 6 2 
