# NV = 24 NF = 44
v 0.969112 -0.514205 0.76279
v 0.964692 -0.530709 0.762556
v 0.969112 -0.547213 0.76279
v 0.981196 -0.559291 0.763444
v 0.9977 -0.563712 0.764333
v 1.0142 -0.559291 0.765222
v 1.02628 -0.547213 0.76587
v 1.0307 -0.530709 -0.0238654
v 1.02628 -0.514205 -0.0238654
v 1.0142 -0.502127 -0.0238654
v 0.9977 -0.4977 -0.0238654
v 0.981196 -0.502127 -0.0238654
v 0.969112 -0.514205 -0.0238654
v 0.964692 -0.530709 -0.0238654
v 0.969112 -0.547213 -0.0238654
v 0.981196 -0.559291 -0.0238654
v 0.9977 -0.563712 -0.0238654
v 1.0142 -0.559291 -0.0238654
v 1.02628 -0.547213 -0.0238654
v 1.0307 -0.530709 0.76611
v 1.02628 -0.514205 0.76587
v 1.0142 -0.502127 0.765222
v 0.9977 -0.4977 0.764333
v 0.981196 -0.502127 0.763444
f 20 9 21 
f 9 20 8 
f 21 10 22 
f 10 21 9 
f 22 11 23 
f 11 22 10 
f 23 12 24 
f 12 23 11 
f 24 13 1 
f 13 24 12 
f 1 14 2 
f 14 1 13 
f 2 15 3 
f 15 2 14 
f 3 16 4 
f 16 3 15 
f 4 17 5 
f 17 4 16 
f 5 18 6 
f 18 5 17 
f 6 19 7 
f 19 6 18 
f 7 8 20 
f 8 7 19 
f 10 9 8 
f 17 8 18 
f 16 8 17 
f 15 8 16 
f 14 8 15 
f 13 8 14 
f 12 8 13 
f 11 8 12 
f 11 10 8 
f 19 18 8 
f 24 1 3 
f 4 24 3 
f 21 23 24 
f 21 7 20 
f 1 2 3 
f 5 7 4 
f 6 7 5 
f 21 24 7 
f 23 21 22 
f 24 4 7 
