# NV = 194 NF = 384
v -0.998237 -0.528395 0.746593
v 0.997902 -0.528971 0.746314
v -1.02396 -0.530709 0.813897
v -1.01963 -0.514205 0.812952
v -1.00778 -0.502127 0.810364
v -0.991608 -0.4977 0.806832
v -0.975434 -0.502127 0.8033
v -0.963591 -0.514205 0.800718
v -0.959253 -0.530709 0.799767
v -0.963591 -0.547213 0.800718
v -0.975434 -0.559291 0.8033
v -0.991608 -0.563712 0.806832
v -1.00778 -0.559291 0.810364
v -1.01963 -0.547213 0.812952
v -1.00651 -0.530709 0.859525
v -1.00252 -0.514205 0.857698
v -0.991597 -0.502127 0.852696
v -0.97668 -0.4977 0.845866
v -0.961763 -0.502127 0.839036
v -0.950848 -0.514205 0.834039
v -0.946851 -0.530709 0.832206
v -0.950848 -0.547213 0.834039
v -0.961763 -0.559291 0.839036
v -0.97668 -0.563712 0.845866
v -0.991597 -0.559291 0.852696
v -1.00252 -0.547213 0.857698
v -0.979167 -0.530709 0.89975
v -0.975696 -0.514205 0.897145
v -0.966217 -0.502127 0.89003
v -0.953262 -0.4977 0.880311
v -0.940312 -0.502127 0.870592
v -0.930833 -0.514205 0.863477
v -0.927362 -0.530709 0.860872
v -0.930833 -0.547213 0.863477
v -0.940312 -0.559291 0.870592
v -0.953262 -0.563712 0.880311
v -0.966217 -0.559291 0.89003
v -0.975696 -0.547213 0.897145
v -0.943325 -0.530709 0.933284
v -0.940541 -0.514205 0.930037
v -0.93294 -0.502127 0.921167
v -0.92255 -0.4977 0.90905
v -0.912166 -0.502127 0.896927
v -0.904559 -0.514205 0.888057
v -0.901776 -0.530709 0.88481
v -0.904559 -0.547213 0.888057
v -0.912166 -0.559291 0.896927
v -0.92255 -0.563712 0.90905
v -0.93294 -0.559291 0.921167
v -0.940541 -0.547213 0.930037
v -0.900339 -0.530709 0.95887
v -0.898383 -0.514205 0.955131
v -0.89304 -0.502127 0.944915
v -0.885741 -0.4977 0.930959
v -0.878442 -0.502127 0.917003
v -0.873099 -0.514205 0.906786
v -0.871142 -0.530709 0.903047
v -0.873099 -0.547213 0.906786
v -0.878442 -0.559291 0.917003
v -0.885741 -0.563712 0.930959
v -0.89304 -0.559291 0.944915
v -0.898383 -0.547213 0.955131
v -0.85157 -0.530709 0.975196
v -0.850558 -0.514205 0.971144
v -0.847797 -0.502127 0.960061
v -0.844024 -0.4977 0.944926
v -0.840252 -0.502127 0.929791
v -0.837485 -0.514205 0.918708
v -0.836474 -0.530709 0.91465
v -0.837485 -0.547213 0.918708
v -0.840252 -0.559291 0.929791
v -0.844024 -0.563712 0.944926
v -0.847797 -0.559291 0.960061
v -0.850558 -0.547213 0.971144
v -0.800497 -0.530709 0.980712
v -0.80024 -0.514205 0.976576
v -0.799547 -0.502127 0.96527
v -0.798597 -0.4977 0.949827
v -0.797647 -0.502127 0.934385
v -0.796954 -0.514205 0.923084
v -0.796702 -0.530709 0.918948
v -0.796954 -0.547213 0.923084
v -0.797647 -0.559291 0.934385
v -0.798597 -0.563712 0.949827
v -0.799547 -0.559291 0.96527
v -0.80024 -0.547213 0.976576
v 0.801347 -0.530709 0.980712
v 0.80109 -0.514205 0.976571
v 0.800396 -0.502127 0.96527
v 0.799446 -0.4977 0.949827
v 0.798496 -0.502127 0.934385
v 0.797803 -0.514205 0.923084
v 0.797552 -0.530709 0.918948
v 0.797803 -0.547213 0.923084
v 0.798496 -0.559291 0.934385
v 0.799446 -0.563712 0.949827
v 0.800396 -0.559291 0.96527
v 0.80109 -0.547213 0.976571
v 0.852419 -0.530709 0.975196
v 0.851408 -0.514205 0.971144
v 0.848647 -0.502127 0.960061
v 0.844874 -0.4977 0.944926
v 0.841101 -0.502127 0.929785
v 0.838335 -0.514205 0.918708
v 0.837323 -0.530709 0.91465
v 0.838335 -0.547213 0.918708
v 0.841101 -0.559291 0.929785
v 0.844874 -0.563712 0.944926
v 0.848647 -0.559291 0.960061
v 0.851408 -0.547213 0.971144
v 0.901189 -0.530709 0.95887
v 0.899233 -0.514205 0.955131
v 0.89389 -0.502127 0.944915
v 0.88659 -0.4977 0.930959
v 0.879291 -0.502127 0.917003
v 0.873948 -0.514205 0.906786
v 0.871992 -0.530709 0.903047
v 0.873948 -0.547213 0.906786
v 0.879291 -0.559291 0.917003
v 0.88659 -0.563712 0.930959
v 0.89389 -0.559291 0.944915
v 0.899233 -0.547213 0.955131
v 0.944174 -0.530709 0.933284
v 0.941391 -0.514205 0.930037
v 0.93379 -0.502127 0.921167
v 0.9234 -0.4977 0.90905
v 0.913015 -0.502127 0.896927
v 0.905409 -0.514205 0.888057
v 0.902625 -0.530709 0.88481
v 0.905409 -0.547213 0.888057
v 0.913015 -0.559291 0.896927
v 0.9234 -0.563712 0.90905
v 0.93379 -0.559291 0.921167
v 0.941391 -0.547213 0.930037
v 0.980017 -0.530709 0.89975
v 0.976546 -0.514205 0.897145
v 0.967067 -0.502127 0.89003
v 0.954112 -0.4977 0.880311
v 0.941162 -0.502127 0.870592
v 0.931683 -0.514205 0.863477
v 0.928212 -0.530709 0.860872
v 0.931683 -0.547213 0.863477
v 0.941162 -0.559291 0.870592
v 0.954112 -0.563712 0.880311
v 0.967067 -0.559291 0.89003
v 0.976546 -0.547213 0.897145
v 1.00736 -0.530709 0.859525
v 1.00337 -0.514205 0.857698
v 0.992447 -0.502127 0.852696
v 0.97753 -0.4977 0.845866
v 0.962612 -0.502127 0.839036
v 0.951697 -0.514205 0.834039
v 0.947701 -0.530709 0.832206
v 0.951697 -0.547213 0.834039
v 0.962612 -0.559291 0.839036
v 0.97753 -0.563712 0.845866
v 0.992447 -0.559291 0.852696
v 1.00337 -0.547213 0.857698
v 1.02481 -0.530709 0.813897
v 1.02048 -0.514205 0.812952
v 1.00863 -0.502127 0.810364
v 0.992458 -0.4977 0.806832
v 0.976278 -0.502127 0.8033
v 0.96444 -0.514205 0.800718
v 0.960103 -0.530709 0.799767
v 0.96444 -0.547213 0.800718
v 0.976278 -0.559291 0.8033
v 0.992458 -0.563712 0.806832
v 1.00863 -0.559291 0.810364
v 1.02048 -0.547213 0.812952
v -1.02985 -0.530709 0.76611
v -1.02543 -0.514205 0.76587
v -1.01335 -0.502127 0.765222
v -0.996851 -0.4977 0.764333
v -0.980346 -0.502127 0.763444
v -0.968263 -0.514205 0.76279
v -0.963842 -0.530709 0.762556
v -0.968263 -0.547213 0.76279
v -0.980346 -0.559291 0.763444
v -0.996851 -0.563712 0.764333
v -1.01335 -0.559291 0.765222
v -1.02543 -0.547213 0.76587
v 1.0307 -0.530709 0.76611
v 1.02628 -0.514205 0.76587
v 1.0142 -0.502127 0.765222
v 0.9977 -0.4977 0.764333
v 0.981196 -0.502127 0.763444
v 0.969112 -0.514205 0.76279
v 0.964692 -0.530709 0.762556
v 0.969112 -0.547213 0.76279
v 0.981196 -0.559291 0.763444
v 0.9977 -0.563712 0.764333
v 1.0142 -0.559291 0.765222
v 1.02628 -0.547213 0.76587
f 171 4 172 
f 4 171 3 
f 172 5 173 
f 5 172 4 
f 173 6 174 
f 6 173 5 
f 174 7 175 
f 7 174 6 
f 175 8 176 
f 8 175 7 
f 176 9 177 
f 9 176 8 
f 177 10 178 
f 10 177 9 
f 178 11 179 
f 11 178 10 
f 179 12 180 
f 12 179 11 
f 180 13 181 
f 13 180 12 
f 181 14 182 
f 14 181 13 
f 182 3 171 
f 3 182 14 
f 3 16 4 
f 16 3 15 
f 4 17 5 
f 17 4 16 
f 5 18 6 
f 18 5 17 
f 6 19 7 
f 19 6 18 
f 7 20 8 
f 20 7 19 
f 8 21 9 
f 21 8 20 
f 9 22 10 
f 22 9 21 
f 10 23 11 
f 23 10 22 
f 11 24 12 
f 24 11 23 
f 12 25 13 
f 25 12 24 
f 13 26 14 
f 26 13 25 
f 14 15 3 
f 15 14 26 
f 15 28 16 
f 28 15 27 
f 16 29 17 
f 29 16 28 
f 17 30 18 
f 30 17 29 
f 18 31 19 
f 31 18 30 
f 19 32 20 
f 32 19 31 
f 20 33 21 
f 33 20 32 
f 21 34 22 
f 34 21 33 
f 22 35 23 
f 35 22 34 
f 23 36 24 
f 36 23 35 
f 24 37 25 
f 37 24 36 
f 25 38 26 
f 38 25 37 
f 26 27 15 
f 27 26 38 
f 27 40 28 
f 40 27 39 
f 28 41 29 
f 41 28 40 
f 29 42 30 
f 42 29 41 
f 30 43 31 
f 43 30 42 
f 31 44 32 
f 44 31 43 
f 32 45 33 
f 45 32 44 
f 33 46 34 
f 46 33 45 
f 34 47 35 
f 47 34 46 
f 35 48 36 
f 48 35 47 
f 36 49 37 
f 49 36 48 
f 37 50 38 
f 50 37 49 
f 38 39 27 
f 39 38 50 
f 39 52 40 
f 52 39 51 
f 40 53 41 
f 53 40 52 
f 41 54 42 
f 54 41 53 
f 42 55 43 
f 55 42 54 
f 43 56 44 
f 56 43 55 
f 44 57 45 
f 57 44 56 
f 45 58 46 
f 58 45 57 
f 46 59 47 
f 59 46 58 
f 47 60 48 
f 60 47 59 
f 48 61 49 
f 61 48 60 
f 49 62 50 
f 62 49 61 
f 50 51 39 
f 51 50 62 
f 51 64 52 
f 64 51 63 
f 52 65 53 
f 65 52 64 
f 53 66 54 
f 66 53 65 
f 54 67 55 
f 67 54 66 
f 55 68 56 
f 68 55 67 
f 56 69 57 
f 69 56 68 
f 57 70 58 
f 70 57 69 
f 58 71 59 
f 71 58 70 
f 59 72 60 
f 72 59 71 
f 60 73 61 
f 73 60 72 
f 61 74 62 
f 74 61 73 
f 62 63 51 
f 63 62 74 
f 63 76 64 
f 76 63 75 
f 64 77 65 
f 77 64 76 
f 65 78 66 
f 78 65 77 
f 66 79 67 
f 79 66 78 
f 67 80 68 
f 80 67 79 
f 68 81 69 
f 81 68 80 
f 69 82 70 
f 82 69 81 
f 70 83 71 
f 83 70 82 
f 71 84 72 
f 84 71 83 
f 72 85 73 
f 85 72 84 
f 73 86 74 
f 86 73 85 
f 74 75 63 
f 75 74 86 
f 75 88 76 
f 88 75 87 
f 76 89 77 
f 89 76 88 
f 77 90 78 
f 90 77 89 
f 78 91 79 
f 91 78 90 
f 79 92 80 
f 92 79 91 
f 80 93 81 
f 93 80 92 
f 81 94 82 
f 94 81 93 
f 82 95 83 
f 95 82 94 
f 83 96 84 
f 96 83 95 
f 84 97 85 
f 97 84 96 
f 85 98 86 
f 98 85 97 
f 86 87 75 
f 87 86 98 
f 87 100 88 
f 100 87 99 
f 88 101 89 
f 101 88 100 
f 89 102 90 
f 102 89 101 
f 90 103 91 
f 103 90 102 
f 91 104 92 
f 104 91 103 
f 92 105 93 
f 105 92 104 
f 93 106 94 
f 106 93 105 
f 94 107 95 
f 107 94 106 
f 95 108 96 
f 108 95 107 
f 96 109 97 
f 109 96 108 
f 97 110 98 
f 110 97 109 
f 98 99 87 
f 99 98 110 
f 99 112 100 
f 112 99 111 
f 100 113 101 
f 113 100 112 
f 101 114 102 
f 114 101 113 
f 102 115 103 
f 115 102 114 
f 103 116 104 
f 116 103 115 
f 104 117 105 
f 117 104 116 
f 105 118 106 
f 118 105 117 
f 106 119 107 
f 119 106 118 
f 107 120 108 
f 120 107 119 
f 108 121 109 
f 121 108 120 
f 109 122 110 
f 122 109 121 
f 110 111 99 
f 111 110 122 
f 111 124 112 
f 124 111 123 
f 112 125 113 
f 125 112 124 
f 113 126 114 
f 126 113 125 
f 114 127 115 
f 127 114 126 
f 115 128 116 
f 128 115 127 
f 116 129 117 
f 129 116 128 
f 117 130 118 
f 130 117 129 
f 118 131 119 
f 131 118 130 
f 119 132 120 
f 132 119 131 
f 120 133 121 
f 133 120 132 
f 121 134 122 
f 134 121 133 
f 122 123 111 
f 123 122 134 
f 123 136 124 
f 136 123 135 
f 124 137 125 
f 137 124 136 
f 125 138 126 
f 138 125 137 
f 126 139 127 
f 139 126 138 
f 127 140 128 
f 140 127 139 
f 128 141 129 
f 141 128 140 
f 129 142 130 
f 142 129 141 
f 130 143 131 
f 143 130 142 
f 131 144 132 
f 144 131 143 
f 132 145 133 
f 145 132 144 
f 133 146 134 
f 146 133 145 
f 134 135 123 
f 135 134 146 
f 135 148 136 
f 148 135 147 
f 136 149 137 
f 149 136 148 
f 137 150 138 
f 150 137 149 
f 138 151 139 
f 151 138 150 
f 139 152 140 
f 152 139 151 
f 140 153 141 
f 153 140 152 
f 141 154 142 
f 154 141 153 
f 142 155 143 
f 155 142 154 
f 143 156 144 
f 156 143 155 
f 144 157 145 
f 157 144 156 
f 145 158 146 
f 158 145 157 
f 146 147 135 
f 147 146 158 
f 147 160 148 
f 160 147 159 
f 148 161 149 
f 161 148 160 
f 149 162 150 
f 162 149 161 
f 150 163 151 
f 163 150 162 
f 151 164 152 
f 164 151 163 
f 152 165 153 
f 165 152 164 
f 153 166 154 
f 166 153 165 
f 154 167 155 
f 167 154 166 
f 155 168 156 
f 168 155 167 
f 156 169 157 
f 169 156 168 
f 157 170 158 
f 170 157 169 
f 158 159 147 
f 159 158 170 
f 159 184 160 
f 184 159 183 
f 160 185 161 
f 185 160 184 
f 161 186 162 
f 186 161 185 
f 162 187 163 
f 187 162 186 
f 163 188 164 
f 188 163 187 
f 164 189 165 
f 189 164 188 
f 165 190 166 
f 190 165 189 
f 166 191 167 
f 191 166 190 
f 167 192 168 
f 192 167 191 
f 168 193 169 
f 193 168 192 
f 169 194 170 
f 194 169 193 
f 170 183 159 
f 183 170 194 
f 185 2 186 
f 2 185 184 
f 193 192 194 
f 188 2 189 
f 2 188 187 
f 191 190 192 
f 190 189 2 
f 187 186 2 
f 183 194 184 
f 2 184 194 
f 2 194 192 
f 2 192 190 
f 180 182 1 
f 174 175 1 
f 182 180 181 
f 172 182 171 
f 179 180 178 
f 176 177 1 
f 173 1 172 
f 1 178 180 
f 1 182 172 
f 177 178 1 
f 1 173 174 
f 175 176 1 
